{
  "abstract" : {
    "pref" : "Bedingungen, Motive und Barrieren EU-interner Migration. Effekte aufdie Lebensqualität und individuelle Erwartungen. Auswirkungen internerMobilität auf die Einstellungen zu europäischen Institutionen und dieIdentifikation mit Europa. \nThemen: 1. Familiäre Herkunft und Migrationshintergrund: heutigeStaatsangehörigkeit(en); Angaben zum Vater und zur Mutter:Staatsangehörigkeit(en), höchster Bildungsabschluss,Beschäftigungssituation der Eltern als der Befragte 14 Jahre alt war;Berufsbezeichnung und Sprache, in der die Job-Beschreibung angegebenwurde; Urbanisierungsgrad der Wohngegend im Heimatland; höchsterBildungsabschluss des Befragten; Studium an einer Universität oderähnlichen Institution; Aufenthalt von mehr als drei Monaten im Ziellandvor der Zuwanderung; Motive für diesen Aufenthalt (Arbeitssuche,Bildung, Lebensqualität, Familiennachzug); weitere Aufenthalte von mehrals drei Monaten in anderen Ländern; Motive für diese Aufenthalte;Erwerbstätigkeit und Beruf vor der Zuwanderung; Bekannte aus demHerkunftsland, die im Zielland schon vor der eigenen Zuwanderunglebten; Motive für die eigene Zuwanderung; elterliche Beurteilungdieser Entscheidung; Sprachkenntnisse bei der Ankunft im Zielland undderzeitige Sprachkompetenz; Erwerbstätigkeit im Zielland; ersteBeschäftigung im Zielland; derzeitige Beschäftigungssituation(Vollzeit, Teilzeit, Ausbildung, Arbeitslosigkeit, Rentner,Hausarbeit); berufliche Mobilität im Zielland; Bereitschaft zurRückkehr in das Heimatland oder zur Migration aus Europa zurVerbesserung der persönlichen Lebens- oder Arbeitsbedingungen;mögliches Ausreiseland, in dem man in 5 Jahren oder im Ruhestand lebenmöchte; größte Entbehrungen seit dem Verlassen des Heimatlandes(Familie, Freunde, Traditionen, Lebensstil, Natur, Essen, Kunst, Sport,soziale Normen, Gesetze, Politik).\n2. Europäische Identität: Selbsteinschätzung zum Kenntnisstand überPolitik und Institutionen der Europäischen Union; Informationsbedarf zuverschiedenen Rechten der EU-Bürger (Arbeit, soziale Sicherheit,Anerkennung von Bildungs-Zertifikaten, Wahlrecht); Image der EU;Verbundenheit mit den verschiedenen Wohnorten; Identifikation mitEuropa, dem Heimatland (national) oder beiden; Häufigkeit politischerThemen in Gesprächen; persönliches Interesse an politischen Themen ausdem Zielland, dem Heimatland und der EU; politische Partizipation:Teilnahme an Demonstrationen, Unterschreiben von Petitionen,Kontaktsuche zu Politikern in den letzten 12 Monaten;Wahlbeteiligungsabsicht bei der Europa-Wahl bzw. Wahlteilnahme;Teilnahme bei den letzten Wahlen im Heimatland; Selbsteinschätzung aufeinem Links-Rechts-Kontinuum; Einstellung zur Intervention des Staatesin die Wirtschaft und zur Gleichstellung von Homosexuellen. \n3. Lebensqualität: Lebenszufriedenheit (Skalometer); Häufigkeit derHeimatbesuche in den letzten 12 Monaten; Kontakthäufigkeit mitFamilienmitgliedern und Freunden aus dem Heimatland (per Telefon, Mail,E-Mail); Anteil der Freunde, die aus dem Heimatland, Zielland oderanderen Ländern stammen; Häufigkeit der persönlichen Internetnutzung;präferierte Medien bei der Informationssuche über das Heimatland,Zielland oder ein anderes Land; durchschnittliche Zeit pro Tag zumFernsehen und Lesen von Zeitungen aus dem Heimatland bzw. Zielland; inAnspruch genommene Transferleistungen im Zielland (Wohnkosten,Arbeitslosenhilfe, andere); Ehrenämter in den letzten 12 Monaten(Freizeit, Gewerkschaft, Organisationen, Parteien und Verbände);Vergleich von Heimatland und Zielland in Bezug auf dasGesundheitssystem, Bildungssystem, Wohnung, Einkommen,Kriminalitätsbekämpfung, Bürokratie, Politik; Diskriminierungserfahrungim Zielland aufgrund des Ausländerstatus; Diskriminierungssituationen(Arbeit, Bewerbung, öffentliche Einrichtungen, Geschäfte, Hauskauf,Nachbarschaft).\nDemographie: Jahr der Migration; Alter bei der Migration; Alter(Geburtsjahr); Geschlecht; Nationalität; Einbürgerung;Religionszugehörigkeit; Konfession; Urbanisierungsgrad der Wohngegendim Zielland; angemeldeter Wohnsitz; Familienstand; Partnerschaft;zusammenlebend bzw. Land, in dem der Partner lebt; Angaben zum Partner:Geschlecht, Staatsangehörigkeit, höchster Bildungsabschluss,Beschäftigungssituation; eigene Kinder; Anzahl der Kinder;hauptsächlich gesprochene Sprache mit den Kindern.\nOptional: Psychologische Selbstcharakterisierung.\nZusätzlich verkodet wurde: Land, Sprache und Jahr des Interviews.",
    "de" : "Bedingungen, Motive und Barrieren EU-interner Migration. Effekte aufdie Lebensqualität und individuelle Erwartungen. Auswirkungen internerMobilität auf die Einstellungen zu europäischen Institutionen und dieIdentifikation mit Europa. \nThemen: 1. Familiäre Herkunft und Migrationshintergrund: heutigeStaatsangehörigkeit(en); Angaben zum Vater und zur Mutter:Staatsangehörigkeit(en), höchster Bildungsabschluss,Beschäftigungssituation der Eltern als der Befragte 14 Jahre alt war;Berufsbezeichnung und Sprache, in der die Job-Beschreibung angegebenwurde; Urbanisierungsgrad der Wohngegend im Heimatland; höchsterBildungsabschluss des Befragten; Studium an einer Universität oderähnlichen Institution; Aufenthalt von mehr als drei Monaten im Ziellandvor der Zuwanderung; Motive für diesen Aufenthalt (Arbeitssuche,Bildung, Lebensqualität, Familiennachzug); weitere Aufenthalte von mehrals drei Monaten in anderen Ländern; Motive für diese Aufenthalte;Erwerbstätigkeit und Beruf vor der Zuwanderung; Bekannte aus demHerkunftsland, die im Zielland schon vor der eigenen Zuwanderunglebten; Motive für die eigene Zuwanderung; elterliche Beurteilungdieser Entscheidung; Sprachkenntnisse bei der Ankunft im Zielland undderzeitige Sprachkompetenz; Erwerbstätigkeit im Zielland; ersteBeschäftigung im Zielland; derzeitige Beschäftigungssituation(Vollzeit, Teilzeit, Ausbildung, Arbeitslosigkeit, Rentner,Hausarbeit); berufliche Mobilität im Zielland; Bereitschaft zurRückkehr in das Heimatland oder zur Migration aus Europa zurVerbesserung der persönlichen Lebens- oder Arbeitsbedingungen;mögliches Ausreiseland, in dem man in 5 Jahren oder im Ruhestand lebenmöchte; größte Entbehrungen seit dem Verlassen des Heimatlandes(Familie, Freunde, Traditionen, Lebensstil, Natur, Essen, Kunst, Sport,soziale Normen, Gesetze, Politik).\n2. Europäische Identität: Selbsteinschätzung zum Kenntnisstand überPolitik und Institutionen der Europäischen Union; Informationsbedarf zuverschiedenen Rechten der EU-Bürger (Arbeit, soziale Sicherheit,Anerkennung von Bildungs-Zertifikaten, Wahlrecht); Image der EU;Verbundenheit mit den verschiedenen Wohnorten; Identifikation mitEuropa, dem Heimatland (national) oder beiden; Häufigkeit politischerThemen in Gesprächen; persönliches Interesse an politischen Themen ausdem Zielland, dem Heimatland und der EU; politische Partizipation:Teilnahme an Demonstrationen, Unterschreiben von Petitionen,Kontaktsuche zu Politikern in den letzten 12 Monaten;Wahlbeteiligungsabsicht bei der Europa-Wahl bzw. Wahlteilnahme;Teilnahme bei den letzten Wahlen im Heimatland; Selbsteinschätzung aufeinem Links-Rechts-Kontinuum; Einstellung zur Intervention des Staatesin die Wirtschaft und zur Gleichstellung von Homosexuellen. \n3. Lebensqualität: Lebenszufriedenheit (Skalometer); Häufigkeit derHeimatbesuche in den letzten 12 Monaten; Kontakthäufigkeit mitFamilienmitgliedern und Freunden aus dem Heimatland (per Telefon, Mail,E-Mail); Anteil der Freunde, die aus dem Heimatland, Zielland oderanderen Ländern stammen; Häufigkeit der persönlichen Internetnutzung;präferierte Medien bei der Informationssuche über das Heimatland,Zielland oder ein anderes Land; durchschnittliche Zeit pro Tag zumFernsehen und Lesen von Zeitungen aus dem Heimatland bzw. Zielland; inAnspruch genommene Transferleistungen im Zielland (Wohnkosten,Arbeitslosenhilfe, andere); Ehrenämter in den letzten 12 Monaten(Freizeit, Gewerkschaft, Organisationen, Parteien und Verbände);Vergleich von Heimatland und Zielland in Bezug auf dasGesundheitssystem, Bildungssystem, Wohnung, Einkommen,Kriminalitätsbekämpfung, Bürokratie, Politik; Diskriminierungserfahrungim Zielland aufgrund des Ausländerstatus; Diskriminierungssituationen(Arbeit, Bewerbung, öffentliche Einrichtungen, Geschäfte, Hauskauf,Nachbarschaft).\nDemographie: Jahr der Migration; Alter bei der Migration; Alter(Geburtsjahr); Geschlecht; Nationalität; Einbürgerung;Religionszugehörigkeit; Konfession; Urbanisierungsgrad der Wohngegendim Zielland; angemeldeter Wohnsitz; Familienstand; Partnerschaft;zusammenlebend bzw. Land, in dem der Partner lebt; Angaben zum Partner:Geschlecht, Staatsangehörigkeit, höchster Bildungsabschluss,Beschäftigungssituation; eigene Kinder; Anzahl der Kinder;hauptsächlich gesprochene Sprache mit den Kindern.\nOptional: Psychologische Selbstcharakterisierung.\nZusätzlich verkodet wurde: Land, Sprache und Jahr des Interviews.",
    "en" : ""
  },
  "availability" : {
    "availabilityType" : "Download",
    "embargoDate" : "",
    "label" : [ {
      "pref" : "A - Daten und Dokumente sind für die akademische Forschung und Lehre freigegeben.",
      "de" : "A - Daten und Dokumente sind für die akademische Forschung und Lehre freigegeben.",
      "en" : "A - Data and documents are released for academic research and teaching."
    } ]
  },
  "collectionModes" : [ {
    "label" : {
      "pref" : "Telefonische Befragung mit standardisiertem Fragebogen durch \nbilinguale Interviewer.",
      "de" : "Telefonische Befragung mit standardisiertem Fragebogen durch \nbilinguale Interviewer.",
      "en" : ""
    }
  } ],
  "contributions" : [ {
    "type" : [ "Creator" ],
    "agent" : {
      "type" : [ "Person" ],
      "uri" : "info:searchapp/vocab/adhoc/QWxhbWlub3MsIEFudG9uaW8=",
      "label" : "Alaminos, Antonio",
      "affiliation" : {
        "uri" : "info:searchapp/vocab/adhoc/VW5pdmVyc2l0w6R0IEFsaWNhbnRl",
        "label" : {
          "pref" : "Universität Alicante",
          "de" : "Universität Alicante",
          "en" : "Universität Alicante"
        }
      }
    },
    "role" : [ ]
  }, {
    "type" : [ "Creator" ],
    "agent" : {
      "type" : [ "Person" ],
      "uri" : "info:searchapp/vocab/adhoc/UmVjY2hpLCBFdHRvcmU=",
      "label" : "Recchi, Ettore",
      "affiliation" : {
        "uri" : "info:searchapp/vocab/adhoc/VW5pdmVyc2l0w6R0IEZsb3Jlbno=",
        "label" : {
          "pref" : "Universität Florenz",
          "de" : "Universität Florenz",
          "en" : "Universität Florenz"
        }
      }
    },
    "role" : [ ]
  }, {
    "type" : [ "Creator" ],
    "agent" : {
      "type" : [ "Person" ],
      "uri" : "info:searchapp/vocab/adhoc/QnJhdW4sIE1pY2hhZWw=",
      "label" : "Braun, Michael",
      "affiliation" : {
        "uri" : "info:searchapp/vocab/adhoc/WlVNQSwgTWFubmhlaW0=",
        "label" : {
          "pref" : "ZUMA, Mannheim",
          "de" : "ZUMA, Mannheim",
          "en" : "ZUMA, Mannheim"
        }
      }
    },
    "role" : [ ]
  }, {
    "type" : [ "Creator" ],
    "agent" : {
      "type" : [ "Person" ],
      "uri" : "info:searchapp/vocab/adhoc/TXV4ZWwsIEFubmU=",
      "label" : "Muxel, Anne",
      "affiliation" : {
        "uri" : "info:searchapp/vocab/adhoc/Q05SUywgUGFyaXM=",
        "label" : {
          "pref" : "CNRS, Paris",
          "de" : "CNRS, Paris",
          "en" : "CNRS, Paris"
        }
      }
    },
    "role" : [ ]
  }, {
    "type" : [ "Creator" ],
    "agent" : {
      "type" : [ "Person" ],
      "uri" : "info:searchapp/vocab/adhoc/VGFtYmluaSwgRGFtaWFu",
      "label" : "Tambini, Damian",
      "affiliation" : {
        "uri" : "info:searchapp/vocab/adhoc/VW5pdmVyc2l0w6R0IE94Zm9yZA==",
        "label" : {
          "pref" : "Universität Oxford",
          "de" : "Universität Oxford",
          "en" : "Universität Oxford"
        }
      }
    },
    "role" : [ ]
  }, {
    "type" : [ "Creator" ],
    "agent" : {
      "type" : [ "Person" ],
      "uri" : "info:searchapp/vocab/adhoc/U2FudGFjcmV1LCBPc2thcg==",
      "label" : "Santacreu, Oskar",
      "affiliation" : {
        "uri" : "info:searchapp/vocab/adhoc/VW5pdmVyc2l0w6R0IEFsaWNhbnRl",
        "label" : {
          "pref" : "Universität Alicante",
          "de" : "Universität Alicante",
          "en" : "Universität Alicante"
        }
      }
    },
    "role" : [ ]
  } ],
  "describedBy" : {
    "uri" : "https://git.gesis.org/datorium/dbk-oai-dprex-set-data/oai.dbk.gesis.org.DBK.ZA4512",
    "type" : "ResearchData",
    "modifiedBy" : {
      "uri" : "https://searchapp-indexer",
      "label" : {
        "pref" : "Searchapp Indexer"
      },
      "dateCreated" : "2024-06-21T05:26:26.654+02:00",
      "dateModified" : "2024-06-21T05:26:26.654+02:00",
      "inDataset" : {
        "uri" : "https://dbkapps.gesis.org/dbkoai/?verb=ListIdentifiers&metadataPrefix=oai_dara&set=DPREX"
      },
      "resultOf" : {
        "type" : [ "CreateAction" ],
        "endTime" : "2024-06-21T05:26:26.654+02:00",
        "instrument" : {
          "uri" : "https://git.gesis.org/datorium/searchapp-indexer",
          "type" : [ "SoftwareApplication" ],
          "label" : "Searchapp Indexer"
        },
        "srcObject" : {
          "uri" : "https://dbkapps.gesis.org/dbkoai/?verb=GetRecord&metadataPrefix=oai_dara&identifier=oai:dbk.gesis.org:DBK/ZA4512",
          "type" : [ "DataFeedItem" ],
          "inDataset" : {
            "uri" : "https://dbkapps.gesis.org/dbkoai/?verb=ListIdentifiers&metadataPrefix=oai_dara&set=DPREX",
            "label" : "DBK_OAI"
          }
        }
      }
    }
  },
  "documentId" : "oai.dbk.gesis.org.DBK.ZA4512",
  "geographicCoverages" : [ {
    "geographicCoverageControlled" : "GB"
  }, {
    "geographicCoverageControlled" : "IT"
  }, {
    "geographicCoverageControlled" : "ES"
  }, {
    "geographicCoverageControlled" : "FR"
  }, {
    "geographicCoverageControlled" : "DE"
  } ],
  "handles" : [ {
    "type" : "DOI",
    "notation" : "10.4232/1.4512",
    "url" : "https://doi.org/10.4232/1.4512",
    "source" : {
      "uri" : "https://www.da-ra.de/",
      "label" : "DARA"
    }
  } ],
  "natureOfContents" : [ {
    "uri" : "info:searchapp/vocab/Dataset",
    "label" : {
      "pref" : "Dataset",
      "de" : "Dataset",
      "en" : "Dataset"
    }
  } ],
  "publications" : [ {
    "type" : [ "PublicationEvent" ],
    "startDate" : "2007"
  } ],
  "resourceLanguage" : "eng",
  "rights" : {
    "licenseType" : "",
    "label" : {
      "pref" : "Alle im GESIS DBK veröffentlichten Metadaten sind frei verfügbar unter den Creative Commons CC0 1.0 Universal Public Domain Dedication. GESIS bittet jedoch darum, dass Sie alle Metadatenquellen anerkennen und sie nennen, etwa die Datengeber oder jeglichen Aggregator, inklusive GESIS selbst. Für weitere Informationen siehe https://dbk.gesis.org/dbksearch/guidelines.asp?db=d",
      "de" : "Alle im GESIS DBK veröffentlichten Metadaten sind frei verfügbar unter den Creative Commons CC0 1.0 Universal Public Domain Dedication. GESIS bittet jedoch darum, dass Sie alle Metadatenquellen anerkennen und sie nennen, etwa die Datengeber oder jeglichen Aggregator, inklusive GESIS selbst. Für weitere Informationen siehe https://dbk.gesis.org/dbksearch/guidelines.asp?db=d",
      "en" : "All metadata from GESIS DBK are available free of restriction under the Creative Commons CC0 1.0 Universal Public Domain Dedication. However, GESIS requests that you actively acknowledge and give attribution to all metadata sources, such as the data providers and any data aggregators, including GESIS. For further information see https://dbk.gesis.org/dbksearch/guidelines.asp"
    }
  },
  "sampling" : {
    "method" : {
      "pref" : "Auswahlverfahren Kommentar: Zufallsauswahl.\n\nDie Auswahl basiert auf: Telefonbucheinträgen mittels der\nNamensforschung; snowball samplings; last-birthday-Methode. \n\nJe Land wurden jeweils 1000 EU-Bürger befragt. Davon waren je 250 aus\nden anderen 4 Ländern, in denen die Befragung durchgeführt wurde.",
      "de" : "Auswahlverfahren Kommentar: Zufallsauswahl.\n\nDie Auswahl basiert auf: Telefonbucheinträgen mittels der\nNamensforschung; snowball samplings; last-birthday-Methode. \n\nJe Land wurden jeweils 1000 EU-Bürger befragt. Davon waren je 250 aus\nden anderen 4 Ländern, in denen die Befragung durchgeführt wurde.",
      "en" : ""
    }
  },
  "subjects" : [ {
    "type" : [ "SubjectHeading" ],
    "uri" : "info:searchapp/vocab/adhoc/QmVzY2jDpGZ0aWd1bmcgdW5kIEVyd2VyYnN0w6R0aWdrZWl0",
    "notation" : "",
    "source" : {
      "uri" : "info:searchapp/vocab/adhoc/Q0VTU0RBIFRvcGljIENsYXNzaWZpY2F0aW9u",
      "label" : "CESSDA Topic Classification"
    },
    "label" : {
      "pref" : "Beschäftigung und Erwerbstätigkeit",
      "de" : "Beschäftigung und Erwerbstätigkeit",
      "en" : "Employment"
    }
  }, {
    "type" : [ "SubjectHeading" ],
    "uri" : "info:searchapp/vocab/adhoc/TWlncmF0aW9u",
    "notation" : "",
    "source" : {
      "uri" : "info:searchapp/vocab/adhoc/Q0VTU0RBIFRvcGljIENsYXNzaWZpY2F0aW9u",
      "label" : "CESSDA Topic Classification"
    },
    "label" : {
      "pref" : "Migration",
      "de" : "Migration",
      "en" : "Migration"
    }
  }, {
    "type" : [ "SubjectHeading" ],
    "uri" : "info:searchapp/vocab/adhoc/UG9saXRpc2NoZXMgVmVyaGFsdGVuIHVuZCBwb2xpdGlzY2hlIEVpbnN0ZWxsdW5nZW4=",
    "notation" : "",
    "source" : {
      "uri" : "info:searchapp/vocab/adhoc/Q0VTU0RBIFRvcGljIENsYXNzaWZpY2F0aW9u",
      "label" : "CESSDA Topic Classification"
    },
    "label" : {
      "pref" : "Politisches Verhalten und politische Einstellungen",
      "de" : "Politisches Verhalten und politische Einstellungen",
      "en" : "Political behaviour and attitudes"
    }
  }, {
    "type" : [ "SubjectHeading" ],
    "uri" : "info:searchapp/vocab/adhoc/U09aSUFMRSBTQ0hJQ0hUVU5HIFVORCBHUlVQUElFUlVOR0VO",
    "notation" : "",
    "source" : {
      "uri" : "info:searchapp/vocab/adhoc/Q0VTU0RBIFRvcGljIENsYXNzaWZpY2F0aW9u",
      "label" : "CESSDA Topic Classification"
    },
    "label" : {
      "pref" : "SOZIALE SCHICHTUNG UND GRUPPIERUNGEN",
      "de" : "SOZIALE SCHICHTUNG UND GRUPPIERUNGEN",
      "en" : "SOCIAL STRATIFICATION AND GROUPINGS"
    }
  }, {
    "type" : [ "SubjectHeading" ],
    "uri" : "info:searchapp/vocab/adhoc/U296aWFsZSB1bmQgYmVydWZsaWNoZSBNb2JpbGl0w6R0",
    "notation" : "",
    "source" : {
      "uri" : "info:searchapp/vocab/adhoc/Q0VTU0RBIFRvcGljIENsYXNzaWZpY2F0aW9u",
      "label" : "CESSDA Topic Classification"
    },
    "label" : {
      "pref" : "Soziale und berufliche Mobilität",
      "de" : "Soziale und berufliche Mobilität",
      "en" : "Social and occupational mobility"
    }
  } ],
  "temporalCoverages" : [ {
    "startDate" : "2004-05",
    "endDate" : "2005-01",
    "labels" : [ ]
  } ],
  "timeDimensions" : [ {
    "timeDimensionType" : ""
  } ],
  "title" : {
    "pref" : "European Internal Movers Social Survey (PIONEUR project)",
    "de" : "European Internal Movers Social Survey (PIONEUR project)",
    "en" : "European Internal Movers Social Survey (PIONEUR project)"
  },
  "universe" : {
    "sampled" : {
      "pref" : "EU-Bürger aus den anderen 4 Ländern, die als Erwachsene zwischen 1974\nund 2003 in das Zielland eingewandert sind und zum Befragungszeitpunkt\nschon mindestens ein Jahr dort lebten.",
      "de" : "EU-Bürger aus den anderen 4 Ländern, die als Erwachsene zwischen 1974\nund 2003 in das Zielland eingewandert sind und zum Befragungszeitpunkt\nschon mindestens ein Jahr dort lebten.",
      "en" : ""
    }
  },
  "uri" : "https://doi.org/10.4232/1.4512",
  "searchappPublisher" : {
    "shortName" : "GESIS",
    "name" : {
      "de" : "GESIS - Leibniz Institut für Sozialwissenschaften",
      "en" : "GESIS - Leibniz Institute for the Social Sciences"
    },
    "url" : "https://www.gesis.org/"
  },
  "calculatedTemporalCoverage" : {
    "label" : "2004 - 2005",
    "dates" : [ "2004", "2005" ]
  }
}
