{
  "abstract" : {
    "pref" : "Die vom Bundesministerium für Bildung und Forschung in Auftrag gegebene Studie „Regulation biographischer Übergänge bei Migranten der zweiten Generation in Deutschland und Israel“ untersucht die Fragestellung, welche Faktoren die positive Entwicklung von Kindern, Jugendlichen und jungen Erwachsenen fördert. Dazu wurden biografische Übergänge während der ersten drei Lebensjahrzenten bei Einheimischen, Angehörigen von Minderheiten und Menschen mit Migrationshintergrund in Deutschland und Israel aus der Längsschnittperspektive untersucht. Insbesondere wurde der Fokus auf die folgenden vier biografischen Übergänge gelegt: Eintritt in den Kindergarten und die Einschulung in der Kindheit, erste Partnerschaften im Jugendalter und das Zusammenleben als Paar im jungen Erwachsenenalter. Im Rahmen von standardisierten persönlichen Interviews wurden in Deutschland einheimische Deutsche, Aussiedler, jüdische Einwanderer aus der ehemaligen Sowjetunion und türkische Migranten befragt. In Israel waren einheimische Israelis, Personen, die zur arabischen Minderheit zählen, sowie russisch-jüdische Einwanderer Zielgruppe der Befragung. In Deutschland wurde eine Zufallsstichprobe auf Grundlage der Registerdaten von Frankfurt und Stuttgart für alle Befragungsgruppen gezogen. Da Russisch-jüdische Einwanderer nicht auf Grundlage der Registerdaten identifizierbar waren, wurden sie durch Schneeballverfahren rekrutiert. In Israel wurde eine mehrstufige Zufallsstichprobe auf der Grundlage statistischer Flächeneinheiten mit anschließendem Telefonscreening gebildet.",
    "de" : "Die vom Bundesministerium für Bildung und Forschung in Auftrag gegebene Studie „Regulation biographischer Übergänge bei Migranten der zweiten Generation in Deutschland und Israel“ untersucht die Fragestellung, welche Faktoren die positive Entwicklung von Kindern, Jugendlichen und jungen Erwachsenen fördert. Dazu wurden biografische Übergänge während der ersten drei Lebensjahrzenten bei Einheimischen, Angehörigen von Minderheiten und Menschen mit Migrationshintergrund in Deutschland und Israel aus der Längsschnittperspektive untersucht. Insbesondere wurde der Fokus auf die folgenden vier biografischen Übergänge gelegt: Eintritt in den Kindergarten und die Einschulung in der Kindheit, erste Partnerschaften im Jugendalter und das Zusammenleben als Paar im jungen Erwachsenenalter. Im Rahmen von standardisierten persönlichen Interviews wurden in Deutschland einheimische Deutsche, Aussiedler, jüdische Einwanderer aus der ehemaligen Sowjetunion und türkische Migranten befragt. In Israel waren einheimische Israelis, Personen, die zur arabischen Minderheit zählen, sowie russisch-jüdische Einwanderer Zielgruppe der Befragung. In Deutschland wurde eine Zufallsstichprobe auf Grundlage der Registerdaten von Frankfurt und Stuttgart für alle Befragungsgruppen gezogen. Da Russisch-jüdische Einwanderer nicht auf Grundlage der Registerdaten identifizierbar waren, wurden sie durch Schneeballverfahren rekrutiert. In Israel wurde eine mehrstufige Zufallsstichprobe auf der Grundlage statistischer Flächeneinheiten mit anschließendem Telefonscreening gebildet.",
    "en" : "The study \"Regulation of Biographical Transitions among Second-Generation Migrants in Germany and Israel,\" commissioned by the German Federal Ministry of Education and Research, investigates the question of which factors promote the positive development of children, adolescents, and young adults. For this purpose, biographical transitions during the first three decades of life among natives, members of minorities, and people with a migration background in Germany and Israel were examined from a longitudinal perspective. In particular, the focus was on the following four biographical transitions: Entry into kindergarten and school enrollment in childhood, first partnerships in adolescence, and living together as a couple in young adulthood. In Germany, native Germans, ethnic German repatriates, Jewish immigrants from the former Soviet Union, and Turkish migrants were interviewed using standardized personal interviews. In Israel, native Israelis, persons belonging to the Arab minority, and Russian Jewish immigrants were the target group of the survey. In Germany, a random sample was drawn based on register data from Frankfurt and Stuttgart for all survey groups. Since Russian-Jewish immigrants were not identifiable based on the register data, they were recruited through snowball sampling. In Israel, a multistage random sample was formed based on statistical areas followed by telephone screening."
  },
  "availability" : {
    "availabilityType" : "Download",
    "embargoDate" : "",
    "label" : [ {
      "pref" : "A - Daten und Dokumente sind für die akademische Forschung und Lehre freigegeben.",
      "de" : "A - Daten und Dokumente sind für die akademische Forschung und Lehre freigegeben.",
      "en" : "A - Data and documents are released for academic research and teaching."
    } ]
  },
  "collectionModes" : [ {
    "type" : "Interview.FaceToFace.PAPI"
  } ],
  "contributions" : [ {
    "type" : [ "Creator" ],
    "agent" : {
      "type" : [ "Person" ],
      "uri" : "info:searchapp/vocab/adhoc/TGF2ZWUsIFlvYXY=",
      "label" : "Lavee, Yoav",
      "affiliation" : {
        "uri" : "info:searchapp/vocab/adhoc/VW5pdmVyc2l0eSBvZiBIYWlmYSwgSXNyYWVs",
        "label" : {
          "pref" : "University of Haifa, Israel",
          "de" : "University of Haifa, Israel",
          "en" : "University of Haifa, Israel"
        }
      }
    },
    "role" : [ ]
  }, {
    "type" : [ "Creator" ],
    "agent" : {
      "type" : [ "Person" ],
      "uri" : "info:searchapp/vocab/adhoc/TmF1Y2ssIEJlcm5oYXJk",
      "label" : "Nauck, Bernhard",
      "affiliation" : {
        "uri" : "info:searchapp/vocab/adhoc/VGVjaG5pc2NoZSBVbml2ZXJzaXTDpHQgQ2hlbW5pdHo=",
        "label" : {
          "pref" : "Technische Universität Chemnitz",
          "de" : "Technische Universität Chemnitz",
          "en" : "Technische Universität Chemnitz"
        }
      }
    },
    "role" : [ ]
  }, {
    "type" : [ "Creator" ],
    "agent" : {
      "type" : [ "Person" ],
      "uri" : "info:searchapp/vocab/adhoc/U2FnaS1TY2h3YXJ0eiwgQXZp",
      "label" : "Sagi-Schwartz, Avi",
      "affiliation" : {
        "uri" : "info:searchapp/vocab/adhoc/VW5pdmVyc2l0eSBvZiBIYWlmYSwgSXNyYWVs",
        "label" : {
          "pref" : "University of Haifa, Israel",
          "de" : "University of Haifa, Israel",
          "en" : "University of Haifa, Israel"
        }
      }
    },
    "role" : [ ]
  }, {
    "type" : [ "Creator" ],
    "agent" : {
      "type" : [ "Person" ],
      "uri" : "info:searchapp/vocab/adhoc/U2lsYmVyZWlzZW4sIFJhaW5lciBLLg==",
      "label" : "Silbereisen, Rainer K.",
      "affiliation" : {
        "uri" : "info:searchapp/vocab/adhoc/RnJpZWRyaWNoIFNjaGlsbGVyIFVuaXZlcnNpdHkgSmVuYQ==",
        "label" : {
          "pref" : "Friedrich Schiller University Jena",
          "de" : "Friedrich Schiller University Jena",
          "en" : "Friedrich Schiller University Jena"
        }
      }
    },
    "role" : [ ]
  }, {
    "type" : [ "Creator" ],
    "agent" : {
      "type" : [ "Person" ],
      "uri" : "info:searchapp/vocab/adhoc/U3RlaW5iYWNoLCBBbmph",
      "label" : "Steinbach, Anja",
      "affiliation" : {
        "uri" : "info:searchapp/vocab/adhoc/VGVjaG5pc2NoZSBVbml2ZXJzaXTDpHQgQ2hlbW5pdHo=",
        "label" : {
          "pref" : "Technische Universität Chemnitz",
          "de" : "Technische Universität Chemnitz",
          "en" : "Technische Universität Chemnitz"
        }
      }
    },
    "role" : [ ]
  }, {
    "type" : [ "Creator" ],
    "agent" : {
      "type" : [ "Person" ],
      "uri" : "info:searchapp/vocab/adhoc/VGl0em1hbm4sIFBldGVyIEYu",
      "label" : "Titzmann, Peter F.",
      "affiliation" : {
        "uri" : "info:searchapp/vocab/adhoc/RnJpZWRyaWNoIFNjaGlsbGVyIFVuaXZlcnNpdHkgSmVuYQ==",
        "label" : {
          "pref" : "Friedrich Schiller University Jena",
          "de" : "Friedrich Schiller University Jena",
          "en" : "Friedrich Schiller University Jena"
        }
      }
    },
    "role" : [ ]
  } ],
  "describedBy" : {
    "uri" : "https://git.gesis.org/datorium/dbk-oai-dprex-set-data/oai.dbk.gesis.org.DBK.ZA5083",
    "type" : "ResearchData",
    "modifiedBy" : {
      "uri" : "https://searchapp-indexer",
      "label" : {
        "pref" : "Searchapp Indexer"
      },
      "dateCreated" : "2024-06-21T05:26:26.627+02:00",
      "dateModified" : "2024-06-21T05:26:26.627+02:00",
      "inDataset" : {
        "uri" : "https://dbkapps.gesis.org/dbkoai/?verb=ListIdentifiers&metadataPrefix=oai_dara&set=DPREX"
      },
      "resultOf" : {
        "type" : [ "CreateAction" ],
        "endTime" : "2024-06-21T05:26:26.627+02:00",
        "instrument" : {
          "uri" : "https://git.gesis.org/datorium/searchapp-indexer",
          "type" : [ "SoftwareApplication" ],
          "label" : "Searchapp Indexer"
        },
        "srcObject" : {
          "uri" : "https://dbkapps.gesis.org/dbkoai/?verb=GetRecord&metadataPrefix=oai_dara&identifier=oai:dbk.gesis.org:DBK/ZA5083",
          "type" : [ "DataFeedItem" ],
          "inDataset" : {
            "uri" : "https://dbkapps.gesis.org/dbkoai/?verb=ListIdentifiers&metadataPrefix=oai_dara&set=DPREX",
            "label" : "DBK_OAI"
          }
        }
      }
    }
  },
  "documentId" : "oai.dbk.gesis.org.DBK.ZA5083",
  "geographicCoverages" : [ {
    "geographicCoverageControlled" : "DE"
  }, {
    "geographicCoverageControlled" : "IL"
  } ],
  "handles" : [ {
    "type" : "DOI",
    "notation" : "10.4232/1.11700",
    "url" : "https://doi.org/10.4232/1.11700",
    "source" : {
      "uri" : "https://www.da-ra.de/",
      "label" : "DARA"
    }
  } ],
  "natureOfContents" : [ {
    "uri" : "info:searchapp/vocab/Dataset",
    "label" : {
      "pref" : "Dataset",
      "de" : "Dataset",
      "en" : "Dataset"
    }
  } ],
  "publications" : [ {
    "type" : [ "PublicationEvent" ],
    "startDate" : "2013"
  } ],
  "resourceLanguage" : "deu",
  "rights" : {
    "licenseType" : "",
    "label" : {
      "pref" : "Alle im GESIS DBK veröffentlichten Metadaten sind frei verfügbar unter den Creative Commons CC0 1.0 Universal Public Domain Dedication. GESIS bittet jedoch darum, dass Sie alle Metadatenquellen anerkennen und sie nennen, etwa die Datengeber oder jeglichen Aggregator, inklusive GESIS selbst. Für weitere Informationen siehe https://dbk.gesis.org/dbksearch/guidelines.asp?db=d",
      "de" : "Alle im GESIS DBK veröffentlichten Metadaten sind frei verfügbar unter den Creative Commons CC0 1.0 Universal Public Domain Dedication. GESIS bittet jedoch darum, dass Sie alle Metadatenquellen anerkennen und sie nennen, etwa die Datengeber oder jeglichen Aggregator, inklusive GESIS selbst. Für weitere Informationen siehe https://dbk.gesis.org/dbksearch/guidelines.asp?db=d",
      "en" : "All metadata from GESIS DBK are available free of restriction under the Creative Commons CC0 1.0 Universal Public Domain Dedication. However, GESIS requests that you actively acknowledge and give attribution to all metadata sources, such as the data providers and any data aggregators, including GESIS. For further information see https://dbk.gesis.org/dbksearch/guidelines.asp"
    }
  },
  "sampling" : {
    "method" : {
      "pref" : "Wahrscheinlichkeitsauswahl; Nicht-Wahrscheinlichkeitsauswahl",
      "de" : "Wahrscheinlichkeitsauswahl; Nicht-Wahrscheinlichkeitsauswahl",
      "en" : "Probability; Non-probability"
    }
  },
  "subjects" : [ {
    "type" : [ "SubjectHeading" ],
    "uri" : "info:searchapp/vocab/adhoc/TWlncmF0aW9u",
    "notation" : "",
    "source" : {
      "uri" : "info:searchapp/vocab/adhoc/Q0VTU0RBIFRvcGljIENsYXNzaWZpY2F0aW9u",
      "label" : "CESSDA Topic Classification"
    },
    "label" : {
      "pref" : "Migration",
      "de" : "Migration",
      "en" : "Migration"
    }
  } ],
  "temporalCoverages" : [ {
    "startDate" : "2007-10",
    "endDate" : "2008-07",
    "labels" : [ ]
  } ],
  "timeDimensions" : [ {
    "timeDimensionType" : "Longitudinal.Panel"
  } ],
  "title" : {
    "pref" : "Regulation biographischer Übergänge bei Migranten der zweiten Generation in Deutschland und Israel",
    "de" : "Regulation biographischer Übergänge bei Migranten der zweiten Generation in Deutschland und Israel",
    "en" : "Regulation of biographical transitions in second generation immigrants in Germany and Israel"
  },
  "universe" : {
    "sampled" : {
      "pref" : "Individuen vor und nach Entwicklungsübergängen (in Israel und Deutschland über sieben ethnischen Gruppen hinweg; einheimische Deutsche, russisch-jüdische Einwanderer, deutschstämmige Aussiedler, türkische Einwanderer, israelische Veteranen, russisch-jüdische Einwanderer, arabischstämmige Menschen)\n\nÜbergang zum Kindergarten (T1):  Kinder von 2-5 Jahre\n\nÜbergang zur Schule (T2): Kinder von 5-7 Jahre\n\nÜbergang zu der ersten romantischen Beziehung (T3): Heranwachsende von 15-18 Jahre\n\nÜbergang zum Zusammenleben (T4): Junge Erwachsene von 20-30 Jahre",
      "de" : "Individuen vor und nach Entwicklungsübergängen (in Israel und Deutschland über sieben ethnischen Gruppen hinweg; einheimische Deutsche, russisch-jüdische Einwanderer, deutschstämmige Aussiedler, türkische Einwanderer, israelische Veteranen, russisch-jüdische Einwanderer, arabischstämmige Menschen)\n\nÜbergang zum Kindergarten (T1):  Kinder von 2-5 Jahre\n\nÜbergang zur Schule (T2): Kinder von 5-7 Jahre\n\nÜbergang zu der ersten romantischen Beziehung (T3): Heranwachsende von 15-18 Jahre\n\nÜbergang zum Zusammenleben (T4): Junge Erwachsene von 20-30 Jahre",
      "en" : "Individuals before and after developmental transitions (in Israel and Germany, seven ethnic groups; native Germans, Russian-Jewish immigrants, ethnic German repatriates, Turkish immigrants, Veteran Israelis, Russian-Jewish immigrants, Arabs).\n\nTransition to Kindergarten (T1):  Children from 2-5 years old\n\nTransition to school (T2): Children from 5-7 years\n\nTransition to first romantic relationship (T3): Adolescents from 15-18 years\n\nTransition to cohabitation (T4): Young adults from 20-30 years"
    }
  },
  "uri" : "https://doi.org/10.4232/1.11700",
  "searchappPublisher" : {
    "shortName" : "GESIS",
    "name" : {
      "de" : "GESIS - Leibniz Institut für Sozialwissenschaften",
      "en" : "GESIS - Leibniz Institute for the Social Sciences"
    },
    "url" : "https://www.gesis.org/"
  },
  "calculatedTemporalCoverage" : {
    "label" : "2007 - 2008",
    "dates" : [ "2007", "2008" ]
  }
}
