{
  "abstract" : {
    "pref" : "ALLBUScompact ist als alternative Einsteigerversion (Public Use File)für die komplexer strukturierte Vollversion im Angebot. Speziell fürALLBUScompact wurde dementsprechend ein vereinfachtes Demografiemodulselektiert, das die wichtigsten demografischen Indikatoren in einerübersichtlichen Gruppe vereint. Die sonstigen inhaltlichen Fragemodule,die keine sensitiven Daten enthalten, entsprechen weiterhin vollständigder ALLBUS Vollversion (Scientific Use File). ALLBUScompact eignet sichdaher vor allem für Einsteiger in die Datenanalyse. Eine vollständigeBeschreibung der inhaltlichen Fragemodule finden Sie unter <a href=https://dbk.gesis.org/dbksearch/SDESC2.asp?no=3700&search=allbus&search2=&DB=D target=_self>Studiennummer 3700 (ALLBUS 2002)</a>.",
    "de" : "ALLBUScompact ist als alternative Einsteigerversion (Public Use File)für die komplexer strukturierte Vollversion im Angebot. Speziell fürALLBUScompact wurde dementsprechend ein vereinfachtes Demografiemodulselektiert, das die wichtigsten demografischen Indikatoren in einerübersichtlichen Gruppe vereint. Die sonstigen inhaltlichen Fragemodule,die keine sensitiven Daten enthalten, entsprechen weiterhin vollständigder ALLBUS Vollversion (Scientific Use File). ALLBUScompact eignet sichdaher vor allem für Einsteiger in die Datenanalyse. Eine vollständigeBeschreibung der inhaltlichen Fragemodule finden Sie unter <a href=https://dbk.gesis.org/dbksearch/SDESC2.asp?no=3700&search=allbus&search2=&DB=D target=_self>Studiennummer 3700 (ALLBUS 2002)</a>.",
    "en" : "ALLBUScompact is offered as an alternative to the structurally morecomplex full version of ALLBUS. It addresses the needs of newcomers todata analysis by providing a simplified demography module containing aneasily manageable group of the most important demographic indicators.All topical question modules not containing sensitive data are retainedas in the ALLBUS full version (scientific use file). For acomprehensive description of study topics please compare <a href=https://dbk.gesis.org/dbksearch/SDesc2_eng.asp?no=3700&search=allbus&search2=&db=E target=_self>Study No. 3700 (ALLBUS 2002)</a>."
  },
  "availability" : {
    "availabilityType" : "Download",
    "embargoDate" : "",
    "label" : [ {
      "pref" : "A - Daten und Dokumente sind für die akademische Forschung und Lehre freigegeben.",
      "de" : "A - Daten und Dokumente sind für die akademische Forschung und Lehre freigegeben.",
      "en" : "A - Data and documents are released for academic research and teaching."
    } ]
  },
  "collectionModes" : [ {
    "type" : "Interview.FaceToFace.CAPICAMI"
  }, {
    "type" : "SelfAdministeredQuestionnaire.Paper"
  } ],
  "contributions" : [ {
    "type" : [ "Creator" ],
    "agent" : {
      "type" : [ "Institution" ],
      "uri" : "info:searchapp/vocab/adhoc/R0VTSVMgLSBMZWlibml6LUluc3RpdHV0IGbDvHIgU296aWFsd2lzc2Vuc2NoYWZ0ZW4=",
      "label" : "GESIS - Leibniz-Institut für Sozialwissenschaften"
    },
    "role" : [ ]
  } ],
  "describedBy" : {
    "uri" : "https://git.gesis.org/datorium/dbk-oai-dprex-set-data/oai.dbk.gesis.org.DBK.ZA3701",
    "type" : "ResearchData",
    "modifiedBy" : {
      "uri" : "https://searchapp-indexer",
      "label" : {
        "pref" : "Searchapp Indexer"
      },
      "dateCreated" : "2024-06-21T05:26:25.671+02:00",
      "dateModified" : "2024-06-21T05:26:25.671+02:00",
      "inDataset" : {
        "uri" : "https://dbkapps.gesis.org/dbkoai/?verb=ListIdentifiers&metadataPrefix=oai_dara&set=DPREX"
      },
      "resultOf" : {
        "type" : [ "CreateAction" ],
        "endTime" : "2024-06-21T05:26:25.671+02:00",
        "instrument" : {
          "uri" : "https://git.gesis.org/datorium/searchapp-indexer",
          "type" : [ "SoftwareApplication" ],
          "label" : "Searchapp Indexer"
        },
        "srcObject" : {
          "uri" : "https://dbkapps.gesis.org/dbkoai/?verb=GetRecord&metadataPrefix=oai_dara&identifier=oai:dbk.gesis.org:DBK/ZA3701",
          "type" : [ "DataFeedItem" ],
          "inDataset" : {
            "uri" : "https://dbkapps.gesis.org/dbkoai/?verb=ListIdentifiers&metadataPrefix=oai_dara&set=DPREX",
            "label" : "DBK_OAI"
          }
        }
      }
    }
  },
  "documentId" : "oai.dbk.gesis.org.DBK.ZA3701",
  "geographicCoverages" : [ {
    "geographicCoverageControlled" : "DE"
  } ],
  "handles" : [ {
    "type" : "DOI",
    "notation" : "10.4232/1.11139",
    "url" : "https://doi.org/10.4232/1.11139",
    "source" : {
      "uri" : "https://www.da-ra.de/",
      "label" : "DARA"
    }
  } ],
  "natureOfContents" : [ {
    "uri" : "info:searchapp/vocab/Dataset",
    "label" : {
      "pref" : "Dataset",
      "de" : "Dataset",
      "en" : "Dataset"
    }
  } ],
  "publications" : [ {
    "type" : [ "PublicationEvent" ],
    "startDate" : "2011"
  } ],
  "resourceLanguage" : "deu",
  "rights" : {
    "licenseType" : "",
    "label" : {
      "pref" : "Alle im GESIS DBK veröffentlichten Metadaten sind frei verfügbar unter den Creative Commons CC0 1.0 Universal Public Domain Dedication. GESIS bittet jedoch darum, dass Sie alle Metadatenquellen anerkennen und sie nennen, etwa die Datengeber oder jeglichen Aggregator, inklusive GESIS selbst. Für weitere Informationen siehe https://dbk.gesis.org/dbksearch/guidelines.asp?db=d",
      "de" : "Alle im GESIS DBK veröffentlichten Metadaten sind frei verfügbar unter den Creative Commons CC0 1.0 Universal Public Domain Dedication. GESIS bittet jedoch darum, dass Sie alle Metadatenquellen anerkennen und sie nennen, etwa die Datengeber oder jeglichen Aggregator, inklusive GESIS selbst. Für weitere Informationen siehe https://dbk.gesis.org/dbksearch/guidelines.asp?db=d",
      "en" : "All metadata from GESIS DBK are available free of restriction under the Creative Commons CC0 1.0 Universal Public Domain Dedication. However, GESIS requests that you actively acknowledge and give attribution to all metadata sources, such as the data providers and any data aggregators, including GESIS. For further information see https://dbk.gesis.org/dbksearch/guidelines.asp"
    }
  },
  "sampling" : {
    "method" : {
      "pref" : "Wahrscheinlichkeitsauswahl: Disproportional geschichtete Zufallsauswahl; Wahrscheinlichkeitsauswahl: Mehrstufige Zufallsauswahl; Auswahlverfahren Kommentar:",
      "de" : "Wahrscheinlichkeitsauswahl: Disproportional geschichtete Zufallsauswahl; Wahrscheinlichkeitsauswahl: Mehrstufige Zufallsauswahl; Auswahlverfahren Kommentar:",
      "en" : "Probability: Stratified: Disproportional; Probability: Multistage; Sampling Procedure Comment:"
    }
  },
  "subjects" : [ {
    "type" : [ "SubjectHeading" ],
    "uri" : "info:searchapp/vocab/adhoc/TWlncmF0aW9u",
    "notation" : "",
    "source" : {
      "uri" : "info:searchapp/vocab/adhoc/Q0VTU0RBIFRvcGljIENsYXNzaWZpY2F0aW9u",
      "label" : "CESSDA Topic Classification"
    },
    "label" : {
      "pref" : "Migration",
      "de" : "Migration",
      "en" : "Migration"
    }
  }, {
    "type" : [ "SubjectHeading" ],
    "uri" : "info:searchapp/vocab/adhoc/UmVsaWdpb24gdW5kIFdlcnRl",
    "notation" : "",
    "source" : {
      "uri" : "info:searchapp/vocab/adhoc/Q0VTU0RBIFRvcGljIENsYXNzaWZpY2F0aW9u",
      "label" : "CESSDA Topic Classification"
    },
    "label" : {
      "pref" : "Religion und Werte",
      "de" : "Religion und Werte",
      "en" : "Religion and values"
    }
  }, {
    "type" : [ "SubjectHeading" ],
    "uri" : "info:searchapp/vocab/adhoc/U296aWFsZXIgV2FuZGVs",
    "notation" : "",
    "source" : {
      "uri" : "info:searchapp/vocab/adhoc/Q0VTU0RBIFRvcGljIENsYXNzaWZpY2F0aW9u",
      "label" : "CESSDA Topic Classification"
    },
    "label" : {
      "pref" : "Sozialer Wandel",
      "de" : "Sozialer Wandel",
      "en" : "Social change"
    }
  }, {
    "type" : [ "SubjectHeading" ],
    "uri" : "info:searchapp/vocab/adhoc/U296aWFsZXMgVmVyaGFsdGVuIHVuZCBzb3ppYWxlIEVpbnN0ZWxsdW5nZW4=",
    "notation" : "",
    "source" : {
      "uri" : "info:searchapp/vocab/adhoc/Q0VTU0RBIFRvcGljIENsYXNzaWZpY2F0aW9u",
      "label" : "CESSDA Topic Classification"
    },
    "label" : {
      "pref" : "Soziales Verhalten und soziale Einstellungen",
      "de" : "Soziales Verhalten und soziale Einstellungen",
      "en" : "Social behaviour and attitudes"
    }
  }, {
    "type" : [ "SubjectHeading" ],
    "uri" : "info:searchapp/vocab/adhoc/UG9saXRpc2NoZXMgVmVyaGFsdGVuIHVuZCBwb2xpdGlzY2hlIEVpbnN0ZWxsdW5nZW4=",
    "notation" : "",
    "source" : {
      "uri" : "info:searchapp/vocab/adhoc/Q0VTU0RBIFRvcGljIENsYXNzaWZpY2F0aW9u",
      "label" : "CESSDA Topic Classification"
    },
    "label" : {
      "pref" : "Politisches Verhalten und politische Einstellungen",
      "de" : "Politisches Verhalten und politische Einstellungen",
      "en" : "Political behaviour and attitudes"
    }
  }, {
    "type" : [ "SubjectHeading" ],
    "uri" : "info:searchapp/vocab/adhoc/UmVnaWVydW5nLCBwb2xpdGlzY2hlIFN5c3RlbWUsIFBhcnRlaWVuIHVuZCBPcmdhbmlzYXRpb25lbg==",
    "notation" : "",
    "source" : {
      "uri" : "info:searchapp/vocab/adhoc/Q0VTU0RBIFRvcGljIENsYXNzaWZpY2F0aW9u",
      "label" : "CESSDA Topic Classification"
    },
    "label" : {
      "pref" : "Regierung, politische Systeme, Parteien und Organisationen",
      "de" : "Regierung, politische Systeme, Parteien und Organisationen",
      "en" : "Government, political systems and organisations"
    }
  }, {
    "type" : [ "SubjectHeading" ],
    "uri" : "info:searchapp/vocab/adhoc/RmFtaWxpZSB1bmQgRWhl",
    "notation" : "",
    "source" : {
      "uri" : "info:searchapp/vocab/adhoc/Q0VTU0RBIFRvcGljIENsYXNzaWZpY2F0aW9u",
      "label" : "CESSDA Topic Classification"
    },
    "label" : {
      "pref" : "Familie und Ehe",
      "de" : "Familie und Ehe",
      "en" : "Family life and marriage"
    }
  }, {
    "type" : [ "SubjectHeading" ],
    "uri" : "info:searchapp/vocab/adhoc/R2VzY2hsZWNodCB1bmQgR2VzY2hsZWNodGVycm9sbGVu",
    "notation" : "",
    "source" : {
      "uri" : "info:searchapp/vocab/adhoc/Q0VTU0RBIFRvcGljIENsYXNzaWZpY2F0aW9u",
      "label" : "CESSDA Topic Classification"
    },
    "label" : {
      "pref" : "Geschlecht und Geschlechterrollen",
      "de" : "Geschlecht und Geschlechterrollen",
      "en" : "Gender and gender roles"
    }
  } ],
  "temporalCoverages" : [ {
    "startDate" : "2002-02",
    "endDate" : "2002-08",
    "labels" : [ ]
  } ],
  "timeDimensions" : [ {
    "timeDimensionType" : "CrossSection"
  } ],
  "title" : {
    "pref" : "Allgemeine Bevölkerungsumfrage der Sozialwissenschaften ALLBUScompact 2002",
    "de" : "Allgemeine Bevölkerungsumfrage der Sozialwissenschaften ALLBUScompact 2002",
    "en" : "ALLBUScompact/GGSScompact 2002 (Allgemeine Bevölkerungsumfrage der \\nSozialwissenschaften/German General Social \\nSurvey 2002)"
  },
  "universe" : {
    "sampled" : {
      "pref" : "Alle in der Bundesrepublik Deutschland lebende Personen (Deutsche und\nAusländer), die zum Befragungszeitpunkt in Privathaushalten lebten und\nvor dem 01.01.84 geboren sind",
      "de" : "Alle in der Bundesrepublik Deutschland lebende Personen (Deutsche und\nAusländer), die zum Befragungszeitpunkt in Privathaushalten lebten und\nvor dem 01.01.84 geboren sind",
      "en" : "All persons (German and non-German) who resided in private households and were born before 1 January 1984"
    }
  },
  "uri" : "https://doi.org/10.4232/1.11139",
  "searchappPublisher" : {
    "shortName" : "GESIS",
    "name" : {
      "de" : "GESIS - Leibniz Institut für Sozialwissenschaften",
      "en" : "GESIS - Leibniz Institute for the Social Sciences"
    },
    "url" : "https://www.gesis.org/"
  },
  "calculatedTemporalCoverage" : {
    "label" : "2002",
    "dates" : [ "2002" ]
  }
}
