{
  "abstract" : {
    "pref" : "Vorurteile, Rassismus, Fremdenfeindlichkeit, Antisemitismus, Islamophobie,Etabliertenvorrechte, Sexismus, Heterophobie.\nThemen: Einschätzung der wirtschaftlichen Lage in der BundesrepublikDeutschland sowie der eigenen wirtschaftlichen Lage und des eigenenLebensstandards; Einschätzung der eigenen Zukunftssicherung;Beurteilung der wirtschaftlichen Lage in der Wohngegend im Vergleichmit der wirtschaftlichen Lage in der BRD; Einschätzung derwirtschaftlichen Lage der Deutschen im Vergleich zu den Ausländern inDeutschland; gerechter Anteil am Sozialprodukt; Beurteilung des eigenenderzeitigen finanziellen Lebensstandards; Einschätzung der eigenenwirtschaftlichen Situation in fünf Jahren; Einkommensquellen underhaltene Transferleistungen; deutsche Staatsangehörigkeit desBefragten; Staatsangehörigkeit des Lebenspartners, der Eltern undGroßeltern; Stolz, Deutscher bzw. Europäer zu sein; Religiosität;Konfession; Einstellung zum Absolutheitsanspruch der eigenen Religion;Wichtigkeit persönlicher Einflussnahme auf die Lösunggesellschaftlicher Probleme; politische Selbsteinschätzung auf einemLinks-Rechts-Kontinuum; Parteipräferenz (Sonntagsfrage);Teilnahmehäufigkeit an Veranstaltungen von Vereinen und Organisationen;Größe des Bekanntenkreises; Zufriedenheit mit Beziehungen zu Bekannten;Unterschiedlichkeit der Ansichten und Meinungen im Bekanntenkreis;Einstellung des Bekanntenkreises zur Zuwanderung von Ausländern undThematisierung des Zuzugs; Ausländer in der Nachbarschaft, imFreundeskreis und am Arbeitsplatz; Häufigkeit persönlicher Kontakte mitausländischen Nachbarn und Arbeitskollegen; Behinderte als Freunde oderBekannte; Sympathie für Deutsche und Ausländer in Deutschland;Häufigkeit von Hilfsleistungen an und erfahrene Belästigungen durchAusländer; interessante Gespräche mit Ausländern; aktuelle emotionaleGefühlslage (Skala); Häufigkeit ablehnender Äußerungen über Ausländerim Familien- oder Bekanntenkreis, von Angriffen auf Ausländer inGegenwart des Befragten im letzten Jahr und eigene Reaktion darauf;Häufigkeit antisemitischer Äußerungen (eigener Antisemitismus bzw.Antisemitismus im Familien- oder Bekanntenkreis) und eigene Reaktiondarauf; Einstellung zu sozialer Gerechtigkeit in Deutschland (Skala:Solidarität mit Hilfsbedürftigen, Fairness, freie politischeBetätigung, gerechte Wohlstandsverteilung, Gleichstellung von Mann undFrau, Chancengleichheit); Autoritarismus; Einstellung zur Rolle derFrau in der Gesellschaft (Diskriminierung, Benachteilung durchBeschäftigungspolitik, Mutterrolle); Orientierungslosigkeit;Einstellung zum Islam und zu Muslimen (Islamophobie); Einstellung zuHomosexuellen, Obdachlosen und Behinderten (Heterophobie); Einstellungzu Fremdenfeindlichkeit, Rassismus und Dominanz (bei den befragtenAusländern wurden alternative Frageformulierungen bei dieser Skalaappliziert, die sich auf Aussiedler bzw. Türken beziehen); Einstellungzu Etabliertenvorrechten; Gewaltbilligung und Gewaltbereitschaft;Einstellung zum Antisemitismus (Skala); Irrelevanz politischerPartizipation und Gefühl politischer Wirksamkeit; soziale Ungleichheit;persönliche soziale Integration (Skala); Nationalstolz; StolzWestdeutscher bzw. Ostdeutscher zu sein; Identifikation als Europäer;Stolz auf deutsche Geschichte, Demokratie und soziale Sicherheit inDeutschland.\nDemographie: Haushaltsgröße; Geburtsjahr; Geschlecht; Familienstand;Zusammenleben mit einem Partner; höchster Schulabschluss;abgeschlossene Berufsausbildung; Bildungsaspiration; derzeitigeErwerbstätigkeit; Charakteristika des Haushaltsvorstands. \nErwerbstätige wurden gefragt: Berufliche Anerkennung undBerufszufriedenheit; Häufigkeit von Arbeitslosigkeit in den letztenfünf Jahren; Angst vor Arbeitslosigkeit; Wahrscheinlichkeit vonArbeitslosigkeit in den nächsten fünf Jahren; Person im Haushalt mithöherem Einkommen.\nNichterwerbstätige wurden gefragt: Erwerbstätigkeit in derVergangenheit; zuletzt ausgeübter Beruf; schwierige Arbeitssuche;Anerkennung der Tätigkeit im Alltag; Zufriedenheit mit der Tätigkeit.\nZusätzlich verkodet wurde: Wiederbefragungsbereitschaft; Bundesland;Regierungsbezirk; Gemeindetyp; Ortsgröße; Gewichtungsfaktor Ost-West;Interviewtag; Interviewbeginn; Anzahl der Personen in der Zielgruppe imHaushalt; Interviewdauer; Anzahl der Teilinterviews im Falle einerUnterbrechung des Interviews; Anzahl der Kontaktversuche;Intervieweridentifikation; Interviewergeschlecht und Intervieweralter.",
    "de" : "Vorurteile, Rassismus, Fremdenfeindlichkeit, Antisemitismus, Islamophobie,Etabliertenvorrechte, Sexismus, Heterophobie.\nThemen: Einschätzung der wirtschaftlichen Lage in der BundesrepublikDeutschland sowie der eigenen wirtschaftlichen Lage und des eigenenLebensstandards; Einschätzung der eigenen Zukunftssicherung;Beurteilung der wirtschaftlichen Lage in der Wohngegend im Vergleichmit der wirtschaftlichen Lage in der BRD; Einschätzung derwirtschaftlichen Lage der Deutschen im Vergleich zu den Ausländern inDeutschland; gerechter Anteil am Sozialprodukt; Beurteilung des eigenenderzeitigen finanziellen Lebensstandards; Einschätzung der eigenenwirtschaftlichen Situation in fünf Jahren; Einkommensquellen underhaltene Transferleistungen; deutsche Staatsangehörigkeit desBefragten; Staatsangehörigkeit des Lebenspartners, der Eltern undGroßeltern; Stolz, Deutscher bzw. Europäer zu sein; Religiosität;Konfession; Einstellung zum Absolutheitsanspruch der eigenen Religion;Wichtigkeit persönlicher Einflussnahme auf die Lösunggesellschaftlicher Probleme; politische Selbsteinschätzung auf einemLinks-Rechts-Kontinuum; Parteipräferenz (Sonntagsfrage);Teilnahmehäufigkeit an Veranstaltungen von Vereinen und Organisationen;Größe des Bekanntenkreises; Zufriedenheit mit Beziehungen zu Bekannten;Unterschiedlichkeit der Ansichten und Meinungen im Bekanntenkreis;Einstellung des Bekanntenkreises zur Zuwanderung von Ausländern undThematisierung des Zuzugs; Ausländer in der Nachbarschaft, imFreundeskreis und am Arbeitsplatz; Häufigkeit persönlicher Kontakte mitausländischen Nachbarn und Arbeitskollegen; Behinderte als Freunde oderBekannte; Sympathie für Deutsche und Ausländer in Deutschland;Häufigkeit von Hilfsleistungen an und erfahrene Belästigungen durchAusländer; interessante Gespräche mit Ausländern; aktuelle emotionaleGefühlslage (Skala); Häufigkeit ablehnender Äußerungen über Ausländerim Familien- oder Bekanntenkreis, von Angriffen auf Ausländer inGegenwart des Befragten im letzten Jahr und eigene Reaktion darauf;Häufigkeit antisemitischer Äußerungen (eigener Antisemitismus bzw.Antisemitismus im Familien- oder Bekanntenkreis) und eigene Reaktiondarauf; Einstellung zu sozialer Gerechtigkeit in Deutschland (Skala:Solidarität mit Hilfsbedürftigen, Fairness, freie politischeBetätigung, gerechte Wohlstandsverteilung, Gleichstellung von Mann undFrau, Chancengleichheit); Autoritarismus; Einstellung zur Rolle derFrau in der Gesellschaft (Diskriminierung, Benachteilung durchBeschäftigungspolitik, Mutterrolle); Orientierungslosigkeit;Einstellung zum Islam und zu Muslimen (Islamophobie); Einstellung zuHomosexuellen, Obdachlosen und Behinderten (Heterophobie); Einstellungzu Fremdenfeindlichkeit, Rassismus und Dominanz (bei den befragtenAusländern wurden alternative Frageformulierungen bei dieser Skalaappliziert, die sich auf Aussiedler bzw. Türken beziehen); Einstellungzu Etabliertenvorrechten; Gewaltbilligung und Gewaltbereitschaft;Einstellung zum Antisemitismus (Skala); Irrelevanz politischerPartizipation und Gefühl politischer Wirksamkeit; soziale Ungleichheit;persönliche soziale Integration (Skala); Nationalstolz; StolzWestdeutscher bzw. Ostdeutscher zu sein; Identifikation als Europäer;Stolz auf deutsche Geschichte, Demokratie und soziale Sicherheit inDeutschland.\nDemographie: Haushaltsgröße; Geburtsjahr; Geschlecht; Familienstand;Zusammenleben mit einem Partner; höchster Schulabschluss;abgeschlossene Berufsausbildung; Bildungsaspiration; derzeitigeErwerbstätigkeit; Charakteristika des Haushaltsvorstands. \nErwerbstätige wurden gefragt: Berufliche Anerkennung undBerufszufriedenheit; Häufigkeit von Arbeitslosigkeit in den letztenfünf Jahren; Angst vor Arbeitslosigkeit; Wahrscheinlichkeit vonArbeitslosigkeit in den nächsten fünf Jahren; Person im Haushalt mithöherem Einkommen.\nNichterwerbstätige wurden gefragt: Erwerbstätigkeit in derVergangenheit; zuletzt ausgeübter Beruf; schwierige Arbeitssuche;Anerkennung der Tätigkeit im Alltag; Zufriedenheit mit der Tätigkeit.\nZusätzlich verkodet wurde: Wiederbefragungsbereitschaft; Bundesland;Regierungsbezirk; Gemeindetyp; Ortsgröße; Gewichtungsfaktor Ost-West;Interviewtag; Interviewbeginn; Anzahl der Personen in der Zielgruppe imHaushalt; Interviewdauer; Anzahl der Teilinterviews im Falle einerUnterbrechung des Interviews; Anzahl der Kontaktversuche;Intervieweridentifikation; Interviewergeschlecht und Intervieweralter.",
    "en" : ""
  },
  "availability" : {
    "availabilityType" : "Delivery",
    "embargoDate" : "",
    "label" : [ {
      "pref" : "C - Daten und Dokumente sind für die akademische Forschung und Lehre nur nach schriftlicher Genehmigung des Datengebers zugänglich. Das Datenarchiv holt dazu schriftlich die Genehmigung unter Angabe des Benutzers und des Auswertungszweckes ein.",
      "de" : "C - Daten und Dokumente sind für die akademische Forschung und Lehre nur nach schriftlicher Genehmigung des Datengebers zugänglich. Das Datenarchiv holt dazu schriftlich die Genehmigung unter Angabe des Benutzers und des Auswertungszweckes ein.",
      "en" : "C - Data and documents are only released for academic research and teaching after the data depositor’s written authorization. For this purpose the Data Archive obtains a written permission with specification of the user and the analysis intention."
    } ]
  },
  "collectionModes" : [ {
    "label" : {
      "pref" : "Computer-unterstützte telefonische Befragung (CATI) mit\nstandardisiertem Fragebogen",
      "de" : "Computer-unterstützte telefonische Befragung (CATI) mit\nstandardisiertem Fragebogen",
      "en" : ""
    }
  } ],
  "contributions" : [ {
    "type" : [ "Creator" ],
    "agent" : {
      "type" : [ "Person" ],
      "uri" : "info:searchapp/vocab/adhoc/SGVpdG1leWVyLCBXaWxoZWxt",
      "label" : "Heitmeyer, Wilhelm",
      "affiliation" : {
        "uri" : "info:searchapp/vocab/adhoc/SW5zdGl0dXQgZsO8ciBpbnRlcmRpc3ppcGxpbsOkcmUgS29uZmxpa3QtIHVuZCBHZXdhbHRmb3JzY2h1bmcgZGVyIFVuaXZlcnNpdMOkdCBCaWVsZWZlbGQ=",
        "label" : {
          "pref" : "Institut für interdisziplinäre Konflikt- und Gewaltforschung der Universität Bielefeld",
          "de" : "Institut für interdisziplinäre Konflikt- und Gewaltforschung der Universität Bielefeld",
          "en" : "Institut für interdisziplinäre Konflikt- und Gewaltforschung der Universität Bielefeld"
        }
      }
    },
    "role" : [ ]
  }, {
    "type" : [ "Creator" ],
    "agent" : {
      "type" : [ "Person" ],
      "uri" : "info:searchapp/vocab/adhoc/S8O8aG5lbCwgU3RlZmZlbg==",
      "label" : "Kühnel, Steffen",
      "affiliation" : {
        "uri" : "info:searchapp/vocab/adhoc/VW5pdmVyc2l0w6R0IEfDtnR0aW5nZW4=",
        "label" : {
          "pref" : "Universität Göttingen",
          "de" : "Universität Göttingen",
          "en" : "Universität Göttingen"
        }
      }
    },
    "role" : [ ]
  }, {
    "type" : [ "Creator" ],
    "agent" : {
      "type" : [ "Person" ],
      "uri" : "info:searchapp/vocab/adhoc/U2NobWlkdCwgUGV0ZXI=",
      "label" : "Schmidt, Peter",
      "affiliation" : {
        "uri" : "info:searchapp/vocab/adhoc/VW5pdmVyc2l0w6R0IEdpZcOfZW4=",
        "label" : {
          "pref" : "Universität Gießen",
          "de" : "Universität Gießen",
          "en" : "Universität Gießen"
        }
      }
    },
    "role" : [ ]
  }, {
    "type" : [ "Creator" ],
    "agent" : {
      "type" : [ "Person" ],
      "uri" : "info:searchapp/vocab/adhoc/V2FnbmVyLCBVbHJpY2g=",
      "label" : "Wagner, Ulrich",
      "affiliation" : {
        "uri" : "info:searchapp/vocab/adhoc/VW5pdmVyc2l0w6R0IE1hcmJ1cmc=",
        "label" : {
          "pref" : "Universität Marburg",
          "de" : "Universität Marburg",
          "en" : "Universität Marburg"
        }
      }
    },
    "role" : [ ]
  }, {
    "type" : [ "Creator" ],
    "agent" : {
      "type" : [ "Person" ],
      "uri" : "info:searchapp/vocab/adhoc/TWFuc2VsLCBKw7xyZ2Vu",
      "label" : "Mansel, Jürgen",
      "affiliation" : {
        "uri" : "info:searchapp/vocab/adhoc/VW5pdmVyc2l0w6R0IEJpZWxlZmVsZA==",
        "label" : {
          "pref" : "Universität Bielefeld",
          "de" : "Universität Bielefeld",
          "en" : "Universität Bielefeld"
        }
      }
    },
    "role" : [ ]
  } ],
  "describedBy" : {
    "uri" : "https://git.gesis.org/datorium/dbk-oai-dprex-set-data/oai.dbk.gesis.org.DBK.ZA4391",
    "type" : "ResearchData",
    "modifiedBy" : {
      "uri" : "https://searchapp-indexer",
      "label" : {
        "pref" : "Searchapp Indexer"
      },
      "dateCreated" : "2024-06-21T05:26:26.46+02:00",
      "dateModified" : "2024-06-21T05:26:26.46+02:00",
      "inDataset" : {
        "uri" : "https://dbkapps.gesis.org/dbkoai/?verb=ListIdentifiers&metadataPrefix=oai_dara&set=DPREX"
      },
      "resultOf" : {
        "type" : [ "CreateAction" ],
        "endTime" : "2024-06-21T05:26:26.46+02:00",
        "instrument" : {
          "uri" : "https://git.gesis.org/datorium/searchapp-indexer",
          "type" : [ "SoftwareApplication" ],
          "label" : "Searchapp Indexer"
        },
        "srcObject" : {
          "uri" : "https://dbkapps.gesis.org/dbkoai/?verb=GetRecord&metadataPrefix=oai_dara&identifier=oai:dbk.gesis.org:DBK/ZA4391",
          "type" : [ "DataFeedItem" ],
          "inDataset" : {
            "uri" : "https://dbkapps.gesis.org/dbkoai/?verb=ListIdentifiers&metadataPrefix=oai_dara&set=DPREX",
            "label" : "DBK_OAI"
          }
        }
      }
    }
  },
  "documentId" : "oai.dbk.gesis.org.DBK.ZA4391",
  "geographicCoverages" : [ {
    "geographicCoverageControlled" : "DE"
  } ],
  "handles" : [ {
    "type" : "DOI",
    "notation" : "10.4232/1.11808",
    "url" : "https://doi.org/10.4232/1.11808",
    "source" : {
      "uri" : "https://www.da-ra.de/",
      "label" : "DARA"
    }
  } ],
  "natureOfContents" : [ {
    "uri" : "info:searchapp/vocab/Dataset",
    "label" : {
      "pref" : "Dataset",
      "de" : "Dataset",
      "en" : "Dataset"
    }
  } ],
  "publications" : [ {
    "type" : [ "PublicationEvent" ],
    "startDate" : "2013"
  } ],
  "resourceLanguage" : "deu",
  "rights" : {
    "licenseType" : "",
    "label" : {
      "pref" : "Alle im GESIS DBK veröffentlichten Metadaten sind frei verfügbar unter den Creative Commons CC0 1.0 Universal Public Domain Dedication. GESIS bittet jedoch darum, dass Sie alle Metadatenquellen anerkennen und sie nennen, etwa die Datengeber oder jeglichen Aggregator, inklusive GESIS selbst. Für weitere Informationen siehe https://dbk.gesis.org/dbksearch/guidelines.asp?db=d",
      "de" : "Alle im GESIS DBK veröffentlichten Metadaten sind frei verfügbar unter den Creative Commons CC0 1.0 Universal Public Domain Dedication. GESIS bittet jedoch darum, dass Sie alle Metadatenquellen anerkennen und sie nennen, etwa die Datengeber oder jeglichen Aggregator, inklusive GESIS selbst. Für weitere Informationen siehe https://dbk.gesis.org/dbksearch/guidelines.asp?db=d",
      "en" : "All metadata from GESIS DBK are available free of restriction under the Creative Commons CC0 1.0 Universal Public Domain Dedication. However, GESIS requests that you actively acknowledge and give attribution to all metadata sources, such as the data providers and any data aggregators, including GESIS. For further information see https://dbk.gesis.org/dbksearch/guidelines.asp"
    }
  },
  "sampling" : {
    "method" : {
      "pref" : "Auswahlverfahren Kommentar: Repräsentative Zufallsauswahl nach dem RL2D-Verfahren und\nAuswahl der Zielperson nach dem Schwedenschlüssel\n\nDisproportionale Stichprobe von 2000 Personen in den alten\nBundesländern (einschließlich Berlin) und 1000 Personen in den neuen\nBundesländern",
      "de" : "Auswahlverfahren Kommentar: Repräsentative Zufallsauswahl nach dem RL2D-Verfahren und\nAuswahl der Zielperson nach dem Schwedenschlüssel\n\nDisproportionale Stichprobe von 2000 Personen in den alten\nBundesländern (einschließlich Berlin) und 1000 Personen in den neuen\nBundesländern",
      "en" : ""
    }
  },
  "subjects" : [ {
    "type" : [ "SubjectHeading" ],
    "uri" : "info:searchapp/vocab/adhoc/UG9saXRpc2NoZXMgVmVyaGFsdGVuIHVuZCBwb2xpdGlzY2hlIEVpbnN0ZWxsdW5nZW4=",
    "notation" : "",
    "source" : {
      "uri" : "info:searchapp/vocab/adhoc/Q0VTU0RBIFRvcGljIENsYXNzaWZpY2F0aW9u",
      "label" : "CESSDA Topic Classification"
    },
    "label" : {
      "pref" : "Politisches Verhalten und politische Einstellungen",
      "de" : "Politisches Verhalten und politische Einstellungen",
      "en" : "Political behaviour and attitudes"
    }
  }, {
    "type" : [ "SubjectHeading" ],
    "uri" : "info:searchapp/vocab/adhoc/U09aSUFMRSBTQ0hJQ0hUVU5HIFVORCBHUlVQUElFUlVOR0VO",
    "notation" : "",
    "source" : {
      "uri" : "info:searchapp/vocab/adhoc/Q0VTU0RBIFRvcGljIENsYXNzaWZpY2F0aW9u",
      "label" : "CESSDA Topic Classification"
    },
    "label" : {
      "pref" : "SOZIALE SCHICHTUNG UND GRUPPIERUNGEN",
      "de" : "SOZIALE SCHICHTUNG UND GRUPPIERUNGEN",
      "en" : "SOCIAL STRATIFICATION AND GROUPINGS"
    }
  }, {
    "type" : [ "SubjectHeading" ],
    "uri" : "info:searchapp/vocab/adhoc/TWluZGVyaGVpdGVu",
    "notation" : "",
    "source" : {
      "uri" : "info:searchapp/vocab/adhoc/Q0VTU0RBIFRvcGljIENsYXNzaWZpY2F0aW9u",
      "label" : "CESSDA Topic Classification"
    },
    "label" : {
      "pref" : "Minderheiten",
      "de" : "Minderheiten",
      "en" : "Minorities"
    }
  }, {
    "type" : [ "SubjectHeading" ],
    "uri" : "info:searchapp/vocab/adhoc/R2xlaWNoaGVpdCwgVW5nbGVpY2hoZWl0IHVuZCBzb3ppYWxlIEF1c2dyZW56dW5n",
    "notation" : "",
    "source" : {
      "uri" : "info:searchapp/vocab/adhoc/Q0VTU0RBIFRvcGljIENsYXNzaWZpY2F0aW9u",
      "label" : "CESSDA Topic Classification"
    },
    "label" : {
      "pref" : "Gleichheit, Ungleichheit und soziale Ausgrenzung",
      "de" : "Gleichheit, Ungleichheit und soziale Ausgrenzung",
      "en" : "Equality, inequality and social exclusion"
    }
  } ],
  "temporalCoverages" : [ {
    "startDate" : "2002-05",
    "endDate" : "2002-06",
    "labels" : [ ]
  } ],
  "timeDimensions" : [ {
    "timeDimensionType" : ""
  } ],
  "title" : {
    "pref" : "Gruppenbezogene Menschenfeindlichkeit (GMF-Survey 2002)",
    "de" : "Gruppenbezogene Menschenfeindlichkeit (GMF-Survey 2002)",
    "en" : "Group-oriented animosity against people (GMF-Survey 2002)"
  },
  "universe" : {
    "sampled" : {
      "pref" : "Deutschsprechende Personen ab 16 Jahren in Privathaushalten mit\nTelefonanschluss",
      "de" : "Deutschsprechende Personen ab 16 Jahren in Privathaushalten mit\nTelefonanschluss",
      "en" : ""
    }
  },
  "uri" : "https://doi.org/10.4232/1.11808",
  "searchappPublisher" : {
    "shortName" : "GESIS",
    "name" : {
      "de" : "GESIS - Leibniz Institut für Sozialwissenschaften",
      "en" : "GESIS - Leibniz Institute for the Social Sciences"
    },
    "url" : "https://www.gesis.org/"
  },
  "calculatedTemporalCoverage" : {
    "label" : "2002",
    "dates" : [ "2002" ]
  }
}
