{
  "abstract" : {
    "pref" : "Wohnung und Wohnstatus. Wohnkosten. Siedlungsstruktureller undsozialstruktureller Kontext der Wohnung und dessen Bewertung.Wirtschaftliche Grundlage. Nachbarschaft und Integration. Mobilität. \nThemen: 1. Wohnen: Ortsgröße; im Ortskern oder außerhalb wohnend;Wohnlage; Wohndauer am Wohnort; Zufriedenheit mit dem Wohnort(Skalometer); Wohndauer in der jetzigen Wohnung; Wohnstatus. \n2. Wohnkosten: Mieter wurden gefragt: Mietvertrag zur Hand; Höhe desmonatlichen Gesamtbetrags für Miete und Nebenkosten; Höhe derGrundmiete (Nettokaltmiete); Höhe der monatlichen Pauschale für kalte(umlagefähige) Nebenkosten; Miete inklusive Heizung und Warmwasser;Höhe der monatlichen Kosten für Heizung und Warmwasser; Beurteilung derMietkosten; Bezug von Wohngeld und Arbeitslosengeld II; Eigentümerwurden gefragt: Art des Eigentumserwerbs (Altbestand, Neubau, Erbe);Inanspruchnahme staatlicher Förderung (KfW, Wohnbauförderung derLänder, kommunale Förderung, Eigenheimzulage). \n3. Derzeitige Wohnung und Wohnumfeld: Wohnfläche; Anzahl derWohnräume; Beurteilung der Wohnungsgröße; Ausstattung der Wohnung;Ausstattung entspricht den Bedürfnissen; Erbauungszeitraum; Haustyp;baulicher Zustand des Hauses; Zufriedenheit mit der Wohnung, derunmittelbaren Wohnumgebung und den Umweltbedingungen in derWohnumgebung  (Skalometer). \n4. Wohngebiet und Sozialstruktur: Beschreibung der Wohnumgebung unddes Wohngebiets; Struktur des Wohngebiets (Altbauten, neuere Häuseroder reines Neubaugebiet); Ein- oder Zweifamilienhäuser oder größereWohnblocks; subjektiv wahrgenommene Bevölkerungszusammensetzung imWohngebiet. \n5. Nachbarschaft und Integration: Verhältnis von Deutschen undAusländern in der Wohnumgebung; Einstellung zur räumlichen Trennung vonDeutschen und Ausländern in einer Nachbarschaft; deutscheStaatsangehörigkeit; Kontakte zu Ausländern und Deutschen(Segregation). \n6. Mobilität: Umzugsabsicht; Hauptgrund für den Wegzug;Umzugspräferenz (Zielgebiet); Meinung zur Zusammenlegung des eigenenBundeslandes mit dem benachbarten Bundesland; Beurteilung derpersönlichen wirtschaftlichen Lage; Erwerbsstatus; Einschätzung dereigenen Arbeitsplatzsicherheit; Probleme bei der Vereinbarkeit vonFamilie und Beruf. \nDemographie: Geschlecht; Alter; Familienstand; Haushaltstyp;erwerbsstatus; Erwerbstätigkeit in Vollzeit oder Teilzeit bzw.stundenweise; berufliche Stellung; Berufsgruppen (derzeitige bzw.frühere Haupttätigkeit); Angestelltenstatus, Arbeiterstatus oderBeamtenstatus; Schulabschluss; abgeschlossene Berufsausbildung bzw.Studium; Haushaltsgröße; Haushaltszusammensetzung: Anzahl der Kinderunter 6 Jahren, von 6 bis 13 Jahren, der Jugendlichen von 14 bis 17Jahren, der Personen ab 18 Jahren und ab 65 Jahren; Anzahl der Personenim Haushalt mit eigenem Einkommen; Haushaltsnettoeinkommen;Erwerbsstatus weiterer Personen im Haushalt bzw. Arbeitslose, Rentneroder Studenten im Haushalt; Lebenszufriedenheit (Skalometer). \nZusätzlich verkodet wurde: Erhebungsjahr; Befragungswelle, Bundesland;Ost/West; BIK Gemeindetyp; Stadt- und Gemeindetyp; Gewichtungsfaktoren.",
    "de" : "Wohnung und Wohnstatus. Wohnkosten. Siedlungsstruktureller undsozialstruktureller Kontext der Wohnung und dessen Bewertung.Wirtschaftliche Grundlage. Nachbarschaft und Integration. Mobilität. \nThemen: 1. Wohnen: Ortsgröße; im Ortskern oder außerhalb wohnend;Wohnlage; Wohndauer am Wohnort; Zufriedenheit mit dem Wohnort(Skalometer); Wohndauer in der jetzigen Wohnung; Wohnstatus. \n2. Wohnkosten: Mieter wurden gefragt: Mietvertrag zur Hand; Höhe desmonatlichen Gesamtbetrags für Miete und Nebenkosten; Höhe derGrundmiete (Nettokaltmiete); Höhe der monatlichen Pauschale für kalte(umlagefähige) Nebenkosten; Miete inklusive Heizung und Warmwasser;Höhe der monatlichen Kosten für Heizung und Warmwasser; Beurteilung derMietkosten; Bezug von Wohngeld und Arbeitslosengeld II; Eigentümerwurden gefragt: Art des Eigentumserwerbs (Altbestand, Neubau, Erbe);Inanspruchnahme staatlicher Förderung (KfW, Wohnbauförderung derLänder, kommunale Förderung, Eigenheimzulage). \n3. Derzeitige Wohnung und Wohnumfeld: Wohnfläche; Anzahl derWohnräume; Beurteilung der Wohnungsgröße; Ausstattung der Wohnung;Ausstattung entspricht den Bedürfnissen; Erbauungszeitraum; Haustyp;baulicher Zustand des Hauses; Zufriedenheit mit der Wohnung, derunmittelbaren Wohnumgebung und den Umweltbedingungen in derWohnumgebung  (Skalometer). \n4. Wohngebiet und Sozialstruktur: Beschreibung der Wohnumgebung unddes Wohngebiets; Struktur des Wohngebiets (Altbauten, neuere Häuseroder reines Neubaugebiet); Ein- oder Zweifamilienhäuser oder größereWohnblocks; subjektiv wahrgenommene Bevölkerungszusammensetzung imWohngebiet. \n5. Nachbarschaft und Integration: Verhältnis von Deutschen undAusländern in der Wohnumgebung; Einstellung zur räumlichen Trennung vonDeutschen und Ausländern in einer Nachbarschaft; deutscheStaatsangehörigkeit; Kontakte zu Ausländern und Deutschen(Segregation). \n6. Mobilität: Umzugsabsicht; Hauptgrund für den Wegzug;Umzugspräferenz (Zielgebiet); Meinung zur Zusammenlegung des eigenenBundeslandes mit dem benachbarten Bundesland; Beurteilung derpersönlichen wirtschaftlichen Lage; Erwerbsstatus; Einschätzung dereigenen Arbeitsplatzsicherheit; Probleme bei der Vereinbarkeit vonFamilie und Beruf. \nDemographie: Geschlecht; Alter; Familienstand; Haushaltstyp;erwerbsstatus; Erwerbstätigkeit in Vollzeit oder Teilzeit bzw.stundenweise; berufliche Stellung; Berufsgruppen (derzeitige bzw.frühere Haupttätigkeit); Angestelltenstatus, Arbeiterstatus oderBeamtenstatus; Schulabschluss; abgeschlossene Berufsausbildung bzw.Studium; Haushaltsgröße; Haushaltszusammensetzung: Anzahl der Kinderunter 6 Jahren, von 6 bis 13 Jahren, der Jugendlichen von 14 bis 17Jahren, der Personen ab 18 Jahren und ab 65 Jahren; Anzahl der Personenim Haushalt mit eigenem Einkommen; Haushaltsnettoeinkommen;Erwerbsstatus weiterer Personen im Haushalt bzw. Arbeitslose, Rentneroder Studenten im Haushalt; Lebenszufriedenheit (Skalometer). \nZusätzlich verkodet wurde: Erhebungsjahr; Befragungswelle, Bundesland;Ost/West; BIK Gemeindetyp; Stadt- und Gemeindetyp; Gewichtungsfaktoren.",
    "en" : "Apartment and residential status. Housing costs. Settlement structures and the socio-structural context of the dwelling and its evaluation. Economic background. Neighbourhood and integration. Mobility.\nTopics: 1. Housing: town size; living in the city centre or outside; location; duration of residence at the place of residence; satisfaction with the place of residence (scalometer); duration of residence in the current dwelling; residential status.\n2. Housing costs: tenants were asked: tenancy agreement at hand; amount of the monthly total amount for rent and ancillary expenses; amount of the basic rent (net cold rent); amount of the monthly flat rate for cold rent (apportionable) service charges; rent including heating and hot water; amount of the monthly costs for heating and hot water; assessment of the rental costs; receipt of housing benefit and unemployment benefit II; owner were asked: type of property acquisition (old stock, new building, inheritance); claiming of governmental subsidies  (KfW, housing subsidies of the federal states, municipal funding, home ownership allowance).\n3. Current dwelling and living environment: living space; number of residential premises; assessment of the size of the dwelling; equipment of the dwelling; equipment corresponds to needs; construction period; type of house; structural condition of the house; satisfaction with the dwelling, the immediate residential environment and the environmental conditions in the living environment (scalometer).\n4. Residential area and social structure: description of the residential environment and of the residential area; structure of the residential area (old buildings, newer houses, etc.) or pure new development area); one- or two-family houses or larger apartment blocks; subjectively perceived composition of the population in the residential area.\n5. Neighbourhood and integration: the relationship between Germans and foreigners in the residential environment; attitude towards the spatial separation of Germans and foreigners in a neighborhood; German nationality; contacts to foreigners and Germans (segregation).\n6. Mobility: intention to move; main reason for moving; relocation preference (target area); opinion on the merging of one´s own federal state with the neighbouring federal state; evaluation of the personal economic situation; employment status; assessment of the own job security; problems with the reconciliation of family and career.\nDemography: sex; age; marital status; household type; employment status; full-time or part-time employment respectively by the hour; occupational status; occupational groups (current or previous main activity); employee status, worker status or civil servant status; school leaving certificate; completed vocational training or study; household size; household composition: number of children under 6 years, from 6 to 13 years, young people from 14 to 17 years, persons 18 years and older and persons 65 years and older; number of income earners in the household; net household income; employment status of other persons in the household or unemployed, pensioners or students in the household; life satisfaction (scalometer).\nAdditionally coded was: survey year; survey wave, federal state; east/west; BIK community type; city and community type; weighting factors."
  },
  "availability" : {
    "availabilityType" : "Download",
    "embargoDate" : "",
    "label" : [ {
      "pref" : "A - Daten und Dokumente sind für die akademische Forschung und Lehre freigegeben.",
      "de" : "A - Daten und Dokumente sind für die akademische Forschung und Lehre freigegeben.",
      "en" : "A - Data and documents are released for academic research and teaching."
    } ]
  },
  "collectionModes" : [ {
    "type" : "Interview.FaceToFace.CAPICAMI"
  }, {
    "label" : {
      "pref" : "CAPI (Computerunterstützte persönliche Befragung) - Persönliches Interview",
      "de" : "CAPI (Computerunterstützte persönliche Befragung) - Persönliches Interview",
      "en" : ""
    }
  } ],
  "contributions" : [ {
    "type" : [ "Creator" ],
    "agent" : {
      "type" : [ "Person" ],
      "uri" : "info:searchapp/vocab/adhoc/QsO2bHRrZW4sIEZlcmRpbmFuZA==",
      "label" : "Böltken, Ferdinand",
      "affiliation" : {
        "uri" : "info:searchapp/vocab/adhoc/QnVuZGVzYW10IGbDvHIgQmF1d2VzZW4gdW5kIFJhdW1vcmRudW5nIChCQlIpLCBCb25u",
        "label" : {
          "pref" : "Bundesamt für Bauwesen und Raumordnung (BBR), Bonn",
          "de" : "Bundesamt für Bauwesen und Raumordnung (BBR), Bonn",
          "en" : "Bundesamt für Bauwesen und Raumordnung (BBR), Bonn"
        }
      }
    },
    "role" : [ ]
  }, {
    "type" : [ "Creator" ],
    "agent" : {
      "type" : [ "Person" ],
      "uri" : "info:searchapp/vocab/adhoc/U3R1cm0sIEdhYnJpZWxl",
      "label" : "Sturm, Gabriele",
      "affiliation" : {
        "uri" : "info:searchapp/vocab/adhoc/QnVuZGVzaW5zdGl0dXQgZsO8ciBCYXUtIFN0YWR0LSB1bmQgUmF1bWZvcnNjaHVuZyAoQkJTUikgaW0gQnVuZGVzYW10IGbDvHIgQmF1d2VzZW4gdW5kIFJhdW1vcmRudW5nIChCQlIpLCBCb25u",
        "label" : {
          "pref" : "Bundesinstitut für Bau- Stadt- und Raumforschung (BBSR) im Bundesamt für Bauwesen und Raumordnung (BBR), Bonn",
          "de" : "Bundesinstitut für Bau- Stadt- und Raumforschung (BBSR) im Bundesamt für Bauwesen und Raumordnung (BBR), Bonn",
          "en" : "Bundesinstitut für Bau- Stadt- und Raumforschung (BBSR) im Bundesamt für Bauwesen und Raumordnung (BBR), Bonn"
        }
      }
    },
    "role" : [ ]
  }, {
    "type" : [ "Creator" ],
    "agent" : {
      "type" : [ "Person" ],
      "uri" : "info:searchapp/vocab/adhoc/V2FsdGhlciwgQW50amU=",
      "label" : "Walther, Antje",
      "affiliation" : {
        "uri" : "info:searchapp/vocab/adhoc/QnVuZGVzaW5zdGl0dXQgZsO8ciBCYXUtIFN0YWR0LSB1bmQgUmF1bWZvcnNjaHVuZyAoQkJTUikgaW0gQnVuZGVzYW10IGbDvHIgQmF1d2VzZW4gdW5kIFJhdW1vcmRudW5nIChCQlIpLCBCb25u",
        "label" : {
          "pref" : "Bundesinstitut für Bau- Stadt- und Raumforschung (BBSR) im Bundesamt für Bauwesen und Raumordnung (BBR), Bonn",
          "de" : "Bundesinstitut für Bau- Stadt- und Raumforschung (BBSR) im Bundesamt für Bauwesen und Raumordnung (BBR), Bonn",
          "en" : "Bundesinstitut für Bau- Stadt- und Raumforschung (BBSR) im Bundesamt für Bauwesen und Raumordnung (BBR), Bonn"
        }
      }
    },
    "role" : [ ]
  } ],
  "describedBy" : {
    "uri" : "https://git.gesis.org/datorium/dbk-oai-dprex-set-data/oai.dbk.gesis.org.DBK.ZA5851",
    "type" : "ResearchData",
    "modifiedBy" : {
      "uri" : "https://searchapp-indexer",
      "label" : {
        "pref" : "Searchapp Indexer"
      },
      "dateCreated" : "2024-06-21T05:26:26.292+02:00",
      "dateModified" : "2024-06-21T05:26:26.292+02:00",
      "inDataset" : {
        "uri" : "https://dbkapps.gesis.org/dbkoai/?verb=ListIdentifiers&metadataPrefix=oai_dara&set=DPREX"
      },
      "resultOf" : {
        "type" : [ "CreateAction" ],
        "endTime" : "2024-06-21T05:26:26.292+02:00",
        "instrument" : {
          "uri" : "https://git.gesis.org/datorium/searchapp-indexer",
          "type" : [ "SoftwareApplication" ],
          "label" : "Searchapp Indexer"
        },
        "srcObject" : {
          "uri" : "https://dbkapps.gesis.org/dbkoai/?verb=GetRecord&metadataPrefix=oai_dara&identifier=oai:dbk.gesis.org:DBK/ZA5851",
          "type" : [ "DataFeedItem" ],
          "inDataset" : {
            "uri" : "https://dbkapps.gesis.org/dbkoai/?verb=ListIdentifiers&metadataPrefix=oai_dara&set=DPREX",
            "label" : "DBK_OAI"
          }
        }
      }
    }
  },
  "documentId" : "oai.dbk.gesis.org.DBK.ZA5851",
  "geographicCoverages" : [ {
    "geographicCoverageControlled" : "DE"
  } ],
  "handles" : [ {
    "type" : "DOI",
    "notation" : "10.4232/1.12070",
    "url" : "https://doi.org/10.4232/1.12070",
    "source" : {
      "uri" : "https://www.da-ra.de/",
      "label" : "DARA"
    }
  } ],
  "natureOfContents" : [ {
    "uri" : "info:searchapp/vocab/Dataset",
    "label" : {
      "pref" : "Dataset",
      "de" : "Dataset",
      "en" : "Dataset"
    }
  } ],
  "publications" : [ {
    "type" : [ "PublicationEvent" ],
    "startDate" : "2014"
  } ],
  "resourceLanguage" : "deu",
  "rights" : {
    "licenseType" : "",
    "label" : {
      "pref" : "Alle im GESIS DBK veröffentlichten Metadaten sind frei verfügbar unter den Creative Commons CC0 1.0 Universal Public Domain Dedication. GESIS bittet jedoch darum, dass Sie alle Metadatenquellen anerkennen und sie nennen, etwa die Datengeber oder jeglichen Aggregator, inklusive GESIS selbst. Für weitere Informationen siehe https://dbk.gesis.org/dbksearch/guidelines.asp?db=d",
      "de" : "Alle im GESIS DBK veröffentlichten Metadaten sind frei verfügbar unter den Creative Commons CC0 1.0 Universal Public Domain Dedication. GESIS bittet jedoch darum, dass Sie alle Metadatenquellen anerkennen und sie nennen, etwa die Datengeber oder jeglichen Aggregator, inklusive GESIS selbst. Für weitere Informationen siehe https://dbk.gesis.org/dbksearch/guidelines.asp?db=d",
      "en" : "All metadata from GESIS DBK are available free of restriction under the Creative Commons CC0 1.0 Universal Public Domain Dedication. However, GESIS requests that you actively acknowledge and give attribution to all metadata sources, such as the data providers and any data aggregators, including GESIS. For further information see https://dbk.gesis.org/dbksearch/guidelines.asp"
    }
  },
  "sampling" : {
    "method" : {
      "pref" : "Wahrscheinlichkeitsauswahl: Mehrstufige Zufallsauswahl; Auswahlverfahren Kommentar: Mehrstufige, regional geschichtete Zufallsauswahl (Random Route)\n\nSämtliche Gemeinden des Untersuchungsgebietes wurden nach regionalen \nKriterien in Schichten unterteilt. Als Schichtungsmerkmale dienten \nBundesländer, Regierungsbezirke und Gemeindetypen (entsprechend \nBIK-Stadtregionen). \n\nFür die erste Auswahlstufe wurde die BRD in rund 53.000 Flächen \naufgeteilt anhand der kommunalen, statistischen Bezirke und unter \nZuhilfenahme eines geografischen Informationssystems (GIS) zur \nStraßeneinteilung der BRD. Diese Flächen oder Sample-Points bildeten \ndie Auswahleinheiten der ersten Auswahlstufe. \n\nIn der zweiten Auswahlstufe wurden durch Zufallsauswahl die für die \nStichprobe pro Sample-Point benötigten Haushaltsadressen erhoben. In \ndiesen vorgegebenen Befragungshaushalten ermittelten die Interviewer in \nder dritten Auswahlstufe die zu befragende Zielperson. Dies geschah mit \nHilfe eines systematischen Auswahlschlüssels.",
      "de" : "Wahrscheinlichkeitsauswahl: Mehrstufige Zufallsauswahl; Auswahlverfahren Kommentar: Mehrstufige, regional geschichtete Zufallsauswahl (Random Route)\n\nSämtliche Gemeinden des Untersuchungsgebietes wurden nach regionalen \nKriterien in Schichten unterteilt. Als Schichtungsmerkmale dienten \nBundesländer, Regierungsbezirke und Gemeindetypen (entsprechend \nBIK-Stadtregionen). \n\nFür die erste Auswahlstufe wurde die BRD in rund 53.000 Flächen \naufgeteilt anhand der kommunalen, statistischen Bezirke und unter \nZuhilfenahme eines geografischen Informationssystems (GIS) zur \nStraßeneinteilung der BRD. Diese Flächen oder Sample-Points bildeten \ndie Auswahleinheiten der ersten Auswahlstufe. \n\nIn der zweiten Auswahlstufe wurden durch Zufallsauswahl die für die \nStichprobe pro Sample-Point benötigten Haushaltsadressen erhoben. In \ndiesen vorgegebenen Befragungshaushalten ermittelten die Interviewer in \nder dritten Auswahlstufe die zu befragende Zielperson. Dies geschah mit \nHilfe eines systematischen Auswahlschlüssels.",
      "en" : "Probability: Multistage"
    }
  },
  "subjects" : [ {
    "type" : [ "SubjectHeading" ],
    "uri" : "info:searchapp/vocab/adhoc/R2VtZWluZGUsIFdvaG51bWdlYnVuZywgU3RhZHRsZWJlbiB1bmQgTGFuZGxlYmVu",
    "notation" : "",
    "source" : {
      "uri" : "info:searchapp/vocab/adhoc/Q0VTU0RBIFRvcGljIENsYXNzaWZpY2F0aW9u",
      "label" : "CESSDA Topic Classification"
    },
    "label" : {
      "pref" : "Gemeinde, Wohnumgebung, Stadtleben und Landleben",
      "de" : "Gemeinde, Wohnumgebung, Stadtleben und Landleben",
      "en" : "Community, urban and rural life"
    }
  }, {
    "type" : [ "SubjectHeading" ],
    "uri" : "info:searchapp/vocab/adhoc/V2lydHNjaGFmdGxpY2hlIExhZ2UgdW5kIEluZGlrYXRvcmVu",
    "notation" : "",
    "source" : {
      "uri" : "info:searchapp/vocab/adhoc/Q0VTU0RBIFRvcGljIENsYXNzaWZpY2F0aW9u",
      "label" : "CESSDA Topic Classification"
    },
    "label" : {
      "pref" : "Wirtschaftliche Lage und Indikatoren",
      "de" : "Wirtschaftliche Lage und Indikatoren",
      "en" : "Economic conditions and indicators"
    }
  }, {
    "type" : [ "SubjectHeading" ],
    "uri" : "info:searchapp/vocab/adhoc/V29obnJhdW0=",
    "notation" : "",
    "source" : {
      "uri" : "info:searchapp/vocab/adhoc/Q0VTU0RBIFRvcGljIENsYXNzaWZpY2F0aW9u",
      "label" : "CESSDA Topic Classification"
    },
    "label" : {
      "pref" : "Wohnraum",
      "de" : "Wohnraum",
      "en" : "Housing"
    }
  }, {
    "type" : [ "SubjectHeading" ],
    "uri" : "info:searchapp/vocab/adhoc/VFJBTlNQT1JUIFVORCBSRUlTRU4=",
    "notation" : "",
    "source" : {
      "uri" : "info:searchapp/vocab/adhoc/Q0VTU0RBIFRvcGljIENsYXNzaWZpY2F0aW9u",
      "label" : "CESSDA Topic Classification"
    },
    "label" : {
      "pref" : "TRANSPORT UND REISEN",
      "de" : "TRANSPORT UND REISEN",
      "en" : "TRANSPORT AND TRAVEL"
    }
  }, {
    "type" : [ "SubjectHeading" ],
    "uri" : "info:searchapp/vocab/adhoc/TWlncmF0aW9u",
    "notation" : "",
    "source" : {
      "uri" : "info:searchapp/vocab/adhoc/Q0VTU0RBIFRvcGljIENsYXNzaWZpY2F0aW9u",
      "label" : "CESSDA Topic Classification"
    },
    "label" : {
      "pref" : "Migration",
      "de" : "Migration",
      "en" : "Migration"
    }
  } ],
  "temporalCoverages" : [ {
    "startDate" : "2012-09-20",
    "endDate" : "2012-11-12",
    "labels" : [ ]
  } ],
  "timeDimensions" : [ {
    "timeDimensionType" : ""
  } ],
  "title" : {
    "pref" : "LebensRäume - Bevölkerungsumfrage des BBSR 2012",
    "de" : "LebensRäume - Bevölkerungsumfrage des BBSR 2012",
    "en" : "Living Spaces - Public Opinion Survey of the BBR 2012"
  },
  "universe" : {
    "sampled" : {
      "pref" : "Deutsch sprechende Personen ab 18 Jahren in Privathaushalten",
      "de" : "Deutsch sprechende Personen ab 18 Jahren in Privathaushalten",
      "en" : "German-speaking persons aged 18 years and older in private households"
    }
  },
  "uri" : "https://doi.org/10.4232/1.12070",
  "searchappPublisher" : {
    "shortName" : "GESIS",
    "name" : {
      "de" : "GESIS - Leibniz Institut für Sozialwissenschaften",
      "en" : "GESIS - Leibniz Institute for the Social Sciences"
    },
    "url" : "https://www.gesis.org/"
  },
  "calculatedTemporalCoverage" : {
    "label" : "2012",
    "dates" : [ "2012" ]
  }
}
