{
  "abstract" : {
    "pref" : "Einstellungen zu aktuellen innenpolitischen Themen.\nThemen: Demokratiezufriedenheit; Parteipräferenz;Wahlverhalten bei der letzten Bundestagswahl; Vertrauen inöffentliche Institutionen (Skalometer); Wichtigkeit vonBundesinstitutionen (Skalometer); präferierte Entwicklung derGesellschaft (Skala); wichtigste innenpolitische Ziele.\nEinstellung zu Ausländern und zum Asylrecht; Vermutungen überAsylrechtsmißbrauch; Einstellung zu einer Aufnahmebegrenzungfür Asylbewerber und zu einer konsequenten Abschiebung vonabgelehnten Asylbewerbern; Nähe zu Asylbewerberunterkünften undProbleme mit Asylbewerbern; Notwendigkeit ausländischerArbeitskräfte für die deutsche Wirtschaft.\nZufriedenheit mit den gesellschaftlichen Bedingungen in derBundesrepublik; Zufriedenheit mit dem Grundgesetz; empfundeneBedrohung der öffentlichen Sicherheit; Wunsch nach verschärftenGesetzen oder erweiterten Befugnissen der Polizei; empfundenepersönliche Bedrohung durch ausgewählte Kriminalitätsformen.\nPolitische Partizipation und Bereitschaft zu Protestverhalten;Präferenz für nationale oder europaweite Lösung ausgewählterpolitischer Probleme; Einschätzung der Vorteilhaftigkeit derEG-Mitgliedschaft des Landes; Einstellung zu einer verstärktenÜbernahme weltpolitischer Verantwortung durch dieBundesrepublik.\nGeschätzte Dauer bis zu einer Angleichung derLebensverhältnisse in Ost- und Westdeutschland; Einstellung zueinem Abschluß der Aufbereitung der DDR-Vergangenheit;Austragen gesellschaftlicher Konflikte mit Gewalt.\nSelbsteinstufung auf einem Links-Rechts-Kontinuum; Rückgangder Wahlbeteiligung als Gefahr für die Demokratie;Wahlbeteiligungsrückgang als Protestverhalten oder Rückgang desPolitikinteresses; Einstufung der Wähler von rechtsradikalenParteien als überzeugte Anhänger oder Protestwähler;Wichtigkeit des Problems des Rechtsradikalismus; verschärfteGesetze zum Kampf gegen Rechtsextremismus; Einstellung zurstaatlichen Abwehr gegen Radikale von rechts und links;Einschätzung der Gefährdung der Demokratie durch linksextremeund rechtsextreme Gruppen und Organisationen (Skalometer);Einstellung zur Bewerbung Berlins als Austragungsort für dieOlympischen Spiele; Präferenz für eine monatlicheGebührenerhöhung oder vermehrte Werbung zur Finanzierung derFernsehanstalten der ARD und des ZDF; akzeptierter Umfang undZeitpunkt für Werbung im öffentlich-rechtlichen Fernsehen;Einstellung zu Werbung in den Pausen von Sportsendungen;Beurteilung des Umfangs von Gewaltdarstellungen im Fernsehenund Einstellung zum sogenannten Reality-TV.\nArbeitsplatzgefährdung des Befragten oder einer nahestehendenPerson; Gewerkschaftsmitgliedschaft; Religiosität;Parteineigung und Parteiidentifikation.\nDemographie: Alter; Geschlecht; Familienstand; Kirchgangshäufigkeit; Schulbildung; Berufsausbildung;",
    "de" : "Einstellungen zu aktuellen innenpolitischen Themen.\nThemen: Demokratiezufriedenheit; Parteipräferenz;Wahlverhalten bei der letzten Bundestagswahl; Vertrauen inöffentliche Institutionen (Skalometer); Wichtigkeit vonBundesinstitutionen (Skalometer); präferierte Entwicklung derGesellschaft (Skala); wichtigste innenpolitische Ziele.\nEinstellung zu Ausländern und zum Asylrecht; Vermutungen überAsylrechtsmißbrauch; Einstellung zu einer Aufnahmebegrenzungfür Asylbewerber und zu einer konsequenten Abschiebung vonabgelehnten Asylbewerbern; Nähe zu Asylbewerberunterkünften undProbleme mit Asylbewerbern; Notwendigkeit ausländischerArbeitskräfte für die deutsche Wirtschaft.\nZufriedenheit mit den gesellschaftlichen Bedingungen in derBundesrepublik; Zufriedenheit mit dem Grundgesetz; empfundeneBedrohung der öffentlichen Sicherheit; Wunsch nach verschärftenGesetzen oder erweiterten Befugnissen der Polizei; empfundenepersönliche Bedrohung durch ausgewählte Kriminalitätsformen.\nPolitische Partizipation und Bereitschaft zu Protestverhalten;Präferenz für nationale oder europaweite Lösung ausgewählterpolitischer Probleme; Einschätzung der Vorteilhaftigkeit derEG-Mitgliedschaft des Landes; Einstellung zu einer verstärktenÜbernahme weltpolitischer Verantwortung durch dieBundesrepublik.\nGeschätzte Dauer bis zu einer Angleichung derLebensverhältnisse in Ost- und Westdeutschland; Einstellung zueinem Abschluß der Aufbereitung der DDR-Vergangenheit;Austragen gesellschaftlicher Konflikte mit Gewalt.\nSelbsteinstufung auf einem Links-Rechts-Kontinuum; Rückgangder Wahlbeteiligung als Gefahr für die Demokratie;Wahlbeteiligungsrückgang als Protestverhalten oder Rückgang desPolitikinteresses; Einstufung der Wähler von rechtsradikalenParteien als überzeugte Anhänger oder Protestwähler;Wichtigkeit des Problems des Rechtsradikalismus; verschärfteGesetze zum Kampf gegen Rechtsextremismus; Einstellung zurstaatlichen Abwehr gegen Radikale von rechts und links;Einschätzung der Gefährdung der Demokratie durch linksextremeund rechtsextreme Gruppen und Organisationen (Skalometer);Einstellung zur Bewerbung Berlins als Austragungsort für dieOlympischen Spiele; Präferenz für eine monatlicheGebührenerhöhung oder vermehrte Werbung zur Finanzierung derFernsehanstalten der ARD und des ZDF; akzeptierter Umfang undZeitpunkt für Werbung im öffentlich-rechtlichen Fernsehen;Einstellung zu Werbung in den Pausen von Sportsendungen;Beurteilung des Umfangs von Gewaltdarstellungen im Fernsehenund Einstellung zum sogenannten Reality-TV.\nArbeitsplatzgefährdung des Befragten oder einer nahestehendenPerson; Gewerkschaftsmitgliedschaft; Religiosität;Parteineigung und Parteiidentifikation.\nDemographie: Alter; Geschlecht; Familienstand; Kirchgangshäufigkeit; Schulbildung; Berufsausbildung;",
    "en" : "Attitudes to current topics of domestic policy. Topics: Satisfactionwith democracy; party preference; behavior at the polls in the lastFederal Parliament election; trust in public institutions (scale);importance of federal institutions (scale); preferred development ofsociety (scale); most important goals of domestic policy. Attitude toforeigners and the right to asylum; assumptions about abuse of theright to asylum; attitude to a limit to admission for applicants forpolitical asylum and to consistent deportation of those whoseapplication for asylum was denied; closeness to accomodations forapplicants for political asylum and problems with applicants forpolitical asylum; necessity of foreign workers for the German economy.Satisfaction with social conditions in the Federal Republic;satisfaction with the constitution; perceived threat to public safety;desire for stricter laws or expanded powers for the police; perceivedpersonal threat from selected forms of crime. Political participationand readiness for protest behavior; preference for national orEurope-wide solution of selected political problems; assessment of theadvantageousness of EC membership of the country; attitude to anincreased acceptance of responsibility in world politics by the FederalRepublic. Estimated duration until achievement of equivalent livingconditions in Eastern and Western Germany; attitude to putting an endto processing of the GDR past; conducting social conflicts withviolence. Self-classification on a left-right continuum; reduction inelection turnout as danger to democracy; election turnout reduction asprotest behavior or reduction of interest in politics; classificationof voters for right-wing radical parties as dedicated supporters orprotest voters; importance of the problem of right-wing radicalism;stricter laws to combat right-wing extremism; attitude to governmentdefense against radicals of right and left; assessment of the jeopardyto democracy from left-wing extremist and right-wing extremist groupsand organizations (scale); attitude to the application of Berlin toconduct the Olympic Games; preference for a monthly increase in fees orincreased advertising to finance the television stations ARD {FirstGerman Television Network} and ZDF {Second German Television Network};accepted extent and point in time for advertising on public television;attitude to advertising in the breaks in sports broadcasts; judgementon the extent of presentation of violence on television and attitude toso-called reality TV. Jeopardy to job of respondent or a close person;union membership; religiousness; party inclination and partyidentification."
  },
  "availability" : {
    "availabilityType" : "Download",
    "embargoDate" : "",
    "label" : [ {
      "pref" : "A - Daten und Dokumente sind für die akademische Forschung und Lehre freigegeben.",
      "de" : "A - Daten und Dokumente sind für die akademische Forschung und Lehre freigegeben.",
      "en" : "A - Data and documents are released for academic research and teaching."
    } ]
  },
  "collectionModes" : [ {
    "label" : {
      "pref" : "Mündliche Befragung mit standardisiertem Fragebogen",
      "de" : "Mündliche Befragung mit standardisiertem Fragebogen",
      "en" : "Oral survey with standardized questionnaire"
    }
  } ],
  "contributions" : [ {
    "type" : [ "Creator" ],
    "agent" : {
      "type" : [ "Person" ],
      "uri" : "info:searchapp/vocab/adhoc/QmVyZ2VyLCBNYW5mcmVk",
      "label" : "Berger, Manfred",
      "affiliation" : {
        "uri" : "info:searchapp/vocab/adhoc/SW5zdGl0dXQgZsO8ciBQcmF4aXNvcmllbnRpZXJ0ZSBTb3ppYWxmb3JzY2h1bmcgKElQT1MpLApNYW5uaGVpbQ==",
        "label" : {
          "pref" : "Institut für Praxisorientierte Sozialforschung (IPOS),\nMannheim",
          "de" : "Institut für Praxisorientierte Sozialforschung (IPOS),\nMannheim",
          "en" : "Institut für Praxisorientierte Sozialforschung (IPOS),\nMannheim"
        }
      }
    },
    "role" : [ ]
  }, {
    "type" : [ "Creator" ],
    "agent" : {
      "type" : [ "Person" ],
      "uri" : "info:searchapp/vocab/adhoc/SnVuZywgTWF0dGhpYXM=",
      "label" : "Jung, Matthias",
      "affiliation" : {
        "uri" : "info:searchapp/vocab/adhoc/SW5zdGl0dXQgZsO8ciBQcmF4aXNvcmllbnRpZXJ0ZSBTb3ppYWxmb3JzY2h1bmcgKElQT1MpLApNYW5uaGVpbQ==",
        "label" : {
          "pref" : "Institut für Praxisorientierte Sozialforschung (IPOS),\nMannheim",
          "de" : "Institut für Praxisorientierte Sozialforschung (IPOS),\nMannheim",
          "en" : "Institut für Praxisorientierte Sozialforschung (IPOS),\nMannheim"
        }
      }
    },
    "role" : [ ]
  }, {
    "type" : [ "Creator" ],
    "agent" : {
      "type" : [ "Person" ],
      "uri" : "info:searchapp/vocab/adhoc/Um90aCwgRGlldGVy",
      "label" : "Roth, Dieter",
      "affiliation" : {
        "uri" : "info:searchapp/vocab/adhoc/SW5zdGl0dXQgZsO8ciBQcmF4aXNvcmllbnRpZXJ0ZSBTb3ppYWxmb3JzY2h1bmcgKElQT1MpLApNYW5uaGVpbQ==",
        "label" : {
          "pref" : "Institut für Praxisorientierte Sozialforschung (IPOS),\nMannheim",
          "de" : "Institut für Praxisorientierte Sozialforschung (IPOS),\nMannheim",
          "en" : "Institut für Praxisorientierte Sozialforschung (IPOS),\nMannheim"
        }
      }
    },
    "role" : [ ]
  } ],
  "describedBy" : {
    "uri" : "https://git.gesis.org/datorium/dbk-oai-dprex-set-data/oai.dbk.gesis.org.DBK.ZA2396",
    "type" : "ResearchData",
    "modifiedBy" : {
      "uri" : "https://searchapp-indexer",
      "label" : {
        "pref" : "Searchapp Indexer"
      },
      "dateCreated" : "2024-06-21T05:26:26.949+02:00",
      "dateModified" : "2024-06-21T05:26:26.949+02:00",
      "inDataset" : {
        "uri" : "https://dbkapps.gesis.org/dbkoai/?verb=ListIdentifiers&metadataPrefix=oai_dara&set=DPREX"
      },
      "resultOf" : {
        "type" : [ "CreateAction" ],
        "endTime" : "2024-06-21T05:26:26.949+02:00",
        "instrument" : {
          "uri" : "https://git.gesis.org/datorium/searchapp-indexer",
          "type" : [ "SoftwareApplication" ],
          "label" : "Searchapp Indexer"
        },
        "srcObject" : {
          "uri" : "https://dbkapps.gesis.org/dbkoai/?verb=GetRecord&metadataPrefix=oai_dara&identifier=oai:dbk.gesis.org:DBK/ZA2396",
          "type" : [ "DataFeedItem" ],
          "inDataset" : {
            "uri" : "https://dbkapps.gesis.org/dbkoai/?verb=ListIdentifiers&metadataPrefix=oai_dara&set=DPREX",
            "label" : "DBK_OAI"
          }
        }
      }
    }
  },
  "documentId" : "oai.dbk.gesis.org.DBK.ZA2396",
  "geographicCoverages" : [ {
    "geographicCoverageControlled" : "DE"
  } ],
  "handles" : [ {
    "type" : "DOI",
    "notation" : "10.4232/1.2396",
    "url" : "https://doi.org/10.4232/1.2396",
    "source" : {
      "uri" : "https://www.da-ra.de/",
      "label" : "DARA"
    }
  } ],
  "natureOfContents" : [ {
    "uri" : "info:searchapp/vocab/Dataset",
    "label" : {
      "pref" : "Dataset",
      "de" : "Dataset",
      "en" : "Dataset"
    }
  } ],
  "publications" : [ {
    "type" : [ "PublicationEvent" ],
    "startDate" : "1994"
  } ],
  "resourceLanguage" : "deu",
  "rights" : {
    "licenseType" : "",
    "label" : {
      "pref" : "Alle im GESIS DBK veröffentlichten Metadaten sind frei verfügbar unter den Creative Commons CC0 1.0 Universal Public Domain Dedication. GESIS bittet jedoch darum, dass Sie alle Metadatenquellen anerkennen und sie nennen, etwa die Datengeber oder jeglichen Aggregator, inklusive GESIS selbst. Für weitere Informationen siehe https://dbk.gesis.org/dbksearch/guidelines.asp?db=d",
      "de" : "Alle im GESIS DBK veröffentlichten Metadaten sind frei verfügbar unter den Creative Commons CC0 1.0 Universal Public Domain Dedication. GESIS bittet jedoch darum, dass Sie alle Metadatenquellen anerkennen und sie nennen, etwa die Datengeber oder jeglichen Aggregator, inklusive GESIS selbst. Für weitere Informationen siehe https://dbk.gesis.org/dbksearch/guidelines.asp?db=d",
      "en" : "All metadata from GESIS DBK are available free of restriction under the Creative Commons CC0 1.0 Universal Public Domain Dedication. However, GESIS requests that you actively acknowledge and give attribution to all metadata sources, such as the data providers and any data aggregators, including GESIS. For further information see https://dbk.gesis.org/dbksearch/guidelines.asp"
    }
  },
  "sampling" : {
    "method" : {
      "pref" : "Auswahlverfahren Kommentar: Mehrstufig geschichtete Zufallsauswahl",
      "de" : "Auswahlverfahren Kommentar: Mehrstufig geschichtete Zufallsauswahl",
      "en" : "Sampling Procedure Comment: Multi-stage stratified random sample"
    }
  },
  "subjects" : [ {
    "type" : [ "SubjectHeading" ],
    "uri" : "info:searchapp/vocab/adhoc/TWlncmF0aW9u",
    "notation" : "",
    "source" : {
      "uri" : "info:searchapp/vocab/adhoc/Q0VTU0RBIFRvcGljIENsYXNzaWZpY2F0aW9u",
      "label" : "CESSDA Topic Classification"
    },
    "label" : {
      "pref" : "Migration",
      "de" : "Migration",
      "en" : "Migration"
    }
  }, {
    "type" : [ "SubjectHeading" ],
    "uri" : "info:searchapp/vocab/adhoc/TWVkaWVu",
    "notation" : "",
    "source" : {
      "uri" : "info:searchapp/vocab/adhoc/Q0VTU0RBIFRvcGljIENsYXNzaWZpY2F0aW9u",
      "label" : "CESSDA Topic Classification"
    },
    "label" : {
      "pref" : "Medien",
      "de" : "Medien",
      "en" : "Media"
    }
  }, {
    "type" : [ "SubjectHeading" ],
    "uri" : "info:searchapp/vocab/adhoc/UG9saXRpc2NoZSBJZGVvbG9naWU=",
    "notation" : "",
    "source" : {
      "uri" : "info:searchapp/vocab/adhoc/Q0VTU0RBIFRvcGljIENsYXNzaWZpY2F0aW9u",
      "label" : "CESSDA Topic Classification"
    },
    "label" : {
      "pref" : "Politische Ideologie",
      "de" : "Politische Ideologie",
      "en" : "Political ideology"
    }
  }, {
    "type" : [ "SubjectHeading" ],
    "uri" : "info:searchapp/vocab/adhoc/UG9saXRpc2NoZXMgVmVyaGFsdGVuIHVuZCBwb2xpdGlzY2hlIEVpbnN0ZWxsdW5nZW4=",
    "notation" : "",
    "source" : {
      "uri" : "info:searchapp/vocab/adhoc/Q0VTU0RBIFRvcGljIENsYXNzaWZpY2F0aW9u",
      "label" : "CESSDA Topic Classification"
    },
    "label" : {
      "pref" : "Politisches Verhalten und politische Einstellungen",
      "de" : "Politisches Verhalten und politische Einstellungen",
      "en" : "Political behaviour and attitudes"
    }
  }, {
    "type" : [ "SubjectHeading" ],
    "uri" : "info:searchapp/vocab/adhoc/UmVnaWVydW5nLCBwb2xpdGlzY2hlIFN5c3RlbWUsIFBhcnRlaWVuIHVuZCBPcmdhbmlzYXRpb25lbg==",
    "notation" : "",
    "source" : {
      "uri" : "info:searchapp/vocab/adhoc/Q0VTU0RBIFRvcGljIENsYXNzaWZpY2F0aW9u",
      "label" : "CESSDA Topic Classification"
    },
    "label" : {
      "pref" : "Regierung, politische Systeme, Parteien und Organisationen",
      "de" : "Regierung, politische Systeme, Parteien und Organisationen",
      "en" : "Government, political systems and organisations"
    }
  }, {
    "type" : [ "SubjectHeading" ],
    "uri" : "info:searchapp/vocab/adhoc/V2FobGVu",
    "notation" : "",
    "source" : {
      "uri" : "info:searchapp/vocab/adhoc/Q0VTU0RBIFRvcGljIENsYXNzaWZpY2F0aW9u",
      "label" : "CESSDA Topic Classification"
    },
    "label" : {
      "pref" : "Wahlen",
      "de" : "Wahlen",
      "en" : "Elections"
    }
  } ],
  "temporalCoverages" : [ {
    "startDate" : "1993-05",
    "labels" : [ ]
  } ],
  "timeDimensions" : [ {
    "timeDimensionType" : ""
  } ],
  "title" : {
    "pref" : "Einstellungen zu aktuellen Fragen der Innenpolitik (1993)",
    "de" : "Einstellungen zu aktuellen Fragen der Innenpolitik (1993)",
    "en" : "Attitudes on Current Questions of Domestic Policy (1993)"
  },
  "universe" : {
    "sampled" : {
      "pref" : "Wahlberechtigte",
      "de" : "Wahlberechtigte",
      "en" : "The population eligible to vote"
    }
  },
  "uri" : "https://doi.org/10.4232/1.2396",
  "searchappPublisher" : {
    "shortName" : "GESIS",
    "name" : {
      "de" : "GESIS - Leibniz Institut für Sozialwissenschaften",
      "en" : "GESIS - Leibniz Institute for the Social Sciences"
    },
    "url" : "https://www.gesis.org/"
  },
  "calculatedTemporalCoverage" : {
    "label" : "1993",
    "dates" : [ "1993" ]
  }
}
