{
  "abstract" : {
    "pref" : "Die Politbarometer werden seit 1977 etwa monatlich von der Forschungsgruppe Wahlen für das Zweite Deutsche Fernsehen (ZDF) durchgeführt. Seit 1990 steht diese Datenbasis auch für die neuen Bundesländer zur Verfügung. Im Zentrum der Untersuchung stehen die Meinungen und Einstellungen der wahlberechtigten Bevölkerung in der Bundesrepublik zu aktuellen politischen Themen, Parteien und Politikern sowie dem Wahlverhalten. 1990 bis 1995 und ab 1999 wurden die Politbarometer-Umfragen in den neuen und alten Bundesländern getrennt durchgeführt (Politbarometer Ost bzw. Politbarometer West). Die monatlichen Einzelumfragen eines Jahres werden in einen kumulierten Datensatz integriert, der alle Erhebungen eines Jahres und alle Variablen des jeweiligen Jahrganges umfasst. Ab 2003 sind die Politbarometer-Kurzbefragungen, die unterschiedlich häufig im Jahr erhoben werden, in die Jahreskumulation integriert.",
    "de" : "Die Politbarometer werden seit 1977 etwa monatlich von der Forschungsgruppe Wahlen für das Zweite Deutsche Fernsehen (ZDF) durchgeführt. Seit 1990 steht diese Datenbasis auch für die neuen Bundesländer zur Verfügung. Im Zentrum der Untersuchung stehen die Meinungen und Einstellungen der wahlberechtigten Bevölkerung in der Bundesrepublik zu aktuellen politischen Themen, Parteien und Politikern sowie dem Wahlverhalten. 1990 bis 1995 und ab 1999 wurden die Politbarometer-Umfragen in den neuen und alten Bundesländern getrennt durchgeführt (Politbarometer Ost bzw. Politbarometer West). Die monatlichen Einzelumfragen eines Jahres werden in einen kumulierten Datensatz integriert, der alle Erhebungen eines Jahres und alle Variablen des jeweiligen Jahrganges umfasst. Ab 2003 sind die Politbarometer-Kurzbefragungen, die unterschiedlich häufig im Jahr erhoben werden, in die Jahreskumulation integriert.",
    "en" : "The Politbarometer has been conducted since 1977 on an almost monthly basis by the Forschungsgruppe Wahlen on behalf of the Second German Television (ZDF). Since 1990, this database has also been available for the new German states. The survey focuses on the opinions and attitudes of the voting-age population in the Federal Republic on current political issues, parties, politicians, and voting behavior. From 1990 to 1995 and from 1999 onward, the Politbarometer surveys were conducted separately both in the newly formed eastern and in the western German states (Politbarometer East and Politbarometer West). The separate monthly surveys of a year are integrated into a cumulative data set that includes all surveys of a year and all variables of the respective year. Starting in 2003, the Politbarometer short surveys, collected with varying frequency throughout the year, are integrated into the annual cumulation."
  },
  "availability" : {
    "availabilityType" : "Download",
    "embargoDate" : "",
    "label" : [ {
      "pref" : "A - Daten und Dokumente sind für die akademische Forschung und Lehre freigegeben.",
      "de" : "A - Daten und Dokumente sind für die akademische Forschung und Lehre freigegeben.",
      "en" : "A - Data and documents are released for academic research and teaching."
    } ]
  },
  "collectionModes" : [ {
    "type" : "Interview.Telephone"
  }, {
    "label" : {
      "pref" : "Telefonische Befragung mit standardisiertem Fragebogen",
      "de" : "Telefonische Befragung mit standardisiertem Fragebogen",
      "en" : "Telephone interview (CATI) with standardized questionnaire"
    }
  } ],
  "contributions" : [ {
    "type" : [ "Creator" ],
    "agent" : {
      "type" : [ "Person" ],
      "uri" : "info:searchapp/vocab/adhoc/QmVyZ2VyLCBNYW5mcmVk",
      "label" : "Berger, Manfred",
      "affiliation" : {
        "uri" : "info:searchapp/vocab/adhoc/Rm9yc2NodW5nc2dydXBwZSBXYWhsZW4sIE1hbm5oZWlt",
        "label" : {
          "pref" : "Forschungsgruppe Wahlen, Mannheim",
          "de" : "Forschungsgruppe Wahlen, Mannheim",
          "en" : "Forschungsgruppe Wahlen, Mannheim"
        }
      }
    },
    "role" : [ ]
  }, {
    "type" : [ "Creator" ],
    "agent" : {
      "type" : [ "Person" ],
      "uri" : "info:searchapp/vocab/adhoc/SnVuZywgTWF0dGhpYXM=",
      "label" : "Jung, Matthias",
      "affiliation" : {
        "uri" : "info:searchapp/vocab/adhoc/Rm9yc2NodW5nc2dydXBwZSBXYWhsZW4sIE1hbm5oZWlt",
        "label" : {
          "pref" : "Forschungsgruppe Wahlen, Mannheim",
          "de" : "Forschungsgruppe Wahlen, Mannheim",
          "en" : "Forschungsgruppe Wahlen, Mannheim"
        }
      }
    },
    "role" : [ ]
  }, {
    "type" : [ "Creator" ],
    "agent" : {
      "type" : [ "Person" ],
      "uri" : "info:searchapp/vocab/adhoc/V29sZiwgQW5kcmVh",
      "label" : "Wolf, Andrea",
      "affiliation" : {
        "uri" : "info:searchapp/vocab/adhoc/Rm9yc2NodW5nc2dydXBwZSBXYWhsZW4sIE1hbm5oZWlt",
        "label" : {
          "pref" : "Forschungsgruppe Wahlen, Mannheim",
          "de" : "Forschungsgruppe Wahlen, Mannheim",
          "en" : "Forschungsgruppe Wahlen, Mannheim"
        }
      }
    },
    "role" : [ ]
  } ],
  "describedBy" : {
    "uri" : "https://git.gesis.org/datorium/dbk-oai-dprex-set-data/oai.dbk.gesis.org.DBK.ZA4223",
    "type" : "ResearchData",
    "modifiedBy" : {
      "uri" : "https://searchapp-indexer",
      "label" : {
        "pref" : "Searchapp Indexer"
      },
      "dateCreated" : "2024-06-21T05:26:27.098+02:00",
      "dateModified" : "2024-06-21T05:26:27.098+02:00",
      "inDataset" : {
        "uri" : "https://dbkapps.gesis.org/dbkoai/?verb=ListIdentifiers&metadataPrefix=oai_dara&set=DPREX"
      },
      "resultOf" : {
        "type" : [ "CreateAction" ],
        "endTime" : "2024-06-21T05:26:27.098+02:00",
        "instrument" : {
          "uri" : "https://git.gesis.org/datorium/searchapp-indexer",
          "type" : [ "SoftwareApplication" ],
          "label" : "Searchapp Indexer"
        },
        "srcObject" : {
          "uri" : "https://dbkapps.gesis.org/dbkoai/?verb=GetRecord&metadataPrefix=oai_dara&identifier=oai:dbk.gesis.org:DBK/ZA4223",
          "type" : [ "DataFeedItem" ],
          "inDataset" : {
            "uri" : "https://dbkapps.gesis.org/dbkoai/?verb=ListIdentifiers&metadataPrefix=oai_dara&set=DPREX",
            "label" : "DBK_OAI"
          }
        }
      }
    }
  },
  "documentId" : "oai.dbk.gesis.org.DBK.ZA4223",
  "geographicCoverages" : [ {
    "geographicCoveragesFree" : {
      "pref" : "mit Berlin-Ost",
      "de" : "mit Berlin-Ost",
      "en" : "with East Berlin"
    },
    "geographicCoverageControlled" : "DE-BE"
  }, {
    "geographicCoverageControlled" : "DE-BB"
  }, {
    "geographicCoverageControlled" : "DE-MV"
  }, {
    "geographicCoverageControlled" : "DE-SN"
  }, {
    "geographicCoverageControlled" : "DE-ST"
  }, {
    "geographicCoverageControlled" : "DE-TH"
  } ],
  "handles" : [ {
    "type" : "DOI",
    "notation" : "10.4232/1.4223",
    "url" : "https://doi.org/10.4232/1.4223",
    "source" : {
      "uri" : "https://www.da-ra.de/",
      "label" : "DARA"
    }
  } ],
  "natureOfContents" : [ {
    "uri" : "info:searchapp/vocab/Dataset",
    "label" : {
      "pref" : "Dataset",
      "de" : "Dataset",
      "en" : "Dataset"
    }
  } ],
  "publications" : [ {
    "type" : [ "PublicationEvent" ],
    "startDate" : "2005"
  } ],
  "resourceLanguage" : "deu",
  "rights" : {
    "licenseType" : "",
    "label" : {
      "pref" : "Alle im GESIS DBK veröffentlichten Metadaten sind frei verfügbar unter den Creative Commons CC0 1.0 Universal Public Domain Dedication. GESIS bittet jedoch darum, dass Sie alle Metadatenquellen anerkennen und sie nennen, etwa die Datengeber oder jeglichen Aggregator, inklusive GESIS selbst. Für weitere Informationen siehe https://dbk.gesis.org/dbksearch/guidelines.asp?db=d",
      "de" : "Alle im GESIS DBK veröffentlichten Metadaten sind frei verfügbar unter den Creative Commons CC0 1.0 Universal Public Domain Dedication. GESIS bittet jedoch darum, dass Sie alle Metadatenquellen anerkennen und sie nennen, etwa die Datengeber oder jeglichen Aggregator, inklusive GESIS selbst. Für weitere Informationen siehe https://dbk.gesis.org/dbksearch/guidelines.asp?db=d",
      "en" : "All metadata from GESIS DBK are available free of restriction under the Creative Commons CC0 1.0 Universal Public Domain Dedication. However, GESIS requests that you actively acknowledge and give attribution to all metadata sources, such as the data providers and any data aggregators, including GESIS. For further information see https://dbk.gesis.org/dbksearch/guidelines.asp"
    }
  },
  "sampling" : {
    "method" : {
      "pref" : "Wahrscheinlichkeitsauswahl: Mehrstufige Zufallsauswahl; Auswahlverfahren Kommentar: Mehrstufige Zufallsauswahl: Auswahl von Haushaltsadressen nach dem\nRLD-Verfahren und Auswahl der Zielperson nach einem Geburtstagsschlüssel",
      "de" : "Wahrscheinlichkeitsauswahl: Mehrstufige Zufallsauswahl; Auswahlverfahren Kommentar: Mehrstufige Zufallsauswahl: Auswahl von Haushaltsadressen nach dem\nRLD-Verfahren und Auswahl der Zielperson nach einem Geburtstagsschlüssel",
      "en" : "Probability: Multistage; Sampling Procedure Comment: Multi-stage random sample: sample of household addresses according to the RLD procedure and sample according to a key based on birthday"
    }
  },
  "subjects" : [ {
    "type" : [ "SubjectHeading" ],
    "uri" : "info:searchapp/vocab/adhoc/TWlncmF0aW9u",
    "notation" : "",
    "source" : {
      "uri" : "info:searchapp/vocab/adhoc/Q0VTU0RBIFRvcGljIENsYXNzaWZpY2F0aW9u",
      "label" : "CESSDA Topic Classification"
    },
    "label" : {
      "pref" : "Migration",
      "de" : "Migration",
      "en" : "Migration"
    }
  }, {
    "type" : [ "SubjectHeading" ],
    "uri" : "info:searchapp/vocab/adhoc/Vm9yc2NodWxlcnppZWh1bmcgdW5kIEJpbGR1bmcgaW4gZGVyIFBmbGljaHRzY2h1bHplaXQ=",
    "notation" : "",
    "source" : {
      "uri" : "info:searchapp/vocab/adhoc/Q0VTU0RBIFRvcGljIENsYXNzaWZpY2F0aW9u",
      "label" : "CESSDA Topic Classification"
    },
    "label" : {
      "pref" : "Vorschulerziehung und Bildung in der Pflichtschulzeit",
      "de" : "Vorschulerziehung und Bildung in der Pflichtschulzeit",
      "en" : "Compulsory and pre-school education"
    }
  }, {
    "type" : [ "SubjectHeading" ],
    "uri" : "info:searchapp/vocab/adhoc/S3VsdHVyZWxsZSB1bmQgbmF0aW9uYWxlIElkZW50aXTDpHQ=",
    "notation" : "",
    "source" : {
      "uri" : "info:searchapp/vocab/adhoc/Q0VTU0RBIFRvcGljIENsYXNzaWZpY2F0aW9u",
      "label" : "CESSDA Topic Classification"
    },
    "label" : {
      "pref" : "Kulturelle und nationale Identität",
      "de" : "Kulturelle und nationale Identität",
      "en" : "Cultural and national identity"
    }
  }, {
    "type" : [ "SubjectHeading" ],
    "uri" : "info:searchapp/vocab/adhoc/TWVkaXppbmlzY2hlIEJlaGFuZGx1bmcgdW5kIE1lZGlrYXRpb24=",
    "notation" : "",
    "source" : {
      "uri" : "info:searchapp/vocab/adhoc/Q0VTU0RBIFRvcGljIENsYXNzaWZpY2F0aW9u",
      "label" : "CESSDA Topic Classification"
    },
    "label" : {
      "pref" : "Medizinische Behandlung und Medikation",
      "de" : "Medizinische Behandlung und Medikation",
      "en" : "Medication and treatment"
    }
  }, {
    "type" : [ "SubjectHeading" ],
    "uri" : "info:searchapp/vocab/adhoc/SW50ZXJuYXRpb25hbGUgUG9saXRpayB1bmQgSW50ZXJuYXRpb25hbGUgT3JnYW5pc2F0aW9uZW4=",
    "notation" : "",
    "source" : {
      "uri" : "info:searchapp/vocab/adhoc/Q0VTU0RBIFRvcGljIENsYXNzaWZpY2F0aW9u",
      "label" : "CESSDA Topic Classification"
    },
    "label" : {
      "pref" : "Internationale Politik und Internationale Organisationen",
      "de" : "Internationale Politik und Internationale Organisationen",
      "en" : "International politics and organisations"
    }
  }, {
    "type" : [ "SubjectHeading" ],
    "uri" : "info:searchapp/vocab/adhoc/UG9saXRpc2NoZXMgVmVyaGFsdGVuIHVuZCBwb2xpdGlzY2hlIEVpbnN0ZWxsdW5nZW4=",
    "notation" : "",
    "source" : {
      "uri" : "info:searchapp/vocab/adhoc/Q0VTU0RBIFRvcGljIENsYXNzaWZpY2F0aW9u",
      "label" : "CESSDA Topic Classification"
    },
    "label" : {
      "pref" : "Politisches Verhalten und politische Einstellungen",
      "de" : "Politisches Verhalten und politische Einstellungen",
      "en" : "Political behaviour and attitudes"
    }
  }, {
    "type" : [ "SubjectHeading" ],
    "uri" : "info:searchapp/vocab/adhoc/UmVnaWVydW5nLCBwb2xpdGlzY2hlIFN5c3RlbWUsIFBhcnRlaWVuIHVuZCBPcmdhbmlzYXRpb25lbg==",
    "notation" : "",
    "source" : {
      "uri" : "info:searchapp/vocab/adhoc/Q0VTU0RBIFRvcGljIENsYXNzaWZpY2F0aW9u",
      "label" : "CESSDA Topic Classification"
    },
    "label" : {
      "pref" : "Regierung, politische Systeme, Parteien und Organisationen",
      "de" : "Regierung, politische Systeme, Parteien und Organisationen",
      "en" : "Government, political systems and organisations"
    }
  }, {
    "type" : [ "SubjectHeading" ],
    "uri" : "info:searchapp/vocab/adhoc/U296aWFsc3lzdGVtZSB1bmQgU3RydWt0dXJlbiBkZXIgU296aWFsZsO8cnNvcmdl",
    "notation" : "",
    "source" : {
      "uri" : "info:searchapp/vocab/adhoc/Q0VTU0RBIFRvcGljIENsYXNzaWZpY2F0aW9u",
      "label" : "CESSDA Topic Classification"
    },
    "label" : {
      "pref" : "Sozialsysteme und Strukturen der Sozialfürsorge",
      "de" : "Sozialsysteme und Strukturen der Sozialfürsorge",
      "en" : "Social welfare systems/structures"
    }
  }, {
    "type" : [ "SubjectHeading" ],
    "uri" : "info:searchapp/vocab/adhoc/V2lydHNjaGFmdGxpY2hlIExhZ2UgdW5kIEluZGlrYXRvcmVu",
    "notation" : "",
    "source" : {
      "uri" : "info:searchapp/vocab/adhoc/Q0VTU0RBIFRvcGljIENsYXNzaWZpY2F0aW9u",
      "label" : "CESSDA Topic Classification"
    },
    "label" : {
      "pref" : "Wirtschaftliche Lage und Indikatoren",
      "de" : "Wirtschaftliche Lage und Indikatoren",
      "en" : "Economic conditions and indicators"
    }
  }, {
    "type" : [ "SubjectHeading" ],
    "uri" : "info:searchapp/vocab/adhoc/V2lydHNjaGFmdHNwb2xpdGlrLCDDtmZmZW50bGljaGUgQXVzZ2FiZW4gdW5kIEVpbm5haG1lbg==",
    "notation" : "",
    "source" : {
      "uri" : "info:searchapp/vocab/adhoc/Q0VTU0RBIFRvcGljIENsYXNzaWZpY2F0aW9u",
      "label" : "CESSDA Topic Classification"
    },
    "label" : {
      "pref" : "Wirtschaftspolitik, öffentliche Ausgaben und Einnahmen",
      "de" : "Wirtschaftspolitik, öffentliche Ausgaben und Einnahmen",
      "en" : "Economic policy,  public expenditure and revenue"
    }
  }, {
    "type" : [ "SubjectHeading" ],
    "uri" : "info:searchapp/vocab/adhoc/V2lydHNjaGFmdHNzeXN0ZW1lIHVuZCB3aXJ0c2NoYWZ0bGljaGUgRW50d2lja2x1bmc=",
    "notation" : "",
    "source" : {
      "uri" : "info:searchapp/vocab/adhoc/Q0VTU0RBIFRvcGljIENsYXNzaWZpY2F0aW9u",
      "label" : "CESSDA Topic Classification"
    },
    "label" : {
      "pref" : "Wirtschaftssysteme und wirtschaftliche Entwicklung",
      "de" : "Wirtschaftssysteme und wirtschaftliche Entwicklung",
      "en" : "Economic systems and development"
    }
  } ],
  "temporalCoverages" : [ {
    "startDate" : "2004-01",
    "endDate" : "2004-12",
    "labels" : [ ]
  } ],
  "timeDimensions" : [ {
    "timeDimensionType" : "Longitudinal.Trend/RepeatedCrossSection"
  } ],
  "title" : {
    "pref" : "Politbarometer Ost 2004 (Kumulierter Datensatz, inkl. Kurzbarometer)",
    "de" : "Politbarometer Ost 2004 (Kumulierter Datensatz, inkl. Kurzbarometer)",
    "en" : "Politbarometer East 2004 (Cumulated Data Set, incl. Flash)"
  },
  "universe" : {
    "sampled" : {
      "pref" : "Wahlberechtigte Wohnbevölkerung",
      "de" : "Wahlberechtigte Wohnbevölkerung",
      "en" : "The residential population eligible to vote."
    }
  },
  "uri" : "https://doi.org/10.4232/1.4223",
  "searchappPublisher" : {
    "shortName" : "GESIS",
    "name" : {
      "de" : "GESIS - Leibniz Institut für Sozialwissenschaften",
      "en" : "GESIS - Leibniz Institute for the Social Sciences"
    },
    "url" : "https://www.gesis.org/"
  },
  "calculatedTemporalCoverage" : {
    "label" : "2004",
    "dates" : [ "2004" ]
  }
}
