{
  "abstract" : {
    "pref" : "Die Allgemeine Bevölkerungsumfrage der Sozialwissenschaften (ALLBUS) ist eine Trenderhebung, in der seit 1980 alle zwei Jahre eine Zufallsstichprobe der deutschen Bevölkerung befragt wird. Das primäre Ziel des Umfrageprogramms ist die Beobachtung von Einstellungen, Verhalten und sozialen Wandel in Deutschland. Jede ALLBUS-Querschnittserhebung besteht aus ein oder zwei Schwerpunktmodulen zu wechselnden Themen. Diese werden ergänzt durch weitere inhaltliche Fragen und ein Kernmodul mit detaillierten demografischen Informationen. Zudem werden Zusatzinformation zum Interview und den Interviewern bereitgestellt. Die Schwerpunktmodule folgen in der Regel einem 10-jährigen Replikationszyklus, viele Einzelindikatoren und Itembatterien werden aber auch in kürzeren Abständen repliziert.\nDas Schwerpunktmodul von ALLBUS 2021 befasst sich mit abweichendem Verhalten und Sanktionen. Weiterer Schwerpunkt der Erhebung war die Replikation von Fragen aus einem breiten Themenspektrum. Repliziert wurden u.a. Fragen zu Politik, sozialer Ungleichheit, Geschlechterrollen, Mediennutzung und Gesundheit. \nALLBUS 2021 wurde erstmals in einem selbstadministrierten Mixed-Mode Design durchgeführt (MAIL (postalischer Selbstausfüller) und CAWI (Computer-Assisted Web Interview)).",
    "de" : "Die Allgemeine Bevölkerungsumfrage der Sozialwissenschaften (ALLBUS) ist eine Trenderhebung, in der seit 1980 alle zwei Jahre eine Zufallsstichprobe der deutschen Bevölkerung befragt wird. Das primäre Ziel des Umfrageprogramms ist die Beobachtung von Einstellungen, Verhalten und sozialen Wandel in Deutschland. Jede ALLBUS-Querschnittserhebung besteht aus ein oder zwei Schwerpunktmodulen zu wechselnden Themen. Diese werden ergänzt durch weitere inhaltliche Fragen und ein Kernmodul mit detaillierten demografischen Informationen. Zudem werden Zusatzinformation zum Interview und den Interviewern bereitgestellt. Die Schwerpunktmodule folgen in der Regel einem 10-jährigen Replikationszyklus, viele Einzelindikatoren und Itembatterien werden aber auch in kürzeren Abständen repliziert.\nDas Schwerpunktmodul von ALLBUS 2021 befasst sich mit abweichendem Verhalten und Sanktionen. Weiterer Schwerpunkt der Erhebung war die Replikation von Fragen aus einem breiten Themenspektrum. Repliziert wurden u.a. Fragen zu Politik, sozialer Ungleichheit, Geschlechterrollen, Mediennutzung und Gesundheit. \nALLBUS 2021 wurde erstmals in einem selbstadministrierten Mixed-Mode Design durchgeführt (MAIL (postalischer Selbstausfüller) und CAWI (Computer-Assisted Web Interview)).",
    "en" : "ALLBUS (GGSS - the German General Social Survey) is a biennial trend survey based on random samples of the German population. Established in 1980, its mission is to monitor attitudes, behavior, and social change in Germany. Each ALLBUS cross-sectional survey consists of one or two main question modules covering changing topics, a range of supplementary questions and a core module providing detailed demographic information. Additionally, data on the interview and the interviewers are provided as well. Key topics generally follow a 10-year replication cycle, many individual indicators and item batteries are replicated at shorter intervals.\nThe main question module of ALLBUS/GGSS 2021 focuses on deviant behavior and sanctions. Another focus of the survey was the replication of questions from a broad range of topics. This included questions on politics and political attitudes, social inequality, gender roles, media use, and health.\nIn contrast to the previous surveys in the ALLBUS series, ALLBUS 2021 was conducted in a self-administered mixed-mode design (MAIL (postal self-completion) and CAWI (computer-assisted web interview))."
  },
  "availability" : {
    "availabilityType" : "Download",
    "embargoDate" : "",
    "label" : [ {
      "pref" : "A - Daten und Dokumente sind für die akademische Forschung und Lehre freigegeben.",
      "de" : "A - Daten und Dokumente sind für die akademische Forschung und Lehre freigegeben.",
      "en" : "A - Data and documents are released for academic research and teaching."
    } ]
  },
  "collectionModes" : [ {
    "type" : "SelfAdministeredQuestionnaire.Paper"
  }, {
    "type" : "SelfAdministeredQuestionnaire.WebBased"
  }, {
    "label" : {
      "pref" : "ALLBUS 2021 wurde erstmals in einem selbstadministrierten Mixed-Mode Design durchgeführt (MAIL (postalischer Selbstausfüller) und CAWI (Computer-assisted Web Interview)). Unterschiedliche Erhebungsmodi werden von unterschiedlichen Teilpopulationen bevorzugt, so auch im ALLBUS 2021. Um diese Selbstselektion in die Erhebungsmodi zu berücksichtigen, wird bei inhaltlichen Analysen empfohlen die Fälle aus beiden Modi gemeinsam auszuwerten.",
      "de" : "ALLBUS 2021 wurde erstmals in einem selbstadministrierten Mixed-Mode Design durchgeführt (MAIL (postalischer Selbstausfüller) und CAWI (Computer-assisted Web Interview)). Unterschiedliche Erhebungsmodi werden von unterschiedlichen Teilpopulationen bevorzugt, so auch im ALLBUS 2021. Um diese Selbstselektion in die Erhebungsmodi zu berücksichtigen, wird bei inhaltlichen Analysen empfohlen die Fälle aus beiden Modi gemeinsam auszuwerten.",
      "en" : "ALLBUS/GGSS 2021 was conducted as a mixed-mode survey. The target persons had the choice between the two modes MAIL and CAWI. Different survey modes are preferred by different subpopulations, as was the case in ALLBUS/GGSS 2021. To account for this self-selection, it is strongly recommended that the cases from both modes be analyzed together."
    }
  } ],
  "contributions" : [ {
    "type" : [ "Creator" ],
    "agent" : {
      "type" : [ "Institution" ],
      "uri" : "info:searchapp/vocab/adhoc/R0VTSVMgLSBMZWlibml6LUluc3RpdHV0IGbDvHIgU296aWFsd2lzc2Vuc2NoYWZ0ZW4=",
      "label" : "GESIS - Leibniz-Institut für Sozialwissenschaften"
    },
    "role" : [ ]
  } ],
  "describedBy" : {
    "uri" : "https://git.gesis.org/datorium/dbk-oai-dprex-set-data/oai.dbk.gesis.org.DBK.ZA5280",
    "type" : "ResearchData",
    "modifiedBy" : {
      "uri" : "https://searchapp-indexer",
      "label" : {
        "pref" : "Searchapp Indexer"
      },
      "dateCreated" : "2024-06-21T05:26:25.586+02:00",
      "dateModified" : "2024-06-21T05:26:25.586+02:00",
      "inDataset" : {
        "uri" : "https://dbkapps.gesis.org/dbkoai/?verb=ListIdentifiers&metadataPrefix=oai_dara&set=DPREX"
      },
      "resultOf" : {
        "type" : [ "CreateAction" ],
        "endTime" : "2024-06-21T05:26:25.586+02:00",
        "instrument" : {
          "uri" : "https://git.gesis.org/datorium/searchapp-indexer",
          "type" : [ "SoftwareApplication" ],
          "label" : "Searchapp Indexer"
        },
        "srcObject" : {
          "uri" : "https://dbkapps.gesis.org/dbkoai/?verb=GetRecord&metadataPrefix=oai_dara&identifier=oai:dbk.gesis.org:DBK/ZA5280",
          "type" : [ "DataFeedItem" ],
          "inDataset" : {
            "uri" : "https://dbkapps.gesis.org/dbkoai/?verb=ListIdentifiers&metadataPrefix=oai_dara&set=DPREX",
            "label" : "DBK_OAI"
          }
        }
      }
    }
  },
  "documentId" : "oai.dbk.gesis.org.DBK.ZA5280",
  "geographicCoverages" : [ {
    "geographicCoverageControlled" : "DE"
  } ],
  "handles" : [ {
    "type" : "DOI",
    "notation" : "10.4232/1.14238",
    "url" : "https://doi.org/10.4232/1.14238",
    "source" : {
      "uri" : "https://www.da-ra.de/",
      "label" : "DARA"
    }
  } ],
  "natureOfContents" : [ {
    "uri" : "info:searchapp/vocab/Dataset",
    "label" : {
      "pref" : "Dataset",
      "de" : "Dataset",
      "en" : "Dataset"
    }
  } ],
  "publications" : [ {
    "type" : [ "PublicationEvent" ],
    "startDate" : "2023"
  } ],
  "resourceLanguage" : "deu",
  "rights" : {
    "licenseType" : "",
    "label" : {
      "pref" : "Alle im GESIS DBK veröffentlichten Metadaten sind frei verfügbar unter den Creative Commons CC0 1.0 Universal Public Domain Dedication. GESIS bittet jedoch darum, dass Sie alle Metadatenquellen anerkennen und sie nennen, etwa die Datengeber oder jeglichen Aggregator, inklusive GESIS selbst. Für weitere Informationen siehe https://dbk.gesis.org/dbksearch/guidelines.asp?db=d",
      "de" : "Alle im GESIS DBK veröffentlichten Metadaten sind frei verfügbar unter den Creative Commons CC0 1.0 Universal Public Domain Dedication. GESIS bittet jedoch darum, dass Sie alle Metadatenquellen anerkennen und sie nennen, etwa die Datengeber oder jeglichen Aggregator, inklusive GESIS selbst. Für weitere Informationen siehe https://dbk.gesis.org/dbksearch/guidelines.asp?db=d",
      "en" : "All metadata from GESIS DBK are available free of restriction under the Creative Commons CC0 1.0 Universal Public Domain Dedication. However, GESIS requests that you actively acknowledge and give attribution to all metadata sources, such as the data providers and any data aggregators, including GESIS. For further information see https://dbk.gesis.org/dbksearch/guidelines.asp"
    }
  },
  "sampling" : {
    "method" : {
      "pref" : "Wahrscheinlichkeitsauswahl: Disproportional geschichtete Zufallsauswahl; Wahrscheinlichkeitsauswahl: Mehrstufige Zufallsauswahl; Auswahlverfahren Kommentar: Zweistufige, disproportional geschichtete Zufallsauswahl in Westdeutschland (inkl. West-Berlin) und Ostdeutschland (inkl. Ost-Berlin). In der ersten Auswahlstufe wurden Gemeinden in Westdeutschland und in Ostdeutschland mit einer Wahrscheinlichkeit proportional zur Zahl ihrer erwachsenen Einwohner ausgewählt. In der zweiten Auswahlstufe wurden Personen aus den Einwohnermeldekarteien zufällig gezogen.\nZielpersonen mit nicht hinreichend guten Deutschkenntnissen zählen zu den systematischen Ausfällen.",
      "de" : "Wahrscheinlichkeitsauswahl: Disproportional geschichtete Zufallsauswahl; Wahrscheinlichkeitsauswahl: Mehrstufige Zufallsauswahl; Auswahlverfahren Kommentar: Zweistufige, disproportional geschichtete Zufallsauswahl in Westdeutschland (inkl. West-Berlin) und Ostdeutschland (inkl. Ost-Berlin). In der ersten Auswahlstufe wurden Gemeinden in Westdeutschland und in Ostdeutschland mit einer Wahrscheinlichkeit proportional zur Zahl ihrer erwachsenen Einwohner ausgewählt. In der zweiten Auswahlstufe wurden Personen aus den Einwohnermeldekarteien zufällig gezogen.\nZielpersonen mit nicht hinreichend guten Deutschkenntnissen zählen zu den systematischen Ausfällen.",
      "en" : "Probability: Stratified: Disproportional; Probability: Multistage; Sampling Procedure Comment: Two stage disproportionate random sample in western Germany (incl. West Berlin) and eastern Germany (incl. East Berlin). In the first sample stage municipalities (Gemeinden) in western Germany and municipalities in eastern Germany were selected with a probability proportional to their number of adult residents; in the second sample stage individual persons were selected at random from the municipal registers of residents.\nTargeted individuals who did not have adequate knowledge of German to conduct the interview were treated as systematic unit non-responses."
    }
  },
  "temporalCoverages" : [ {
    "startDate" : "2021-06",
    "endDate" : "2021-08",
    "labels" : [ ]
  } ],
  "timeDimensions" : [ {
    "timeDimensionType" : "CrossSection"
  } ],
  "title" : {
    "pref" : "Allgemeine Bevölkerungsumfrage der Sozialwissenschaften ALLBUS 2021",
    "de" : "Allgemeine Bevölkerungsumfrage der Sozialwissenschaften ALLBUS 2021",
    "en" : "ALLBUS/GGSS 2021 (Allgemeine Bevölkerungsumfrage der Sozialwissenschaften/German General Social Survey 2021)"
  },
  "universe" : {
    "sampled" : {
      "pref" : "Personen (Deutsche und Ausländer), die zum Befragungszeitpunkt in Privathaushalten lebten und vor dem 01.01.2003 geboren sind.",
      "de" : "Personen (Deutsche und Ausländer), die zum Befragungszeitpunkt in Privathaushalten lebten und vor dem 01.01.2003 geboren sind.",
      "en" : "All persons (German and non-German) who resided in private households and were born before 1 January 2003."
    }
  },
  "uri" : "https://doi.org/10.4232/1.14238",
  "searchappPublisher" : {
    "shortName" : "GESIS",
    "name" : {
      "de" : "GESIS - Leibniz Institut für Sozialwissenschaften",
      "en" : "GESIS - Leibniz Institute for the Social Sciences"
    },
    "url" : "https://www.gesis.org/"
  },
  "calculatedTemporalCoverage" : {
    "label" : "2021",
    "dates" : [ "2021" ]
  }
}
