{
  "abstract" : {
    "pref" : "Einstellung zu innenpolitischen Themen.\nThemen: Demokratiezufriedenheit; Parteipräferenz(Sonntagsfrage); Wahlverhalten bei der letzten Bundestagswahl;Vertrauen in öffentliche Institutionen (Skalometer);Wichtigkeit von Bundesinstitutionen (Skalometer); präferierteEntwicklung der Gesellschaft (Skala); wichtigste Ziele derInnenpolitik; Beurteilung des Asylrechts; Einstellung zu einerAufnahmebegrenzung für politisch Verfolgte und konsequenteAbschiebung von abgelehnten Asylbewerbern; Kontakte zuAusländern; Nationalstolz; Zufriedenheit mit dengesellschaftlichen Bedingungen in der Bundesrepublik;empfundene Bedrohung der öffentlichen Sicherheit sowievermutete Zu- bzw. Abnahme dieser Bedrohung; empfundeneBedrohung sowie Beunruhigung durch ausgewählteKriminalitätsformen.\nEinstellung zu Europa; Präferenz für nationale odereuropäische Lösung von ausgewählten politischen Problemen;Einschätzung der Vorteilhaftigkeit der EG-Mitgliedschaft undder Natomitgliedschaft für die Bundesrepublik; Erwartungen anden gemeinsamen Binnenmarkt Ende 1992.\nZustimmung zu einem UNO-Einsatz (Blauhelm-Aktion) derBundeswehr bzw. des Bundesgrenzschutzes; politischePartizipation; geschätzte Dauer der Angleichung derLebensverhältnisse in Ost- und Westdeutschland; perzipierteGefahr für die Demokratie durch ehemalige SED-Funktionäre inOstdeutschland bzw. der ganzen Bundesrepublik; Einschätzung derGlaubwürdigkeit der PDS; Einstellung zur PDS als Mitglied desBundestages; Wichtigkeit der Bewältigung der STASI- undSED-Vergangenheit der DDR (Skala); Vertrauen in die (GAUCK-)Behördedes Sonderbeauftragten für die STASI-Unterlagen; Bedarf anFachleuten aus dem Westen für die ostdeutsche Verwaltung undWirtschaft; Befürwortung staatlicher Aktivitäten gegenlinksextremistische bzw. rechtsextremistische Gruppen;Gefährdung der Demokratie durch diese Gruppen;Postmaterialismus; Selbsteinstufung auf einemLinks-Rechts-Kontinuum.\nDemographie: Alter (klassiert); Geschlecht; Familienstand; Konfession;Kirchgangshäufigkeit; Schulbildung; Berufsausbildung; BeruflichePosition; Berufstätigkeit; Staatsexamen, Diplom oder ähnlicher Abschluß;Befragter ist Haushaltsvorstand; Charakteristika des Haushaltsvorstands;Zusammenleben mit einem Lebensgefährten; akademischer Grad; perzipierteGefährdung des eigenen Arbeitsplatzes sowie des Arbeitsplatzes vonnahestehenden Personen; Gewerkschaftsmitgliedschaft; Parteineigung;telefonische Erreichbarkeit an Werktagabenden.\nZusätzlich verkodet wurde: Interviewdatum.",
    "de" : "Einstellung zu innenpolitischen Themen.\nThemen: Demokratiezufriedenheit; Parteipräferenz(Sonntagsfrage); Wahlverhalten bei der letzten Bundestagswahl;Vertrauen in öffentliche Institutionen (Skalometer);Wichtigkeit von Bundesinstitutionen (Skalometer); präferierteEntwicklung der Gesellschaft (Skala); wichtigste Ziele derInnenpolitik; Beurteilung des Asylrechts; Einstellung zu einerAufnahmebegrenzung für politisch Verfolgte und konsequenteAbschiebung von abgelehnten Asylbewerbern; Kontakte zuAusländern; Nationalstolz; Zufriedenheit mit dengesellschaftlichen Bedingungen in der Bundesrepublik;empfundene Bedrohung der öffentlichen Sicherheit sowievermutete Zu- bzw. Abnahme dieser Bedrohung; empfundeneBedrohung sowie Beunruhigung durch ausgewählteKriminalitätsformen.\nEinstellung zu Europa; Präferenz für nationale odereuropäische Lösung von ausgewählten politischen Problemen;Einschätzung der Vorteilhaftigkeit der EG-Mitgliedschaft undder Natomitgliedschaft für die Bundesrepublik; Erwartungen anden gemeinsamen Binnenmarkt Ende 1992.\nZustimmung zu einem UNO-Einsatz (Blauhelm-Aktion) derBundeswehr bzw. des Bundesgrenzschutzes; politischePartizipation; geschätzte Dauer der Angleichung derLebensverhältnisse in Ost- und Westdeutschland; perzipierteGefahr für die Demokratie durch ehemalige SED-Funktionäre inOstdeutschland bzw. der ganzen Bundesrepublik; Einschätzung derGlaubwürdigkeit der PDS; Einstellung zur PDS als Mitglied desBundestages; Wichtigkeit der Bewältigung der STASI- undSED-Vergangenheit der DDR (Skala); Vertrauen in die (GAUCK-)Behördedes Sonderbeauftragten für die STASI-Unterlagen; Bedarf anFachleuten aus dem Westen für die ostdeutsche Verwaltung undWirtschaft; Befürwortung staatlicher Aktivitäten gegenlinksextremistische bzw. rechtsextremistische Gruppen;Gefährdung der Demokratie durch diese Gruppen;Postmaterialismus; Selbsteinstufung auf einemLinks-Rechts-Kontinuum.\nDemographie: Alter (klassiert); Geschlecht; Familienstand; Konfession;Kirchgangshäufigkeit; Schulbildung; Berufsausbildung; BeruflichePosition; Berufstätigkeit; Staatsexamen, Diplom oder ähnlicher Abschluß;Befragter ist Haushaltsvorstand; Charakteristika des Haushaltsvorstands;Zusammenleben mit einem Lebensgefährten; akademischer Grad; perzipierteGefährdung des eigenen Arbeitsplatzes sowie des Arbeitsplatzes vonnahestehenden Personen; Gewerkschaftsmitgliedschaft; Parteineigung;telefonische Erreichbarkeit an Werktagabenden.\nZusätzlich verkodet wurde: Interviewdatum.",
    "en" : "Attitude to topics of domestic policy. \nTopics: Satisfaction with democracy; party preference (Sundayquestion); behavior at the polls in the last Federal Parliamentelection; trust in public institutions (scale); importance of federalinstitutions (scale); preferred development of society (scale); mostimportant goals of domestic policy; judgement on the right to asylum;attitude to a limit to admission of politically persecuted andconsistent deportation of those whose application for asylum wasdenied; contacts with foreigners; national pride; satisfaction withsocial conditions in the Federal Republic; perceived threat to publicsafety as well as assumed increase or decrease of this threat;perceived threat as well as concern from selected forms of crime.Attitude to Europe; preference for national or European solution ofselected political problems; assessment of the advantageousness of ECmembership and NATO membership for the Federal Republic; expectationsof the common domestic market the end of 1992. Agreement with a UNmission (blue helmet action) of the Federal German Armed Forces orFederal Border Guard; political participation; estimated time requiredto achieve equivalent living conditions in Eastern and Western Germany;perceived danger to democracy from former SED functionaries in EasternGermany or the entire Federal Republic; assessment of the credibilityof the PDS; attitude to the PDS as member of the Federal Parliament;importance of dealing with the STASI and SED past of the GDR (scale);trust in the (Gauck) special office for STASI records; need for expertsfrom the West for Eastern German administration and economy; approvalof government activities against left extremist or right extremistgroups; jeopardy to democracy from these groups; postmaterialism;self-classification on a left-right continuum. \nDemography: living together with a companion through life; academicdegree; perceived jeopardy to one´s own job as well as the jobs offriends and relatives; religiousness; union membership; partyinclination; availability by telephone on weekday evenings. \nAlso encoded was: date of interview."
  },
  "availability" : {
    "availabilityType" : "Download",
    "embargoDate" : "",
    "label" : [ {
      "pref" : "A - Daten und Dokumente sind für die akademische Forschung und Lehre freigegeben.",
      "de" : "A - Daten und Dokumente sind für die akademische Forschung und Lehre freigegeben.",
      "en" : "A - Data and documents are released for academic research and teaching."
    } ]
  },
  "collectionModes" : [ {
    "label" : {
      "pref" : "Mündliche Befragung mit standardisiertem Fragebogen",
      "de" : "Mündliche Befragung mit standardisiertem Fragebogen",
      "en" : "Oral survey with standardized questionnaire"
    }
  } ],
  "contributions" : [ {
    "type" : [ "Creator" ],
    "agent" : {
      "type" : [ "Institution" ],
      "uri" : "info:searchapp/vocab/adhoc/SW5zdGl0dXQgZsO8ciBwcmF4aXNvcmllbnRpZXJ0ZSBTb3ppYWxmb3JzY2h1bmcgKElQT1MpLCBNYW5uaGVpbQ==",
      "label" : "Institut für praxisorientierte Sozialforschung (IPOS), Mannheim"
    },
    "role" : [ ]
  } ],
  "describedBy" : {
    "uri" : "https://git.gesis.org/datorium/dbk-oai-dprex-set-data/oai.dbk.gesis.org.DBK.ZA2120",
    "type" : "ResearchData",
    "modifiedBy" : {
      "uri" : "https://searchapp-indexer",
      "label" : {
        "pref" : "Searchapp Indexer"
      },
      "dateCreated" : "2024-06-21T05:26:26.753+02:00",
      "dateModified" : "2024-06-21T05:26:26.753+02:00",
      "inDataset" : {
        "uri" : "https://dbkapps.gesis.org/dbkoai/?verb=ListIdentifiers&metadataPrefix=oai_dara&set=DPREX"
      },
      "resultOf" : {
        "type" : [ "CreateAction" ],
        "endTime" : "2024-06-21T05:26:26.753+02:00",
        "instrument" : {
          "uri" : "https://git.gesis.org/datorium/searchapp-indexer",
          "type" : [ "SoftwareApplication" ],
          "label" : "Searchapp Indexer"
        },
        "srcObject" : {
          "uri" : "https://dbkapps.gesis.org/dbkoai/?verb=GetRecord&metadataPrefix=oai_dara&identifier=oai:dbk.gesis.org:DBK/ZA2120",
          "type" : [ "DataFeedItem" ],
          "inDataset" : {
            "uri" : "https://dbkapps.gesis.org/dbkoai/?verb=ListIdentifiers&metadataPrefix=oai_dara&set=DPREX",
            "label" : "DBK_OAI"
          }
        }
      }
    }
  },
  "documentId" : "oai.dbk.gesis.org.DBK.ZA2120",
  "geographicCoverages" : [ {
    "geographicCoverageControlled" : "DE"
  } ],
  "handles" : [ {
    "type" : "DOI",
    "notation" : "10.4232/1.2120",
    "url" : "https://doi.org/10.4232/1.2120",
    "source" : {
      "uri" : "https://www.da-ra.de/",
      "label" : "DARA"
    }
  } ],
  "natureOfContents" : [ {
    "uri" : "info:searchapp/vocab/Dataset",
    "label" : {
      "pref" : "Dataset",
      "de" : "Dataset",
      "en" : "Dataset"
    }
  } ],
  "publications" : [ {
    "type" : [ "PublicationEvent" ],
    "startDate" : "1992"
  } ],
  "resourceLanguage" : "deu",
  "rights" : {
    "licenseType" : "",
    "label" : {
      "pref" : "Alle im GESIS DBK veröffentlichten Metadaten sind frei verfügbar unter den Creative Commons CC0 1.0 Universal Public Domain Dedication. GESIS bittet jedoch darum, dass Sie alle Metadatenquellen anerkennen und sie nennen, etwa die Datengeber oder jeglichen Aggregator, inklusive GESIS selbst. Für weitere Informationen siehe https://dbk.gesis.org/dbksearch/guidelines.asp?db=d",
      "de" : "Alle im GESIS DBK veröffentlichten Metadaten sind frei verfügbar unter den Creative Commons CC0 1.0 Universal Public Domain Dedication. GESIS bittet jedoch darum, dass Sie alle Metadatenquellen anerkennen und sie nennen, etwa die Datengeber oder jeglichen Aggregator, inklusive GESIS selbst. Für weitere Informationen siehe https://dbk.gesis.org/dbksearch/guidelines.asp?db=d",
      "en" : "All metadata from GESIS DBK are available free of restriction under the Creative Commons CC0 1.0 Universal Public Domain Dedication. However, GESIS requests that you actively acknowledge and give attribution to all metadata sources, such as the data providers and any data aggregators, including GESIS. For further information see https://dbk.gesis.org/dbksearch/guidelines.asp"
    }
  },
  "sampling" : {
    "method" : {
      "pref" : "Auswahlverfahren Kommentar: Mehrstufig geschichtete Zufallsauswahl",
      "de" : "Auswahlverfahren Kommentar: Mehrstufig geschichtete Zufallsauswahl",
      "en" : "Sampling Procedure Comment: Multi-stage stratified random sample"
    }
  },
  "subjects" : [ {
    "type" : [ "SubjectHeading" ],
    "uri" : "info:searchapp/vocab/adhoc/TWlncmF0aW9u",
    "notation" : "",
    "source" : {
      "uri" : "info:searchapp/vocab/adhoc/Q0VTU0RBIFRvcGljIENsYXNzaWZpY2F0aW9u",
      "label" : "CESSDA Topic Classification"
    },
    "label" : {
      "pref" : "Migration",
      "de" : "Migration",
      "en" : "Migration"
    }
  }, {
    "type" : [ "SubjectHeading" ],
    "uri" : "info:searchapp/vocab/adhoc/S3JpbWluYWxpdMOkdCB1bmQgR2VzZXR6ZXN2b2xsenVn",
    "notation" : "",
    "source" : {
      "uri" : "info:searchapp/vocab/adhoc/Q0VTU0RBIFRvcGljIENsYXNzaWZpY2F0aW9u",
      "label" : "CESSDA Topic Classification"
    },
    "label" : {
      "pref" : "Kriminalität und Gesetzesvollzug",
      "de" : "Kriminalität und Gesetzesvollzug",
      "en" : "Crime and law enforcement"
    }
  }, {
    "type" : [ "SubjectHeading" ],
    "uri" : "info:searchapp/vocab/adhoc/UG9saXRpc2NoZXMgVmVyaGFsdGVuIHVuZCBwb2xpdGlzY2hlIEVpbnN0ZWxsdW5nZW4=",
    "notation" : "",
    "source" : {
      "uri" : "info:searchapp/vocab/adhoc/Q0VTU0RBIFRvcGljIENsYXNzaWZpY2F0aW9u",
      "label" : "CESSDA Topic Classification"
    },
    "label" : {
      "pref" : "Politisches Verhalten und politische Einstellungen",
      "de" : "Politisches Verhalten und politische Einstellungen",
      "en" : "Political behaviour and attitudes"
    }
  }, {
    "type" : [ "SubjectHeading" ],
    "uri" : "info:searchapp/vocab/adhoc/UmVnaWVydW5nLCBwb2xpdGlzY2hlIFN5c3RlbWUsIFBhcnRlaWVuIHVuZCBPcmdhbmlzYXRpb25lbg==",
    "notation" : "",
    "source" : {
      "uri" : "info:searchapp/vocab/adhoc/Q0VTU0RBIFRvcGljIENsYXNzaWZpY2F0aW9u",
      "label" : "CESSDA Topic Classification"
    },
    "label" : {
      "pref" : "Regierung, politische Systeme, Parteien und Organisationen",
      "de" : "Regierung, politische Systeme, Parteien und Organisationen",
      "en" : "Government, political systems and organisations"
    }
  }, {
    "type" : [ "SubjectHeading" ],
    "uri" : "info:searchapp/vocab/adhoc/V2FobGVu",
    "notation" : "",
    "source" : {
      "uri" : "info:searchapp/vocab/adhoc/Q0VTU0RBIFRvcGljIENsYXNzaWZpY2F0aW9u",
      "label" : "CESSDA Topic Classification"
    },
    "label" : {
      "pref" : "Wahlen",
      "de" : "Wahlen",
      "en" : "Elections"
    }
  } ],
  "temporalCoverages" : [ {
    "startDate" : "1991-05",
    "endDate" : "1991-06",
    "labels" : [ ]
  } ],
  "timeDimensions" : [ {
    "timeDimensionType" : ""
  } ],
  "title" : {
    "pref" : "Einstellungen zu aktuellen Fragen der Innenpolitik (1991)",
    "de" : "Einstellungen zu aktuellen Fragen der Innenpolitik (1991)",
    "en" : "Attitudes on Current Questions of Domestic Policy (1991)"
  },
  "universe" : { },
  "uri" : "https://doi.org/10.4232/1.2120",
  "searchappPublisher" : {
    "shortName" : "GESIS",
    "name" : {
      "de" : "GESIS - Leibniz Institut für Sozialwissenschaften",
      "en" : "GESIS - Leibniz Institute for the Social Sciences"
    },
    "url" : "https://www.gesis.org/"
  },
  "calculatedTemporalCoverage" : {
    "label" : "1991",
    "dates" : [ "1991" ]
  }
}
