{
  "abstract" : {
    "pref" : "Einstellungen zu Einwanderung im Allgemeinen, zur Integration und zur Fachkräfteeinwanderung.\nEinstellungen zu Einwanderung im Allgemeinen: Einstellung zum Thema Einwanderung in Deutschland (Skala); Bedeutung der Einwanderungspolitik; Zufriedenheit mit der Einwanderungspolitik der Bundesregierung im Hinblick auf: Sorgen der  Bevölkerung, Verdeutlichung von Zielen und Maßnahmen der Einwanderungspolitik, Integrationsbemühungen in die deutsche Gesellschaft und den Arbeitsmarkt, europäische Lösung für die Einwanderung nach Europa sowie die Einwanderungspolitik im Allgemeinen; wichtiges Kriterium für Einwanderung (z.B. in Deutschland nachgefragter Beruf, Familienangehörige in Deutschland, politische Verfolgung im Heimatland, Universitätsabschluss, keine Straffälligkeit im Heimatland, gute Deutschkenntnisse, etc. ); Möglichkeiten der Politik, Einwanderung zu steuern und zu kontrollieren; Umgang mit abgelehnten Asylbewerbern bzw. mit straffällig geworden Asylbewerbern (Abschiebung vs. Duldung unter bestimmten Bedingungen, Split-Half). \nEinstellung zur Integration: Beurteilung des Zusammenlebens von Deutschen und Einwanderern;  Häufigkeit verschiedener Gründe für Einwanderung nach Deutschland (Bürgerkrieg im Heimatland, Perspektivlosigkeit, gute soziale Sicherungssysteme in Deutschland,  Hoffnung auf mehr Geld, Arbeitslosigkeit, Verfolgung im Heimatland aus politischen bzw. religiösen Gründen, Hunger- oder Naturkatastrophe im Heimatland, Teil der Familie lebt in Deutschland, Gefallen an Land und Leuten in Deutschland).\nFachkräfteeinwanderung: Meinung zur Zuwanderung hochqualifizierter Fachkräfte aus dem Ausland (Zuwanderung von Fachkräften erlauben wenn sich hierzulande niemand findet vs. Qualifizierung von Arbeitslosen); Einschätzung des Fachkräftemangels in Deutschland; Fachkräftemangel als Aufgabe für Unternehmen oder für die Politik; Bereiche mit Fachkräftemangel in Deutschland (Pflege, Medizin, Computerbranche/ Digitalbereich, Handwerk, Industrie, Gastronomie, Tourismus, Einzelhandel , weitere - offen); Wichtigkeit verschiedener Maßnahmen zur Bekämpfung des Fachkräftemangels in Deutschland (Qualifizierung bereits in Deutschland lebender Menschen, Anwerbung von  Fachkräften aus dem europäischen Ausland bzw. aus dem nicht-europäischen Ausland); Bewertung verschiedener  Maßnahmen zur Regelung der Zuwanderung zu Arbeits- und Ausbildungszwecken; Arbeitserlaubnis für qualifizierte Einwanderer in allen Berufen vs. nur in Berufen mit Engpass; Bewertung der geltenden Regelung zur Einreise von Arbeit suchenden Ausländern mit Hochschulabschluss; Befürwortung der Anwendung dieser Regelung auch für die Einreise von Ausländern mit einer anerkannten Berufsausbildung; erwartete Folgen des geplanten Fachkräfteeinwanderungsgesetzes (deutliche Abnahme des Fachkräftemangels, bessere Steuerung und Kontrolle der Einwanderung, wirtschaftliche Entwicklung Deutschlands wird profitieren, Stabilisierung der sozialen Sicherungssysteme, Wohlstandssicherung, Bereicherung des Lebens in Deutschland, Löhne werden deutlich sinken, zunehmende Konkurrenz auf dem Arbeitsmarkt, Verlust deutscher Kultur und Eigenart, weitere Parallelgesellschaften, zunehmende Kriminalität, steigende Terrorgefahr, kulturelle Konflikte);  persönlicher Kontakt zu nicht in Deutschland geborenen Personen am Arbeitsplatz, im Freundeskreis, in der Nachbarschaft und in der Familie; Gefühl in der Gesellschaft eher bevorzugt, eher benachteiligt oder angemessen behandelt zu werden; Parteipräferenz.\nDemographie: Geschlecht; Alter; Bildung ; Berufstätigkeit; berufliche Stellung; Familienstand; Haushaltsgröße; Anzahl der Personen im Haushalt ab 18 Jahren; Migrationshintergrund; Haushaltsnettoeinkommen.\nZusätzlich verkodet wurde: Befragten ID; Bundesland; Ortsgröße; Gewichtungsfaktor.",
    "de" : "Einstellungen zu Einwanderung im Allgemeinen, zur Integration und zur Fachkräfteeinwanderung.\nEinstellungen zu Einwanderung im Allgemeinen: Einstellung zum Thema Einwanderung in Deutschland (Skala); Bedeutung der Einwanderungspolitik; Zufriedenheit mit der Einwanderungspolitik der Bundesregierung im Hinblick auf: Sorgen der  Bevölkerung, Verdeutlichung von Zielen und Maßnahmen der Einwanderungspolitik, Integrationsbemühungen in die deutsche Gesellschaft und den Arbeitsmarkt, europäische Lösung für die Einwanderung nach Europa sowie die Einwanderungspolitik im Allgemeinen; wichtiges Kriterium für Einwanderung (z.B. in Deutschland nachgefragter Beruf, Familienangehörige in Deutschland, politische Verfolgung im Heimatland, Universitätsabschluss, keine Straffälligkeit im Heimatland, gute Deutschkenntnisse, etc. ); Möglichkeiten der Politik, Einwanderung zu steuern und zu kontrollieren; Umgang mit abgelehnten Asylbewerbern bzw. mit straffällig geworden Asylbewerbern (Abschiebung vs. Duldung unter bestimmten Bedingungen, Split-Half). \nEinstellung zur Integration: Beurteilung des Zusammenlebens von Deutschen und Einwanderern;  Häufigkeit verschiedener Gründe für Einwanderung nach Deutschland (Bürgerkrieg im Heimatland, Perspektivlosigkeit, gute soziale Sicherungssysteme in Deutschland,  Hoffnung auf mehr Geld, Arbeitslosigkeit, Verfolgung im Heimatland aus politischen bzw. religiösen Gründen, Hunger- oder Naturkatastrophe im Heimatland, Teil der Familie lebt in Deutschland, Gefallen an Land und Leuten in Deutschland).\nFachkräfteeinwanderung: Meinung zur Zuwanderung hochqualifizierter Fachkräfte aus dem Ausland (Zuwanderung von Fachkräften erlauben wenn sich hierzulande niemand findet vs. Qualifizierung von Arbeitslosen); Einschätzung des Fachkräftemangels in Deutschland; Fachkräftemangel als Aufgabe für Unternehmen oder für die Politik; Bereiche mit Fachkräftemangel in Deutschland (Pflege, Medizin, Computerbranche/ Digitalbereich, Handwerk, Industrie, Gastronomie, Tourismus, Einzelhandel , weitere - offen); Wichtigkeit verschiedener Maßnahmen zur Bekämpfung des Fachkräftemangels in Deutschland (Qualifizierung bereits in Deutschland lebender Menschen, Anwerbung von  Fachkräften aus dem europäischen Ausland bzw. aus dem nicht-europäischen Ausland); Bewertung verschiedener  Maßnahmen zur Regelung der Zuwanderung zu Arbeits- und Ausbildungszwecken; Arbeitserlaubnis für qualifizierte Einwanderer in allen Berufen vs. nur in Berufen mit Engpass; Bewertung der geltenden Regelung zur Einreise von Arbeit suchenden Ausländern mit Hochschulabschluss; Befürwortung der Anwendung dieser Regelung auch für die Einreise von Ausländern mit einer anerkannten Berufsausbildung; erwartete Folgen des geplanten Fachkräfteeinwanderungsgesetzes (deutliche Abnahme des Fachkräftemangels, bessere Steuerung und Kontrolle der Einwanderung, wirtschaftliche Entwicklung Deutschlands wird profitieren, Stabilisierung der sozialen Sicherungssysteme, Wohlstandssicherung, Bereicherung des Lebens in Deutschland, Löhne werden deutlich sinken, zunehmende Konkurrenz auf dem Arbeitsmarkt, Verlust deutscher Kultur und Eigenart, weitere Parallelgesellschaften, zunehmende Kriminalität, steigende Terrorgefahr, kulturelle Konflikte);  persönlicher Kontakt zu nicht in Deutschland geborenen Personen am Arbeitsplatz, im Freundeskreis, in der Nachbarschaft und in der Familie; Gefühl in der Gesellschaft eher bevorzugt, eher benachteiligt oder angemessen behandelt zu werden; Parteipräferenz.\nDemographie: Geschlecht; Alter; Bildung ; Berufstätigkeit; berufliche Stellung; Familienstand; Haushaltsgröße; Anzahl der Personen im Haushalt ab 18 Jahren; Migrationshintergrund; Haushaltsnettoeinkommen.\nZusätzlich verkodet wurde: Befragten ID; Bundesland; Ortsgröße; Gewichtungsfaktor.",
    "en" : "Attitudes towards immigration in general, integration and immigration of skilled workers.\nAttitude towards immigration in general: attitude towards immigration in Germany (scale); significance of immigration policy; satisfaction with the immigration policy of the Federal Government with regard to: concerns of the population, clarification of objectives and measures of immigration policy, integration efforts into German society and the labour market, European solution for immigration to Europe as well as immigration policy in general; important criterion for immigration (e.g. occupation in demand in Germany, family members in Germany, political persecution in the home country, university degree, no delinquency in the home country, good knowledge of German, etc.); policy options for managing and controlling immigration; dealing with rejected asylum seekers or with asylum seekers who have committed crimes (deportation vs. toleration under certain conditions, split-half).\nAttitude towards integration: assessment of the coexistence of Germans and immigrants; frequency of various reasons for immigration to Germany (civil war in the home country, lack of prospects, good social security systems in Germany, hope for more money, unemployment, persecution in the home country for political or religious reasons, famine or natural disaster in the home country, part of the family lives in Germany, favours on the country and people in Germany).\nImmigration of skilled workers: opinion on the immigration of highly qualified skilled workers from abroad (allow immigration of skilled workers if no one can be found in Germany vs. qualification of the unemployed); assessment of the shortage of skilled workers in Germany; shortage of skilled workers as a task for companies or politicians; areas with a shortage of skilled workers in Germany (nursing, medicine, the computer sector/ digital sector, crafts, industry, gastronomy, tourism, retail trade , others - open); importance of various measures to combat the shortage of skilled workers in Germany (qualification of people already living in Germany, recruitment of skilled workers from other European countries or from non-European countries); evaluation of various measures to regulate immigration for work and training purposes; work permits for qualified immigrants in all occupations vs. only in occupations with a bottleneck; evaluation of the current regulation on the entry of foreigners with a university degree seeking employment; advocacy of the application of this regulation also for the entry of foreigners with recognised vocational training; expected consequences of the planned Immigration Act for skilled workers (significant reduction in the shortage of skilled workers, better management and control of immigration, Germany´s economic development will benefit, stabilisation of social security systems, securing prosperity, enrichment of life in Germany, wages will fall significantly, increasing competition on the labour market, loss of German culture and idiosyncrasy, further parallel societies, increasing crime, increasing danger of terrorism, cultural conflicts); personal contact with people not born in Germany at work, in the circle of friends, in the neighbourhood and in the family; feeling in society rather preferred, rather disadvantaged or appropriately treated; party preference.\nDemography: sex; age; education; occupation; occupational status; marital status; household size; number of persons in the household aged 18 and over; migration background; net household income.\nAdditionally coded was: respondent ID; federal state; local size; weighting factor."
  },
  "availability" : {
    "availabilityType" : "Download",
    "embargoDate" : "",
    "label" : [ {
      "pref" : "0 - Daten und Dokumente sind für jedermann freigegeben.",
      "de" : "0 - Daten und Dokumente sind für jedermann freigegeben.",
      "en" : "0 - Data and documents are released for everybody."
    } ]
  },
  "collectionModes" : [ {
    "type" : "Interview.Telephone.CATI"
  } ],
  "contributions" : [ {
    "type" : [ "Creator" ],
    "agent" : {
      "type" : [ "Institution" ],
      "uri" : "info:searchapp/vocab/adhoc/UHJlc3NlLSB1bmQgSW5mb3JtYXRpb25zYW10IGRlciBCdW5kZXNyZWdpZXJ1bmc=",
      "label" : "Presse- und Informationsamt der Bundesregierung"
    },
    "role" : [ ]
  } ],
  "describedBy" : {
    "uri" : "https://git.gesis.org/datorium/dbk-oai-dprex-set-data/oai.dbk.gesis.org.DBK.ZA6722",
    "type" : "ResearchData",
    "modifiedBy" : {
      "uri" : "https://searchapp-indexer",
      "label" : {
        "pref" : "Searchapp Indexer"
      },
      "dateCreated" : "2024-06-21T05:26:25.473+02:00",
      "dateModified" : "2024-06-21T05:26:25.473+02:00",
      "inDataset" : {
        "uri" : "https://dbkapps.gesis.org/dbkoai/?verb=ListIdentifiers&metadataPrefix=oai_dara&set=DPREX"
      },
      "resultOf" : {
        "type" : [ "CreateAction" ],
        "endTime" : "2024-06-21T05:26:25.473+02:00",
        "instrument" : {
          "uri" : "https://git.gesis.org/datorium/searchapp-indexer",
          "type" : [ "SoftwareApplication" ],
          "label" : "Searchapp Indexer"
        },
        "srcObject" : {
          "uri" : "https://dbkapps.gesis.org/dbkoai/?verb=GetRecord&metadataPrefix=oai_dara&identifier=oai:dbk.gesis.org:DBK/ZA6722",
          "type" : [ "DataFeedItem" ],
          "inDataset" : {
            "uri" : "https://dbkapps.gesis.org/dbkoai/?verb=ListIdentifiers&metadataPrefix=oai_dara&set=DPREX",
            "label" : "DBK_OAI"
          }
        }
      }
    }
  },
  "documentId" : "oai.dbk.gesis.org.DBK.ZA6722",
  "dprexConcepts" : [ {
    "type" : [ "SubjectHeading" ],
    "uri" : "info:searchapp/vocab/adhoc/QXNzaW1pbGF0aW9u",
    "notation" : "",
    "source" : {
      "uri" : "info:searchapp/vocab/adhoc/cmV4Y29uY2VwdHMvMS40LjA=",
      "label" : "rexconcepts/1.4.0"
    },
    "label" : {
      "pref" : "Assimilation",
      "de" : "Assimilation",
      "en" : "Assimilation"
    }
  }, {
    "type" : [ "SubjectHeading" ],
    "uri" : "info:searchapp/vocab/adhoc/RWluYsO8cmdlcnVuZ3NtYcOfbmFobWVu",
    "notation" : "",
    "source" : {
      "uri" : "info:searchapp/vocab/adhoc/cmV4Y29uY2VwdHMvMS40LjA=",
      "label" : "rexconcepts/1.4.0"
    },
    "label" : {
      "pref" : "Einbürgerungsmaßnahmen",
      "de" : "Einbürgerungsmaßnahmen",
      "en" : "Naturalisation measures"
    }
  }, {
    "type" : [ "SubjectHeading" ],
    "uri" : "info:searchapp/vocab/adhoc/Rmx1Y2h0Z3J1bmQ=",
    "notation" : "",
    "source" : {
      "uri" : "info:searchapp/vocab/adhoc/cmV4Y29uY2VwdHMvMS40LjA=",
      "label" : "rexconcepts/1.4.0"
    },
    "label" : {
      "pref" : "Fluchtgrund",
      "de" : "Fluchtgrund",
      "en" : "Reasons for fleeing a country"
    }
  }, {
    "type" : [ "SubjectHeading" ],
    "uri" : "info:searchapp/vocab/adhoc/RnJlbWRlbmZlaW5kbGljaGtlaXQ=",
    "notation" : "",
    "source" : {
      "uri" : "info:searchapp/vocab/adhoc/cmV4Y29uY2VwdHMvMS40LjA=",
      "label" : "rexconcepts/1.4.0"
    },
    "label" : {
      "pref" : "Fremdenfeindlichkeit",
      "de" : "Fremdenfeindlichkeit",
      "en" : "Xenophobia"
    }
  }, {
    "type" : [ "SubjectHeading" ],
    "uri" : "info:searchapp/vocab/adhoc/SW50ZWdyYXRpb24=",
    "notation" : "",
    "source" : {
      "uri" : "info:searchapp/vocab/adhoc/cmV4Y29uY2VwdHMvMS40LjA=",
      "label" : "rexconcepts/1.4.0"
    },
    "label" : {
      "pref" : "Integration",
      "de" : "Integration",
      "en" : "Integration"
    }
  }, {
    "type" : [ "SubjectHeading" ],
    "uri" : "info:searchapp/vocab/adhoc/SW50ZXJncnVwcGVua29udGFrdA==",
    "notation" : "",
    "source" : {
      "uri" : "info:searchapp/vocab/adhoc/cmV4Y29uY2VwdHMvMS40LjA=",
      "label" : "rexconcepts/1.4.0"
    },
    "label" : {
      "pref" : "Intergruppenkontakt",
      "de" : "Intergruppenkontakt",
      "en" : "Intergroup contact"
    }
  }, {
    "type" : [ "SubjectHeading" ],
    "uri" : "info:searchapp/vocab/adhoc/S3JpbWluYWxpdMOkdA==",
    "notation" : "",
    "source" : {
      "uri" : "info:searchapp/vocab/adhoc/cmV4Y29uY2VwdHMvMS40LjA=",
      "label" : "rexconcepts/1.4.0"
    },
    "label" : {
      "pref" : "Kriminalität",
      "de" : "Kriminalität",
      "en" : "Criminality"
    }
  }, {
    "type" : [ "SubjectHeading" ],
    "uri" : "info:searchapp/vocab/adhoc/TWlncmF0aW9uc3BvbGl0aWs=",
    "notation" : "",
    "source" : {
      "uri" : "info:searchapp/vocab/adhoc/cmV4Y29uY2VwdHMvMS40LjA=",
      "label" : "rexconcepts/1.4.0"
    },
    "label" : {
      "pref" : "Migrationspolitik",
      "de" : "Migrationspolitik",
      "en" : "Migration policy"
    }
  }, {
    "type" : [ "SubjectHeading" ],
    "uri" : "info:searchapp/vocab/adhoc/UmVhbGlzdGlzY2hlIEJlZHJvaHVuZ3N3YWhybmVobXVuZ2Vu",
    "notation" : "",
    "source" : {
      "uri" : "info:searchapp/vocab/adhoc/cmV4Y29uY2VwdHMvMS40LjA=",
      "label" : "rexconcepts/1.4.0"
    },
    "label" : {
      "pref" : "Realistische Bedrohungswahrnehmungen",
      "de" : "Realistische Bedrohungswahrnehmungen",
      "en" : "Realistic threat perceptions"
    }
  }, {
    "type" : [ "SubjectHeading" ],
    "uri" : "info:searchapp/vocab/adhoc/U3ByYWNoZGlza3JpbWluaWVydW5n",
    "notation" : "",
    "source" : {
      "uri" : "info:searchapp/vocab/adhoc/cmV4Y29uY2VwdHMvMS40LjA=",
      "label" : "rexconcepts/1.4.0"
    },
    "label" : {
      "pref" : "Sprachdiskriminierung",
      "de" : "Sprachdiskriminierung",
      "en" : "Language discrimination"
    }
  }, {
    "type" : [ "SubjectHeading" ],
    "uri" : "info:searchapp/vocab/adhoc/U3ltYm9saXNjaGUgQmVkcm9odW5nc3dhaHJuZWhtdW5nZW4=",
    "notation" : "",
    "source" : {
      "uri" : "info:searchapp/vocab/adhoc/cmV4Y29uY2VwdHMvMS40LjA=",
      "label" : "rexconcepts/1.4.0"
    },
    "label" : {
      "pref" : "Symbolische Bedrohungswahrnehmungen",
      "de" : "Symbolische Bedrohungswahrnehmungen",
      "en" : "Symbolic threat perceptions"
    }
  }, {
    "type" : [ "SubjectHeading" ],
    "uri" : "info:searchapp/vocab/adhoc/VGVycm9yaXNtdXM=",
    "notation" : "",
    "source" : {
      "uri" : "info:searchapp/vocab/adhoc/cmV4Y29uY2VwdHMvMS40LjA=",
      "label" : "rexconcepts/1.4.0"
    },
    "label" : {
      "pref" : "Terrorismus",
      "de" : "Terrorismus",
      "en" : "Terrorism"
    }
  } ],
  "dprexGroups" : [ {
    "type" : [ "SubjectHeading" ],
    "uri" : "info:searchapp/vocab/adhoc/TWlncmF0aW9uc2dlc2NoaWNodGU=",
    "notation" : "",
    "source" : {
      "uri" : "info:searchapp/vocab/adhoc/cmV4Z3JvdXBzLzEuMy4w",
      "label" : "rexgroups/1.3.0"
    },
    "label" : {
      "pref" : "Migrationsgeschichte",
      "de" : "Migrationsgeschichte",
      "en" : "Migrationsgeschichte"
    }
  }, {
    "type" : [ "SubjectHeading" ],
    "uri" : "info:searchapp/vocab/adhoc/T3N0LURldXRzY2hsYW5k",
    "notation" : "",
    "source" : {
      "uri" : "info:searchapp/vocab/adhoc/cmV4Z3JvdXBzLzEuMy4w",
      "label" : "rexgroups/1.3.0"
    },
    "label" : {
      "pref" : "Ost-Deutschland",
      "de" : "Ost-Deutschland",
      "en" : "Ost-Deutschland"
    }
  }, {
    "type" : [ "SubjectHeading" ],
    "uri" : "info:searchapp/vocab/adhoc/V2VzdC1EZXV0c2NobGFuZA==",
    "notation" : "",
    "source" : {
      "uri" : "info:searchapp/vocab/adhoc/cmV4Z3JvdXBzLzEuMy4w",
      "label" : "rexgroups/1.3.0"
    },
    "label" : {
      "pref" : "West-Deutschland",
      "de" : "West-Deutschland",
      "en" : "West-Deutschland"
    }
  } ],
  "dprexTypes" : [ {
    "type" : [ "SubjectHeading" ],
    "uri" : "info:searchapp/vocab/adhoc/VW1mcmFnZWRhdGVu",
    "notation" : "",
    "source" : {
      "uri" : "info:searchapp/vocab/adhoc/cmV4ZGF0YXR5cGUvMS4xLjE=",
      "label" : "rexdatatype/1.1.1"
    },
    "label" : {
      "pref" : "Umfragedaten",
      "de" : "Umfragedaten",
      "en" : "Umfragedaten"
    }
  } ],
  "geographicCoverages" : [ {
    "geographicCoverageControlled" : "DE"
  } ],
  "handles" : [ {
    "type" : "DOI",
    "notation" : "10.4232/1.13303",
    "url" : "https://doi.org/10.4232/1.13303",
    "source" : {
      "uri" : "https://www.da-ra.de/",
      "label" : "DARA"
    }
  } ],
  "natureOfContents" : [ {
    "uri" : "info:searchapp/vocab/Dataset",
    "label" : {
      "pref" : "Dataset",
      "de" : "Dataset",
      "en" : "Dataset"
    }
  } ],
  "publications" : [ {
    "type" : [ "PublicationEvent" ],
    "startDate" : "2019"
  } ],
  "resourceLanguage" : "deu",
  "rights" : {
    "licenseType" : "",
    "label" : {
      "pref" : "Alle im GESIS DBK veröffentlichten Metadaten sind frei verfügbar unter den Creative Commons CC0 1.0 Universal Public Domain Dedication. GESIS bittet jedoch darum, dass Sie alle Metadatenquellen anerkennen und sie nennen, etwa die Datengeber oder jeglichen Aggregator, inklusive GESIS selbst. Für weitere Informationen siehe https://dbk.gesis.org/dbksearch/guidelines.asp?db=d",
      "de" : "Alle im GESIS DBK veröffentlichten Metadaten sind frei verfügbar unter den Creative Commons CC0 1.0 Universal Public Domain Dedication. GESIS bittet jedoch darum, dass Sie alle Metadatenquellen anerkennen und sie nennen, etwa die Datengeber oder jeglichen Aggregator, inklusive GESIS selbst. Für weitere Informationen siehe https://dbk.gesis.org/dbksearch/guidelines.asp?db=d",
      "en" : "All metadata from GESIS DBK are available free of restriction under the Creative Commons CC0 1.0 Universal Public Domain Dedication. However, GESIS requests that you actively acknowledge and give attribution to all metadata sources, such as the data providers and any data aggregators, including GESIS. For further information see https://dbk.gesis.org/dbksearch/guidelines.asp"
    }
  },
  "sampling" : {
    "method" : {
      "pref" : "Wahrscheinlichkeitsauswahl: Mehrstufige Zufallsauswahl",
      "de" : "Wahrscheinlichkeitsauswahl: Mehrstufige Zufallsauswahl",
      "en" : "Probability: Multistage"
    }
  },
  "subjects" : [ {
    "type" : [ "SubjectHeading" ],
    "uri" : "info:searchapp/vocab/adhoc/TWlncmF0aW9u",
    "notation" : "",
    "source" : {
      "uri" : "info:searchapp/vocab/adhoc/Q0VTU0RBIFRvcGljIENsYXNzaWZpY2F0aW9u",
      "label" : "CESSDA Topic Classification"
    },
    "label" : {
      "pref" : "Migration",
      "de" : "Migration",
      "en" : "Migration"
    }
  }, {
    "type" : [ "SubjectHeading" ],
    "uri" : "info:searchapp/vocab/adhoc/UmVnaWVydW5nLCBwb2xpdGlzY2hlIFN5c3RlbWUsIFBhcnRlaWVuIHVuZCBPcmdhbmlzYXRpb25lbg==",
    "notation" : "",
    "source" : {
      "uri" : "info:searchapp/vocab/adhoc/Q0VTU0RBIFRvcGljIENsYXNzaWZpY2F0aW9u",
      "label" : "CESSDA Topic Classification"
    },
    "label" : {
      "pref" : "Regierung, politische Systeme, Parteien und Organisationen",
      "de" : "Regierung, politische Systeme, Parteien und Organisationen",
      "en" : "Government, political systems and organisations"
    }
  }, {
    "type" : [ "SubjectHeading" ],
    "uri" : "info:searchapp/vocab/adhoc/UG9saXRpc2NoZXMgVmVyaGFsdGVuIHVuZCBwb2xpdGlzY2hlIEVpbnN0ZWxsdW5nZW4=",
    "notation" : "",
    "source" : {
      "uri" : "info:searchapp/vocab/adhoc/Q0VTU0RBIFRvcGljIENsYXNzaWZpY2F0aW9u",
      "label" : "CESSDA Topic Classification"
    },
    "label" : {
      "pref" : "Politisches Verhalten und politische Einstellungen",
      "de" : "Politisches Verhalten und politische Einstellungen",
      "en" : "Political behaviour and attitudes"
    }
  }, {
    "type" : [ "SubjectHeading" ],
    "uri" : "info:searchapp/vocab/adhoc/TWluZGVyaGVpdGVu",
    "notation" : "",
    "source" : {
      "uri" : "info:searchapp/vocab/adhoc/Q0VTU0RBIFRvcGljIENsYXNzaWZpY2F0aW9u",
      "label" : "CESSDA Topic Classification"
    },
    "label" : {
      "pref" : "Minderheiten",
      "de" : "Minderheiten",
      "en" : "Minorities"
    }
  }, {
    "type" : [ "SubjectHeading" ],
    "uri" : "info:searchapp/vocab/adhoc/RnJlbWRlbmZlaW5kbGljaGtlaXQ=",
    "notation" : "",
    "source" : {
      "uri" : "info:searchapp/vocab/adhoc/cmV4Y29uY2VwdHMvMS40LjA=",
      "label" : "rexconcepts/1.4.0"
    },
    "label" : {
      "pref" : "Fremdenfeindlichkeit",
      "de" : "Fremdenfeindlichkeit",
      "en" : "Xenophobia"
    }
  }, {
    "type" : [ "SubjectHeading" ],
    "uri" : "info:searchapp/vocab/adhoc/U3ByYWNoZGlza3JpbWluaWVydW5n",
    "notation" : "",
    "source" : {
      "uri" : "info:searchapp/vocab/adhoc/cmV4Y29uY2VwdHMvMS40LjA=",
      "label" : "rexconcepts/1.4.0"
    },
    "label" : {
      "pref" : "Sprachdiskriminierung",
      "de" : "Sprachdiskriminierung",
      "en" : "Language discrimination"
    }
  }, {
    "type" : [ "SubjectHeading" ],
    "uri" : "info:searchapp/vocab/adhoc/VGVycm9yaXNtdXM=",
    "notation" : "",
    "source" : {
      "uri" : "info:searchapp/vocab/adhoc/cmV4Y29uY2VwdHMvMS40LjA=",
      "label" : "rexconcepts/1.4.0"
    },
    "label" : {
      "pref" : "Terrorismus",
      "de" : "Terrorismus",
      "en" : "Terrorism"
    }
  }, {
    "type" : [ "SubjectHeading" ],
    "uri" : "info:searchapp/vocab/adhoc/S3JpbWluYWxpdMOkdA==",
    "notation" : "",
    "source" : {
      "uri" : "info:searchapp/vocab/adhoc/cmV4Y29uY2VwdHMvMS40LjA=",
      "label" : "rexconcepts/1.4.0"
    },
    "label" : {
      "pref" : "Kriminalität",
      "de" : "Kriminalität",
      "en" : "Criminality"
    }
  }, {
    "type" : [ "SubjectHeading" ],
    "uri" : "info:searchapp/vocab/adhoc/TWlncmF0aW9uc3BvbGl0aWs=",
    "notation" : "",
    "source" : {
      "uri" : "info:searchapp/vocab/adhoc/cmV4Y29uY2VwdHMvMS40LjA=",
      "label" : "rexconcepts/1.4.0"
    },
    "label" : {
      "pref" : "Migrationspolitik",
      "de" : "Migrationspolitik",
      "en" : "Migration policy"
    }
  }, {
    "type" : [ "SubjectHeading" ],
    "uri" : "info:searchapp/vocab/adhoc/RWluYsO8cmdlcnVuZ3NtYcOfbmFobWVu",
    "notation" : "",
    "source" : {
      "uri" : "info:searchapp/vocab/adhoc/cmV4Y29uY2VwdHMvMS40LjA=",
      "label" : "rexconcepts/1.4.0"
    },
    "label" : {
      "pref" : "Einbürgerungsmaßnahmen",
      "de" : "Einbürgerungsmaßnahmen",
      "en" : "Naturalisation measures"
    }
  }, {
    "type" : [ "SubjectHeading" ],
    "uri" : "info:searchapp/vocab/adhoc/Rmx1Y2h0Z3J1bmQ=",
    "notation" : "",
    "source" : {
      "uri" : "info:searchapp/vocab/adhoc/cmV4Y29uY2VwdHMvMS40LjA=",
      "label" : "rexconcepts/1.4.0"
    },
    "label" : {
      "pref" : "Fluchtgrund",
      "de" : "Fluchtgrund",
      "en" : "Reasons for fleeing a country"
    }
  }, {
    "type" : [ "SubjectHeading" ],
    "uri" : "info:searchapp/vocab/adhoc/SW50ZXJncnVwcGVua29udGFrdA==",
    "notation" : "",
    "source" : {
      "uri" : "info:searchapp/vocab/adhoc/cmV4Y29uY2VwdHMvMS40LjA=",
      "label" : "rexconcepts/1.4.0"
    },
    "label" : {
      "pref" : "Intergruppenkontakt",
      "de" : "Intergruppenkontakt",
      "en" : "Intergroup contact"
    }
  }, {
    "type" : [ "SubjectHeading" ],
    "uri" : "info:searchapp/vocab/adhoc/SW50ZWdyYXRpb24=",
    "notation" : "",
    "source" : {
      "uri" : "info:searchapp/vocab/adhoc/cmV4Y29uY2VwdHMvMS40LjA=",
      "label" : "rexconcepts/1.4.0"
    },
    "label" : {
      "pref" : "Integration",
      "de" : "Integration",
      "en" : "Integration"
    }
  }, {
    "type" : [ "SubjectHeading" ],
    "uri" : "info:searchapp/vocab/adhoc/QXNzaW1pbGF0aW9u",
    "notation" : "",
    "source" : {
      "uri" : "info:searchapp/vocab/adhoc/cmV4Y29uY2VwdHMvMS40LjA=",
      "label" : "rexconcepts/1.4.0"
    },
    "label" : {
      "pref" : "Assimilation",
      "de" : "Assimilation",
      "en" : "Assimilation"
    }
  }, {
    "type" : [ "SubjectHeading" ],
    "uri" : "info:searchapp/vocab/adhoc/UmVhbGlzdGlzY2hlIEJlZHJvaHVuZ3N3YWhybmVobXVuZ2Vu",
    "notation" : "",
    "source" : {
      "uri" : "info:searchapp/vocab/adhoc/cmV4Y29uY2VwdHMvMS40LjA=",
      "label" : "rexconcepts/1.4.0"
    },
    "label" : {
      "pref" : "Realistische Bedrohungswahrnehmungen",
      "de" : "Realistische Bedrohungswahrnehmungen",
      "en" : "Realistic threat perceptions"
    }
  }, {
    "type" : [ "SubjectHeading" ],
    "uri" : "info:searchapp/vocab/adhoc/U3ltYm9saXNjaGUgQmVkcm9odW5nc3dhaHJuZWhtdW5nZW4=",
    "notation" : "",
    "source" : {
      "uri" : "info:searchapp/vocab/adhoc/cmV4Y29uY2VwdHMvMS40LjA=",
      "label" : "rexconcepts/1.4.0"
    },
    "label" : {
      "pref" : "Symbolische Bedrohungswahrnehmungen",
      "de" : "Symbolische Bedrohungswahrnehmungen",
      "en" : "Symbolic threat perceptions"
    }
  }, {
    "type" : [ "SubjectHeading" ],
    "uri" : "info:searchapp/vocab/adhoc/TWlncmF0aW9uc2dlc2NoaWNodGU=",
    "notation" : "",
    "source" : {
      "uri" : "info:searchapp/vocab/adhoc/cmV4Z3JvdXBzLzEuMy4w",
      "label" : "rexgroups/1.3.0"
    },
    "label" : {
      "pref" : "Migrationsgeschichte",
      "de" : "Migrationsgeschichte",
      "en" : "Migrationsgeschichte"
    }
  }, {
    "type" : [ "SubjectHeading" ],
    "uri" : "info:searchapp/vocab/adhoc/T3N0LURldXRzY2hsYW5k",
    "notation" : "",
    "source" : {
      "uri" : "info:searchapp/vocab/adhoc/cmV4Z3JvdXBzLzEuMy4w",
      "label" : "rexgroups/1.3.0"
    },
    "label" : {
      "pref" : "Ost-Deutschland",
      "de" : "Ost-Deutschland",
      "en" : "Ost-Deutschland"
    }
  }, {
    "type" : [ "SubjectHeading" ],
    "uri" : "info:searchapp/vocab/adhoc/V2VzdC1EZXV0c2NobGFuZA==",
    "notation" : "",
    "source" : {
      "uri" : "info:searchapp/vocab/adhoc/cmV4Z3JvdXBzLzEuMy4w",
      "label" : "rexgroups/1.3.0"
    },
    "label" : {
      "pref" : "West-Deutschland",
      "de" : "West-Deutschland",
      "en" : "West-Deutschland"
    }
  }, {
    "type" : [ "SubjectHeading" ],
    "uri" : "info:searchapp/vocab/adhoc/VW1mcmFnZWRhdGVu",
    "notation" : "",
    "source" : {
      "uri" : "info:searchapp/vocab/adhoc/cmV4ZGF0YXR5cGUvMS4xLjE=",
      "label" : "rexdatatype/1.1.1"
    },
    "label" : {
      "pref" : "Umfragedaten",
      "de" : "Umfragedaten",
      "en" : "Umfragedaten"
    }
  } ],
  "temporalCoverages" : [ {
    "startDate" : "2018-11-02",
    "endDate" : "2018-11-17",
    "labels" : [ ]
  } ],
  "timeDimensions" : [ {
    "timeDimensionType" : "CrossSection"
  } ],
  "title" : {
    "pref" : "Fachkräfteeinwanderung",
    "de" : "Fachkräfteeinwanderung",
    "en" : "Immigration of Skilled Workers"
  },
  "universe" : {
    "sampled" : {
      "pref" : "Deutschsprachige Bevölkerung ab 18 Jahren",
      "de" : "Deutschsprachige Bevölkerung ab 18 Jahren",
      "en" : "Resident population aged 18 and over in private households"
    }
  },
  "uri" : "https://doi.org/10.4232/1.13303",
  "searchappPublisher" : {
    "shortName" : "GESIS",
    "name" : {
      "de" : "GESIS - Leibniz Institut für Sozialwissenschaften",
      "en" : "GESIS - Leibniz Institute for the Social Sciences"
    },
    "url" : "https://www.gesis.org/"
  },
  "calculatedTemporalCoverage" : {
    "label" : "2018",
    "dates" : [ "2018" ]
  }
}
