{
  "abstract" : {
    "pref" : "Beschreibung der eigenen Arbeits- und Lebensbedingungen undEinreisegründe nach Deutschland. Wahrnehmung der eigenenLandsleute und Fremdbild von den Deutschen. Perzipierte Gründefür Integrationsschwierigkeiten.\nThemen: Die Befragung der ausländischen Arbeitnehmer wurde mitidentischen Fragen wie bei der ZA-Studien-Nr. 1043 durchgeführt.Neben dem identischen Befragungsteil wurden folgende Fragenzusätzlich gestellt: Herkunftsland; Ausbildung im Herkunftsland;Gründe für die Einreise nach Deutschland und Informationen überdie Arbeits- und Lebensbedingungen vor der Einreise in die BRD;geplante Aufenthaltsdauer vor Einreise in die BRD; Entsprechungvon Vorstellungen und Tatsachen über die BRD; Zufriedenheit mitder Wohnsituation und den Lebensverhältnissen nach der Ankunft;Beschreibung der Charakteristika der ersten beruflichenTätigkeit in der BRD (Skala); Zufriedenheit mit dieser Tätigkeit;Entwicklung der Kontakte zu den Landsleuten in der BRD; geplanteVerweildauer; Gründe für den gegenwärtigen Aufenthalt in derBRD; ethnische Infrastruktureinrichtungen in der Wohngegend;Interesse am Erwerb der deutschen Staatsangehörigkeit;Beurteilung der eigenen Deutschkenntnisse; Gefühl der nationalenIdentität.\nDemographie: Geschlecht; Geburtsjahr; Schulbildung; Berufsausbildung;berufliche Position; Berufstätigkeit; soziale Herkunft; Einkommen;Familienstand; Nationalität des Ehepartners; Berufstätigkeit undberufliche Position des Ehepartners.",
    "de" : "Beschreibung der eigenen Arbeits- und Lebensbedingungen undEinreisegründe nach Deutschland. Wahrnehmung der eigenenLandsleute und Fremdbild von den Deutschen. Perzipierte Gründefür Integrationsschwierigkeiten.\nThemen: Die Befragung der ausländischen Arbeitnehmer wurde mitidentischen Fragen wie bei der ZA-Studien-Nr. 1043 durchgeführt.Neben dem identischen Befragungsteil wurden folgende Fragenzusätzlich gestellt: Herkunftsland; Ausbildung im Herkunftsland;Gründe für die Einreise nach Deutschland und Informationen überdie Arbeits- und Lebensbedingungen vor der Einreise in die BRD;geplante Aufenthaltsdauer vor Einreise in die BRD; Entsprechungvon Vorstellungen und Tatsachen über die BRD; Zufriedenheit mitder Wohnsituation und den Lebensverhältnissen nach der Ankunft;Beschreibung der Charakteristika der ersten beruflichenTätigkeit in der BRD (Skala); Zufriedenheit mit dieser Tätigkeit;Entwicklung der Kontakte zu den Landsleuten in der BRD; geplanteVerweildauer; Gründe für den gegenwärtigen Aufenthalt in derBRD; ethnische Infrastruktureinrichtungen in der Wohngegend;Interesse am Erwerb der deutschen Staatsangehörigkeit;Beurteilung der eigenen Deutschkenntnisse; Gefühl der nationalenIdentität.\nDemographie: Geschlecht; Geburtsjahr; Schulbildung; Berufsausbildung;berufliche Position; Berufstätigkeit; soziale Herkunft; Einkommen;Familienstand; Nationalität des Ehepartners; Berufstätigkeit undberufliche Position des Ehepartners.",
    "en" : "Description of one´s own working and living conditions and reasons tomove to Germany. Perception of one´s own countrymen and third-partyimage of the Germans. Perceived reasons for integration difficulties.\nTopics: The survey of foreign workers was conducted with questionsidentical to ZA Study No. 1043.\nBesides the identical part of the survey the following additionalquestions were posed: country of origin; training in country of origin;reasons for moving to Germany and information about working and livingconditions before moving to the FRG; planned length of stay beforemoving to the FRG; correspondence of concepts and facts about the FRG;satisfaction with housing situation and living conditions afterarrival; description of characteristics of first occupational activityin the FRG (scale); satisfaction with this activity; development ofcontacts with countrymen in the FRG; planned length of stay; reasonsfor current stay in the FRG; ethnic infrastructure facilities inresidential area; interest in acquisition of German citizenship;judgement on one´s own knowledge of German; feeling of nationalidentity.\nDemography: sex; year of birth; school education; vocational training;occupational position; employment; social origins; income; maritalstatus; nationality of spouse; employment and occupational position ofspouse."
  },
  "availability" : {
    "availabilityType" : "Delivery",
    "embargoDate" : "",
    "label" : [ {
      "pref" : "C - Daten und Dokumente sind für die akademische Forschung und Lehre nur nach schriftlicher Genehmigung des Datengebers zugänglich. Das Datenarchiv holt dazu schriftlich die Genehmigung unter Angabe des Benutzers und des Auswertungszweckes ein.",
      "de" : "C - Daten und Dokumente sind für die akademische Forschung und Lehre nur nach schriftlicher Genehmigung des Datengebers zugänglich. Das Datenarchiv holt dazu schriftlich die Genehmigung unter Angabe des Benutzers und des Auswertungszweckes ein.",
      "en" : "C - Data and documents are only released for academic research and teaching after the data depositor’s written authorization. For this purpose the Data Archive obtains a written permission with specification of the user and the analysis intention."
    } ]
  },
  "collectionModes" : [ {
    "label" : {
      "pref" : "Mündliche Befragung mit standardisiertem Fragebogen",
      "de" : "Mündliche Befragung mit standardisiertem Fragebogen",
      "en" : "Oral survey with standardized questionnaire"
    }
  } ],
  "contributions" : [ {
    "type" : [ "Creator" ],
    "agent" : {
      "type" : [ "Person" ],
      "uri" : "info:searchapp/vocab/adhoc/RXNzZXIsIEhhcnRtdXQ=",
      "label" : "Esser, Hartmut",
      "affiliation" : {
        "uri" : "info:searchapp/vocab/adhoc/SW5zdGl0dXQgZsO8ciBBcmJlaXRzc296aW9sb2dpZSB1bmQgQXJiZWl0c3BvbGl0aWssClJ1aHItVW5pdmVyc2l0w6R0IEJvY2h1bQ==",
        "label" : {
          "pref" : "Institut für Arbeitssoziologie und Arbeitspolitik,\nRuhr-Universität Bochum",
          "de" : "Institut für Arbeitssoziologie und Arbeitspolitik,\nRuhr-Universität Bochum",
          "en" : "Institut für Arbeitssoziologie und Arbeitspolitik,\nRuhr-Universität Bochum"
        }
      }
    },
    "role" : [ ]
  } ],
  "describedBy" : {
    "uri" : "https://git.gesis.org/datorium/dbk-oai-dprex-set-data/oai.dbk.gesis.org.DBK.ZA1044",
    "type" : "ResearchData",
    "modifiedBy" : {
      "uri" : "https://searchapp-indexer",
      "label" : {
        "pref" : "Searchapp Indexer"
      },
      "dateCreated" : "2024-06-21T05:26:27.378+02:00",
      "dateModified" : "2024-06-21T05:26:27.378+02:00",
      "inDataset" : {
        "uri" : "https://dbkapps.gesis.org/dbkoai/?verb=ListIdentifiers&metadataPrefix=oai_dara&set=DPREX"
      },
      "resultOf" : {
        "type" : [ "CreateAction" ],
        "endTime" : "2024-06-21T05:26:27.378+02:00",
        "instrument" : {
          "uri" : "https://git.gesis.org/datorium/searchapp-indexer",
          "type" : [ "SoftwareApplication" ],
          "label" : "Searchapp Indexer"
        },
        "srcObject" : {
          "uri" : "https://dbkapps.gesis.org/dbkoai/?verb=GetRecord&metadataPrefix=oai_dara&identifier=oai:dbk.gesis.org:DBK/ZA1044",
          "type" : [ "DataFeedItem" ],
          "inDataset" : {
            "uri" : "https://dbkapps.gesis.org/dbkoai/?verb=ListIdentifiers&metadataPrefix=oai_dara&set=DPREX",
            "label" : "DBK_OAI"
          }
        }
      }
    }
  },
  "documentId" : "oai.dbk.gesis.org.DBK.ZA1044",
  "geographicCoverages" : [ {
    "geographicCoveragesFree" : {
      "pref" : "ausgewählte Orte",
      "de" : "ausgewählte Orte",
      "en" : "selected cities"
    },
    "geographicCoverageControlled" : "DE"
  } ],
  "handles" : [ {
    "type" : "DOI",
    "notation" : "10.4232/1.1044",
    "url" : "https://doi.org/10.4232/1.1044",
    "source" : {
      "uri" : "https://www.da-ra.de/",
      "label" : "DARA"
    }
  } ],
  "natureOfContents" : [ {
    "uri" : "info:searchapp/vocab/Dataset",
    "label" : {
      "pref" : "Dataset",
      "de" : "Dataset",
      "en" : "Dataset"
    }
  } ],
  "publications" : [ {
    "type" : [ "PublicationEvent" ],
    "startDate" : "1977"
  } ],
  "resourceLanguage" : "deu",
  "rights" : {
    "licenseType" : "",
    "label" : {
      "pref" : "Alle im GESIS DBK veröffentlichten Metadaten sind frei verfügbar unter den Creative Commons CC0 1.0 Universal Public Domain Dedication. GESIS bittet jedoch darum, dass Sie alle Metadatenquellen anerkennen und sie nennen, etwa die Datengeber oder jeglichen Aggregator, inklusive GESIS selbst. Für weitere Informationen siehe https://dbk.gesis.org/dbksearch/guidelines.asp?db=d",
      "de" : "Alle im GESIS DBK veröffentlichten Metadaten sind frei verfügbar unter den Creative Commons CC0 1.0 Universal Public Domain Dedication. GESIS bittet jedoch darum, dass Sie alle Metadatenquellen anerkennen und sie nennen, etwa die Datengeber oder jeglichen Aggregator, inklusive GESIS selbst. Für weitere Informationen siehe https://dbk.gesis.org/dbksearch/guidelines.asp?db=d",
      "en" : "All metadata from GESIS DBK are available free of restriction under the Creative Commons CC0 1.0 Universal Public Domain Dedication. However, GESIS requests that you actively acknowledge and give attribution to all metadata sources, such as the data providers and any data aggregators, including GESIS. For further information see https://dbk.gesis.org/dbksearch/guidelines.asp"
    }
  },
  "sampling" : {
    "method" : {
      "pref" : "Auswahlverfahren Kommentar: Mehrstufig geschichtete Klumpenauswahl",
      "de" : "Auswahlverfahren Kommentar: Mehrstufig geschichtete Klumpenauswahl",
      "en" : "Sampling Procedure Comment: Multi-stage stratified cluster sample"
    }
  },
  "subjects" : [ {
    "type" : [ "SubjectHeading" ],
    "uri" : "info:searchapp/vocab/adhoc/QmVzY2jDpGZ0aWd1bmcgdW5kIEVyd2VyYnN0w6R0aWdrZWl0",
    "notation" : "",
    "source" : {
      "uri" : "info:searchapp/vocab/adhoc/Q0VTU0RBIFRvcGljIENsYXNzaWZpY2F0aW9u",
      "label" : "CESSDA Topic Classification"
    },
    "label" : {
      "pref" : "Beschäftigung und Erwerbstätigkeit",
      "de" : "Beschäftigung und Erwerbstätigkeit",
      "en" : "Employment"
    }
  }, {
    "type" : [ "SubjectHeading" ],
    "uri" : "info:searchapp/vocab/adhoc/TWlncmF0aW9u",
    "notation" : "",
    "source" : {
      "uri" : "info:searchapp/vocab/adhoc/Q0VTU0RBIFRvcGljIENsYXNzaWZpY2F0aW9u",
      "label" : "CESSDA Topic Classification"
    },
    "label" : {
      "pref" : "Migration",
      "de" : "Migration",
      "en" : "Migration"
    }
  }, {
    "type" : [ "SubjectHeading" ],
    "uri" : "info:searchapp/vocab/adhoc/S3VsdHVyZWxsZSB1bmQgbmF0aW9uYWxlIElkZW50aXTDpHQ=",
    "notation" : "",
    "source" : {
      "uri" : "info:searchapp/vocab/adhoc/Q0VTU0RBIFRvcGljIENsYXNzaWZpY2F0aW9u",
      "label" : "CESSDA Topic Classification"
    },
    "label" : {
      "pref" : "Kulturelle und nationale Identität",
      "de" : "Kulturelle und nationale Identität",
      "en" : "Cultural and national identity"
    }
  }, {
    "type" : [ "SubjectHeading" ],
    "uri" : "info:searchapp/vocab/adhoc/U296aWFsZSBMYWdlIHVuZCBzb3ppYWxlIEluZGlrYXRvcmVu",
    "notation" : "",
    "source" : {
      "uri" : "info:searchapp/vocab/adhoc/Q0VTU0RBIFRvcGljIENsYXNzaWZpY2F0aW9u",
      "label" : "CESSDA Topic Classification"
    },
    "label" : {
      "pref" : "Soziale Lage und soziale Indikatoren",
      "de" : "Soziale Lage und soziale Indikatoren",
      "en" : "Social conditions and indicators"
    }
  }, {
    "type" : [ "SubjectHeading" ],
    "uri" : "info:searchapp/vocab/adhoc/U296aWFsZXMgVmVyaGFsdGVuIHVuZCBzb3ppYWxlIEVpbnN0ZWxsdW5nZW4=",
    "notation" : "",
    "source" : {
      "uri" : "info:searchapp/vocab/adhoc/Q0VTU0RBIFRvcGljIENsYXNzaWZpY2F0aW9u",
      "label" : "CESSDA Topic Classification"
    },
    "label" : {
      "pref" : "Soziales Verhalten und soziale Einstellungen",
      "de" : "Soziales Verhalten und soziale Einstellungen",
      "en" : "Social behaviour and attitudes"
    }
  } ],
  "temporalCoverages" : [ {
    "startDate" : "1977-05",
    "endDate" : "1977-08",
    "labels" : [ ]
  } ],
  "timeDimensions" : [ {
    "timeDimensionType" : ""
  } ],
  "title" : {
    "pref" : "Soziale und kulturelle Bestimmungsgründe des Verhaltens\\nausländischer Arbeitnehmer in der Bundesrepublik Deutschland\\n(Hauptuntersuchung: Ausländer)",
    "de" : "Soziale und kulturelle Bestimmungsgründe des Verhaltens\\nausländischer Arbeitnehmer in der Bundesrepublik Deutschland\\n(Hauptuntersuchung: Ausländer)",
    "en" : "Social and Cultural Determinants of the Conduct of Foreign workers\\nin the Federal Republic of Germany\\n(Primary Investigation: Foreigners)"
  },
  "universe" : {
    "sampled" : {
      "pref" : "Deutsche Personen über 18 Jahre in 5 ausgewählten Arbeitsamtsbezirken in den\nStädten München, Kempten, Solingen, Bochum und Braunschweig",
      "de" : "Deutsche Personen über 18 Jahre in 5 ausgewählten Arbeitsamtsbezirken in den\nStädten München, Kempten, Solingen, Bochum und Braunschweig",
      "en" : "Foreign persons older than 18\nyears in 5 selected employment office districts of the cities Munich,\nKempten, Solingen, Bochum and Braunschweig."
    }
  },
  "uri" : "https://doi.org/10.4232/1.1044",
  "searchappPublisher" : {
    "shortName" : "GESIS",
    "name" : {
      "de" : "GESIS - Leibniz Institut für Sozialwissenschaften",
      "en" : "GESIS - Leibniz Institute for the Social Sciences"
    },
    "url" : "https://www.gesis.org/"
  },
  "calculatedTemporalCoverage" : {
    "label" : "1977",
    "dates" : [ "1977" ]
  }
}
