{
  "abstract" : {
    "pref" : "Die soziale und wirtschaftliche Situation der ausländischenArbeitnehmer in der Bundesrepublik.\nThemen: Derzeitige und beabsichtigte weitere Aufenthaltsdauerin der BRD; Geburtsort in Deutschland; Heimatbesuche in denletzten Jahren; geplanter Heimaturlaub in diesem Jahr; benutzteVerkehrsmittel beim Heimaturlaub; Familienangehörige in der BRD;Anzahl und Alter der Kinder aus der eigenen Familie, die inDeutschland leben; Haushaltsgröße; Anzahl der berufstätigenFamilienmitglieder; in der Heimat lebende Familienmitgliedersowie Anzahl und Alter der dort lebenden Kinder; Präferenz fürAusrichtung der Ausbildung in Schule und Beruf an denErfordernissen in Deutschland oder der Heimat; größte Sorgen undSchwierigkeiten in der Bundesrepublik; wahrgenommene Einstellung derDeutschen gegenüber Ausländern; Arbeitsplatzzufriedenheit;Interesse an der deutschen Staatsbürgerschaft; Parteipräferenz;monatliche Ausgaben für Lebensmittel und Dinge des täglichenBedarfs und Einkaufsstätte; Preisorientierung oder Markenorientierung;Selbsteinschätzung der sozialen Schicht.\nDemographie: Alter; Geschlecht; Familienstand; Schuljahre;Schulabschluss in der Heimat bzw. in Deutschland; höchsterSchulabschluss; genaue Berufsbezeichnung und Einordnung in Berufsgruppe;berufliche Position; Berufstätigkeit; abgeschlossene Berufsausbildung;Branche des Betriebes; monatliches Netto-Einkommen (klassiert);monatliches Netto-Haushaltseinkommen (klassiert); Wohnstatus; monatlicheMiete; Erhöhung der Miete bzw. der Nebenkosten; Zufriedenheit mit derWohnsituation; Selbsteinschätzung der eigenen Deutschkenntnisse;PKW-Besitz und Marke; Neu- bzw. Gebrauchtwagen; jährliche, mit einem PKWzurückgelegte Kilometerzahl.\nInterviewerrating: Ortsgröße; Bundesland; Kooperationsbereitschaft desBefragten; sprachliche Verständigung; Einschätzung der Kenntnisse derLandessprache sowie der deutschen Sprache; Anwesenheit anderer Personenbeim Interview und dadurch verursachte Störungen.\nZusätzlich verkodet wurde die Postleitzahl.",
    "de" : "Die soziale und wirtschaftliche Situation der ausländischenArbeitnehmer in der Bundesrepublik.\nThemen: Derzeitige und beabsichtigte weitere Aufenthaltsdauerin der BRD; Geburtsort in Deutschland; Heimatbesuche in denletzten Jahren; geplanter Heimaturlaub in diesem Jahr; benutzteVerkehrsmittel beim Heimaturlaub; Familienangehörige in der BRD;Anzahl und Alter der Kinder aus der eigenen Familie, die inDeutschland leben; Haushaltsgröße; Anzahl der berufstätigenFamilienmitglieder; in der Heimat lebende Familienmitgliedersowie Anzahl und Alter der dort lebenden Kinder; Präferenz fürAusrichtung der Ausbildung in Schule und Beruf an denErfordernissen in Deutschland oder der Heimat; größte Sorgen undSchwierigkeiten in der Bundesrepublik; wahrgenommene Einstellung derDeutschen gegenüber Ausländern; Arbeitsplatzzufriedenheit;Interesse an der deutschen Staatsbürgerschaft; Parteipräferenz;monatliche Ausgaben für Lebensmittel und Dinge des täglichenBedarfs und Einkaufsstätte; Preisorientierung oder Markenorientierung;Selbsteinschätzung der sozialen Schicht.\nDemographie: Alter; Geschlecht; Familienstand; Schuljahre;Schulabschluss in der Heimat bzw. in Deutschland; höchsterSchulabschluss; genaue Berufsbezeichnung und Einordnung in Berufsgruppe;berufliche Position; Berufstätigkeit; abgeschlossene Berufsausbildung;Branche des Betriebes; monatliches Netto-Einkommen (klassiert);monatliches Netto-Haushaltseinkommen (klassiert); Wohnstatus; monatlicheMiete; Erhöhung der Miete bzw. der Nebenkosten; Zufriedenheit mit derWohnsituation; Selbsteinschätzung der eigenen Deutschkenntnisse;PKW-Besitz und Marke; Neu- bzw. Gebrauchtwagen; jährliche, mit einem PKWzurückgelegte Kilometerzahl.\nInterviewerrating: Ortsgröße; Bundesland; Kooperationsbereitschaft desBefragten; sprachliche Verständigung; Einschätzung der Kenntnisse derLandessprache sowie der deutschen Sprache; Anwesenheit anderer Personenbeim Interview und dadurch verursachte Störungen.\nZusätzlich verkodet wurde die Postleitzahl.",
    "en" : "The social and economic situation of foreign workers in the FederalRepublic.\nTopics: current and intended length of further stay in the FRG; placeof birth in Germany; visits to native country in the last few years;planned vacation to native country this year; means of transport usedin vacation to native country; family members in the FRG; number andages of children from one´s own family living in Germany; size ofhousehold; number of working family members; family members living inthe native country as well as number and age of children living there;preference for orientation of education in school and employmenttowards the demands in Germany or the native country; greatest concernsand difficulties in the Federal Republic; perceived attitude of Germansregarding foreigners; job satisfaction; interest in German citizenship;party preference; monthly expenditures for food and everydaynecessities and shopping place; price orientation or brand orientation;self-assessment of social class.\nDemography: age; sex; marital status; years of school; school degreein native country or Germany; highest school degree; exact job titleand classification in occupational group; occupational position;employment; completed vocational training; area of business of company;monthly net income (classified); monthly net household income(classified); residential status; monthly rent; increase in rent oradditional costs; satisfaction with housing situation; self-assessmentof personal knowledge of German; car possession and brand; new or usedcar; number of kilometers driven annually with a car.\nInterviewer rating: city size; state; willingness of respondent tocooperate; language communication; assessment of knowledge of nationallanguage as well as German; presence of other persons during theinterview and disturbances caused by them.\nAlso encoded was: ZIP (postal) code."
  },
  "availability" : {
    "availabilityType" : "Download",
    "embargoDate" : "",
    "label" : [ {
      "pref" : "A - Daten und Dokumente sind für die akademische Forschung und Lehre freigegeben.",
      "de" : "A - Daten und Dokumente sind für die akademische Forschung und Lehre freigegeben.",
      "en" : "A - Data and documents are released for academic research and teaching."
    } ]
  },
  "collectionModes" : [ {
    "label" : {
      "pref" : "Mündliche Befragung mit standardisiertem Fragebogen",
      "de" : "Mündliche Befragung mit standardisiertem Fragebogen",
      "en" : "Oral survey with standardized questionnaire"
    }
  } ],
  "contributions" : [ {
    "type" : [ "Creator" ],
    "agent" : {
      "type" : [ "Institution" ],
      "uri" : "info:searchapp/vocab/adhoc/TUFSUExBTiwgT2ZmZW5iYWNo",
      "label" : "MARPLAN, Offenbach"
    },
    "role" : [ ]
  } ],
  "describedBy" : {
    "uri" : "https://git.gesis.org/datorium/dbk-oai-dprex-set-data/oai.dbk.gesis.org.DBK.ZA1678",
    "type" : "ResearchData",
    "modifiedBy" : {
      "uri" : "https://searchapp-indexer",
      "label" : {
        "pref" : "Searchapp Indexer"
      },
      "dateCreated" : "2024-06-21T05:26:27.318+02:00",
      "dateModified" : "2024-06-21T05:26:27.318+02:00",
      "inDataset" : {
        "uri" : "https://dbkapps.gesis.org/dbkoai/?verb=ListIdentifiers&metadataPrefix=oai_dara&set=DPREX"
      },
      "resultOf" : {
        "type" : [ "CreateAction" ],
        "endTime" : "2024-06-21T05:26:27.318+02:00",
        "instrument" : {
          "uri" : "https://git.gesis.org/datorium/searchapp-indexer",
          "type" : [ "SoftwareApplication" ],
          "label" : "Searchapp Indexer"
        },
        "srcObject" : {
          "uri" : "https://dbkapps.gesis.org/dbkoai/?verb=GetRecord&metadataPrefix=oai_dara&identifier=oai:dbk.gesis.org:DBK/ZA1678",
          "type" : [ "DataFeedItem" ],
          "inDataset" : {
            "uri" : "https://dbkapps.gesis.org/dbkoai/?verb=ListIdentifiers&metadataPrefix=oai_dara&set=DPREX",
            "label" : "DBK_OAI"
          }
        }
      }
    }
  },
  "documentId" : "oai.dbk.gesis.org.DBK.ZA1678",
  "geographicCoverages" : [ {
    "geographicCoveragesFree" : {
      "pref" : "BRD einschl. West-Berlin\n\t\n",
      "de" : "BRD einschl. West-Berlin\n\t\n",
      "en" : "FRG incl. West Berlin"
    },
    "geographicCoverageControlled" : "DE"
  } ],
  "handles" : [ {
    "type" : "DOI",
    "notation" : "10.4232/1.1678",
    "url" : "https://doi.org/10.4232/1.1678",
    "source" : {
      "uri" : "https://www.da-ra.de/",
      "label" : "DARA"
    }
  } ],
  "natureOfContents" : [ {
    "uri" : "info:searchapp/vocab/Dataset",
    "label" : {
      "pref" : "Dataset",
      "de" : "Dataset",
      "en" : "Dataset"
    }
  } ],
  "publications" : [ {
    "type" : [ "PublicationEvent" ],
    "startDate" : "1988"
  } ],
  "resourceLanguage" : "deu",
  "rights" : {
    "licenseType" : "",
    "label" : {
      "pref" : "Alle im GESIS DBK veröffentlichten Metadaten sind frei verfügbar unter den Creative Commons CC0 1.0 Universal Public Domain Dedication. GESIS bittet jedoch darum, dass Sie alle Metadatenquellen anerkennen und sie nennen, etwa die Datengeber oder jeglichen Aggregator, inklusive GESIS selbst. Für weitere Informationen siehe https://dbk.gesis.org/dbksearch/guidelines.asp?db=d",
      "de" : "Alle im GESIS DBK veröffentlichten Metadaten sind frei verfügbar unter den Creative Commons CC0 1.0 Universal Public Domain Dedication. GESIS bittet jedoch darum, dass Sie alle Metadatenquellen anerkennen und sie nennen, etwa die Datengeber oder jeglichen Aggregator, inklusive GESIS selbst. Für weitere Informationen siehe https://dbk.gesis.org/dbksearch/guidelines.asp?db=d",
      "en" : "All metadata from GESIS DBK are available free of restriction under the Creative Commons CC0 1.0 Universal Public Domain Dedication. However, GESIS requests that you actively acknowledge and give attribution to all metadata sources, such as the data providers and any data aggregators, including GESIS. For further information see https://dbk.gesis.org/dbksearch/guidelines.asp"
    }
  },
  "sampling" : {
    "method" : {
      "pref" : "Auswahlverfahren Kommentar: Quotenauswahl nach Geschlecht, Alter, Erwerbsstatus, Familienstand und\nregionaler Verteilung.",
      "de" : "Auswahlverfahren Kommentar: Quotenauswahl nach Geschlecht, Alter, Erwerbsstatus, Familienstand und\nregionaler Verteilung.",
      "en" : "Sampling Procedure Comment: Quota sample according to sex, age, employment status, marital status and regional distribution."
    }
  },
  "subjects" : [ {
    "type" : [ "SubjectHeading" ],
    "uri" : "info:searchapp/vocab/adhoc/TWlncmF0aW9u",
    "notation" : "",
    "source" : {
      "uri" : "info:searchapp/vocab/adhoc/Q0VTU0RBIFRvcGljIENsYXNzaWZpY2F0aW9u",
      "label" : "CESSDA Topic Classification"
    },
    "label" : {
      "pref" : "Migration",
      "de" : "Migration",
      "en" : "Migration"
    }
  }, {
    "type" : [ "SubjectHeading" ],
    "uri" : "info:searchapp/vocab/adhoc/U296aWFsZSBMYWdlIHVuZCBzb3ppYWxlIEluZGlrYXRvcmVu",
    "notation" : "",
    "source" : {
      "uri" : "info:searchapp/vocab/adhoc/Q0VTU0RBIFRvcGljIENsYXNzaWZpY2F0aW9u",
      "label" : "CESSDA Topic Classification"
    },
    "label" : {
      "pref" : "Soziale Lage und soziale Indikatoren",
      "de" : "Soziale Lage und soziale Indikatoren",
      "en" : "Social conditions and indicators"
    }
  } ],
  "temporalCoverages" : [ {
    "startDate" : "1988-03",
    "endDate" : "1988-04",
    "labels" : [ ]
  } ],
  "timeDimensions" : [ {
    "timeDimensionType" : ""
  } ],
  "title" : {
    "pref" : "Ausländer in Deutschland 1988",
    "de" : "Ausländer in Deutschland 1988",
    "en" : "Foreigners in Germany 1988"
  },
  "universe" : {
    "sampled" : {
      "pref" : "Die ausländische Wohnbevölkerung ab 15 Jahren (Türken, Italiener,\nJugoslawen, Griechen und Spanier)",
      "de" : "Die ausländische Wohnbevölkerung ab 15 Jahren (Türken, Italiener,\nJugoslawen, Griechen und Spanier)",
      "en" : "The foreign residential population 15 years old and older (Turks, Italians, Yugoslavs, Greeks and Spaniards)"
    }
  },
  "uri" : "https://doi.org/10.4232/1.1678",
  "searchappPublisher" : {
    "shortName" : "GESIS",
    "name" : {
      "de" : "GESIS - Leibniz Institut für Sozialwissenschaften",
      "en" : "GESIS - Leibniz Institute for the Social Sciences"
    },
    "url" : "https://www.gesis.org/"
  },
  "calculatedTemporalCoverage" : {
    "label" : "1988",
    "dates" : [ "1988" ]
  }
}
