{
  "abstract" : {
    "pref" : "Der Datensatz ist das Ergebnis eines Forschungsprojekts von GESIS, das die Nutzung sozialer Medien im Bundestagswahlkampf 2013 untersucht hat. Die Daten enthalten Tweets sowie eine Beschreibung der Kandidaten inkl. ihrer Twitter- und Facebook-Accounts.\nDabei wurden Tweets von Kandidaten aller großen Parteien mit Ausnahme der AfD untersucht. Alle Daten waren zum Zeitpunkt der Datensammlung öffentlich zugänglich. Nicht aufgenommen wurden Accounts, die von den Kandidaten ganz oder überwiegend für private Zwecke genutzt wurden.\nAus rechtlichen Gründen können nur folgende Daten zur Verfügung gestellt werden:\n(1) Eine Liste aller im Projekt aufgenommenen Kandidaten, ihre Schlüsselmerkmale sowie - falls vorhanden - die IDs ihrer Twitter- und Facebook-Accounts.\n(2) Eine Liste der Tweet-IDs, die zum Abruf der Original-Tweets der Kandidaten genutzt werden kann.\nKandidatendatensatz: Vor- und Nachname des Kandidaten; Parteizugehörigkeit, Bundesland, Listenplatz (Ja/Nein); Direktkandidat (Ja/Nein); Wahlkreis; Facebook-Account; Facebook-Link; Twitter-Account, Twitter-Name; Twitter User-ID; Tweets (Ja/Nein); Anzahl der Tweets; Anzahl der Tweets mit URLS; Anzahl der Tweets mit @-Messages; Anzahl der Tweets pro Woche, Anzahl der Re-Tweets.",
    "de" : "Der Datensatz ist das Ergebnis eines Forschungsprojekts von GESIS, das die Nutzung sozialer Medien im Bundestagswahlkampf 2013 untersucht hat. Die Daten enthalten Tweets sowie eine Beschreibung der Kandidaten inkl. ihrer Twitter- und Facebook-Accounts.\nDabei wurden Tweets von Kandidaten aller großen Parteien mit Ausnahme der AfD untersucht. Alle Daten waren zum Zeitpunkt der Datensammlung öffentlich zugänglich. Nicht aufgenommen wurden Accounts, die von den Kandidaten ganz oder überwiegend für private Zwecke genutzt wurden.\nAus rechtlichen Gründen können nur folgende Daten zur Verfügung gestellt werden:\n(1) Eine Liste aller im Projekt aufgenommenen Kandidaten, ihre Schlüsselmerkmale sowie - falls vorhanden - die IDs ihrer Twitter- und Facebook-Accounts.\n(2) Eine Liste der Tweet-IDs, die zum Abruf der Original-Tweets der Kandidaten genutzt werden kann.\nKandidatendatensatz: Vor- und Nachname des Kandidaten; Parteizugehörigkeit, Bundesland, Listenplatz (Ja/Nein); Direktkandidat (Ja/Nein); Wahlkreis; Facebook-Account; Facebook-Link; Twitter-Account, Twitter-Name; Twitter User-ID; Tweets (Ja/Nein); Anzahl der Tweets; Anzahl der Tweets mit URLS; Anzahl der Tweets mit @-Messages; Anzahl der Tweets pro Woche, Anzahl der Re-Tweets.",
    "en" : "The data is a result of a research project at GESIS which aimed to explore social media communication related to the election of the German parliament on September 22nd, 2013. The data includes tweets by candidates and a file describing the key attributes of the candidates and lists their Twitter and Facebook accounts. \nTweets were collected for candidates of all covered parties except the AfD. All data was publicly available at the time of data collection. Cases in which a Twitter or Facebook account was not used as part of the role as a candidate (i.e., private accounts and accounts merely used for private postings) were not included.\nDue to legal reasons only the following data can be shared:\n(1) A list of all candidates that were considered in the project, their key attributes and if available the identification of their Twitter and Facebook accounts.\n(2) A list of Tweet-IDs which can be used to retrieve the original tweets of the candidates which they posted between June and December 2013. It includes the Tweet-ID and an ID identifying the candidate.\nThe data describing the candidates include variables with the following content: a subsequent number, name of candidate, first name, member of which party (\"AfD\", \"CDU\", \"CSU\", \"Die LINKE\", \"FDP\", \"GRUENE\", \"PIRATEN\", \"SPD\"), state (e.g. \"Bayern\"), is listed (yes, no), is directe candidate (yes, no), constituency (e.g., \"Aachen I\"), has facebook account (yes, no), facebook_link, has twitter account (yes, no), twitter_screenname and variables on the frequency of twitter use."
  },
  "availability" : {
    "availabilityType" : "Download",
    "embargoDate" : "",
    "label" : [ {
      "pref" : "A - Daten und Dokumente sind für die akademische Forschung und Lehre freigegeben.",
      "de" : "A - Daten und Dokumente sind für die akademische Forschung und Lehre freigegeben.",
      "en" : "A - Data and documents are released for academic research and teaching."
    } ]
  },
  "collectionModes" : [ {
    "type" : "Observation.Field"
  }, {
    "label" : {
      "pref" : "Feldbeobachtung. Die Daten wurden mit Hilfe des Twitter API erhoben. Weitere Informationen können dem Methodenbericht entnommen werden.",
      "de" : "Feldbeobachtung. Die Daten wurden mit Hilfe des Twitter API erhoben. Weitere Informationen können dem Methodenbericht entnommen werden.",
      "en" : "Non-participant field observation\nData was collected using the Twitter API. Technical details can be found in the methodological report."
    }
  } ],
  "contributions" : [ {
    "type" : [ "Creator" ],
    "agent" : {
      "type" : [ "Person" ],
      "uri" : "info:searchapp/vocab/adhoc/S2Fjem1pcmVrLCBMYXJz",
      "label" : "Kaczmirek, Lars",
      "affiliation" : {
        "uri" : "info:searchapp/vocab/adhoc/R0VTSVMg4oCTIExlaWJuaXotSW5zdGl0dXQgZsO8ciBTb3ppYWx3aXNzZW5zY2hhZnRlbg==",
        "label" : {
          "pref" : "GESIS – Leibniz-Institut für Sozialwissenschaften",
          "de" : "GESIS – Leibniz-Institut für Sozialwissenschaften",
          "en" : "GESIS – Leibniz-Institut für Sozialwissenschaften"
        }
      }
    },
    "role" : [ ]
  }, {
    "type" : [ "Creator" ],
    "agent" : {
      "type" : [ "Person" ],
      "uri" : "info:searchapp/vocab/adhoc/TWF5ciwgUGhpbGlwcA==",
      "label" : "Mayr, Philipp",
      "affiliation" : {
        "uri" : "info:searchapp/vocab/adhoc/R0VTSVMg4oCTIExlaWJuaXotSW5zdGl0dXQgZsO8ciBTb3ppYWx3aXNzZW5zY2hhZnRlbg==",
        "label" : {
          "pref" : "GESIS – Leibniz-Institut für Sozialwissenschaften",
          "de" : "GESIS – Leibniz-Institut für Sozialwissenschaften",
          "en" : "GESIS – Leibniz-Institut für Sozialwissenschaften"
        }
      }
    },
    "role" : [ ]
  } ],
  "describedBy" : {
    "uri" : "https://git.gesis.org/datorium/dbk-oai-dprex-set-data/oai.dbk.gesis.org.DBK.ZA5973",
    "type" : "ResearchData",
    "modifiedBy" : {
      "uri" : "https://searchapp-indexer",
      "label" : {
        "pref" : "Searchapp Indexer"
      },
      "dateCreated" : "2024-06-21T05:26:26.651+02:00",
      "dateModified" : "2024-06-21T05:26:26.651+02:00",
      "inDataset" : {
        "uri" : "https://dbkapps.gesis.org/dbkoai/?verb=ListIdentifiers&metadataPrefix=oai_dara&set=DPREX"
      },
      "resultOf" : {
        "type" : [ "CreateAction" ],
        "endTime" : "2024-06-21T05:26:26.651+02:00",
        "instrument" : {
          "uri" : "https://git.gesis.org/datorium/searchapp-indexer",
          "type" : [ "SoftwareApplication" ],
          "label" : "Searchapp Indexer"
        },
        "srcObject" : {
          "uri" : "https://dbkapps.gesis.org/dbkoai/?verb=GetRecord&metadataPrefix=oai_dara&identifier=oai:dbk.gesis.org:DBK/ZA5973",
          "type" : [ "DataFeedItem" ],
          "inDataset" : {
            "uri" : "https://dbkapps.gesis.org/dbkoai/?verb=ListIdentifiers&metadataPrefix=oai_dara&set=DPREX",
            "label" : "DBK_OAI"
          }
        }
      }
    }
  },
  "documentId" : "oai.dbk.gesis.org.DBK.ZA5973",
  "dprexConcepts" : [ {
    "type" : [ "SubjectHeading" ],
    "uri" : "info:searchapp/vocab/adhoc/R2VzY2hsZWNodGVycm9sbGVudmVyc3TDpG5kbmlz",
    "notation" : "",
    "source" : {
      "uri" : "info:searchapp/vocab/adhoc/cmV4Y29uY2VwdHMvMS40LjA=",
      "label" : "rexconcepts/1.4.0"
    },
    "label" : {
      "pref" : "Geschlechterrollenverständnis",
      "de" : "Geschlechterrollenverständnis",
      "en" : "Understanding of gender roles"
    }
  }, {
    "type" : [ "SubjectHeading" ],
    "uri" : "info:searchapp/vocab/adhoc/SW50ZWdyYXRpb25zcG9saXRpaw==",
    "notation" : "",
    "source" : {
      "uri" : "info:searchapp/vocab/adhoc/cmV4Y29uY2VwdHMvMS40LjA=",
      "label" : "rexconcepts/1.4.0"
    },
    "label" : {
      "pref" : "Integrationspolitik",
      "de" : "Integrationspolitik",
      "en" : "Integration policy"
    }
  } ],
  "dprexTypes" : [ {
    "type" : [ "SubjectHeading" ],
    "uri" : "info:searchapp/vocab/adhoc/RXJlaWduaXNkYXRlbg==",
    "notation" : "",
    "source" : {
      "uri" : "info:searchapp/vocab/adhoc/cmV4ZGF0YXR5cGUvMS4xLjE=",
      "label" : "rexdatatype/1.1.1"
    },
    "label" : {
      "pref" : "Ereignisdaten",
      "de" : "Ereignisdaten",
      "en" : "Ereignisdaten"
    }
  }, {
    "type" : [ "SubjectHeading" ],
    "uri" : "info:searchapp/vocab/adhoc/U296aWFsZSBNZWRpZW4gRGF0ZW4=",
    "notation" : "",
    "source" : {
      "uri" : "info:searchapp/vocab/adhoc/cmV4ZGF0YXR5cGUvMS4xLjE=",
      "label" : "rexdatatype/1.1.1"
    },
    "label" : {
      "pref" : "Soziale Medien Daten",
      "de" : "Soziale Medien Daten",
      "en" : "Soziale Medien Daten"
    }
  }, {
    "type" : [ "SubjectHeading" ],
    "uri" : "info:searchapp/vocab/adhoc/VGV4dGRhdGVu",
    "notation" : "",
    "source" : {
      "uri" : "info:searchapp/vocab/adhoc/cmV4ZGF0YXR5cGUvMS4xLjE=",
      "label" : "rexdatatype/1.1.1"
    },
    "label" : {
      "pref" : "Textdaten",
      "de" : "Textdaten",
      "en" : "Textdaten"
    }
  } ],
  "geographicCoverages" : [ {
    "geographicCoverageControlled" : "DE"
  } ],
  "handles" : [ {
    "type" : "DOI",
    "notation" : "10.4232/1.12319",
    "url" : "https://doi.org/10.4232/1.12319",
    "source" : {
      "uri" : "https://www.da-ra.de/",
      "label" : "DARA"
    }
  } ],
  "natureOfContents" : [ {
    "uri" : "info:searchapp/vocab/Text",
    "label" : {
      "pref" : "Text",
      "de" : "Text",
      "en" : "Text"
    }
  } ],
  "publications" : [ {
    "type" : [ "PublicationEvent" ],
    "startDate" : "2015"
  } ],
  "resourceLanguage" : "deu",
  "rights" : {
    "licenseType" : "",
    "label" : {
      "pref" : "Alle im GESIS DBK veröffentlichten Metadaten sind frei verfügbar unter den Creative Commons CC0 1.0 Universal Public Domain Dedication. GESIS bittet jedoch darum, dass Sie alle Metadatenquellen anerkennen und sie nennen, etwa die Datengeber oder jeglichen Aggregator, inklusive GESIS selbst. Für weitere Informationen siehe https://dbk.gesis.org/dbksearch/guidelines.asp?db=d",
      "de" : "Alle im GESIS DBK veröffentlichten Metadaten sind frei verfügbar unter den Creative Commons CC0 1.0 Universal Public Domain Dedication. GESIS bittet jedoch darum, dass Sie alle Metadatenquellen anerkennen und sie nennen, etwa die Datengeber oder jeglichen Aggregator, inklusive GESIS selbst. Für weitere Informationen siehe https://dbk.gesis.org/dbksearch/guidelines.asp?db=d",
      "en" : "All metadata from GESIS DBK are available free of restriction under the Creative Commons CC0 1.0 Universal Public Domain Dedication. However, GESIS requests that you actively acknowledge and give attribution to all metadata sources, such as the data providers and any data aggregators, including GESIS. For further information see https://dbk.gesis.org/dbksearch/guidelines.asp"
    }
  },
  "sampling" : {
    "method" : {
      "pref" : "Vollerhebung; Auswahlverfahren Kommentar: Vollerhebung. Der Auswahlrahmen umfasst 2741 Kandidaten, denen ein Twitter- oder Facebook-Account zugeordnet werden konnte.",
      "de" : "Vollerhebung; Auswahlverfahren Kommentar: Vollerhebung. Der Auswahlrahmen umfasst 2741 Kandidaten, denen ein Twitter- oder Facebook-Account zugeordnet werden konnte.",
      "en" : "Total universe/Complete enumeration; Sampling Procedure Comment: No sample (complete count)\nThe sample frame includes 2741 candidates, whom a Twitter or Facebook account could be assigned."
    }
  },
  "subjects" : [ {
    "type" : [ "SubjectHeading" ],
    "uri" : "info:searchapp/vocab/adhoc/V2FobGVu",
    "notation" : "",
    "source" : {
      "uri" : "info:searchapp/vocab/adhoc/Q0VTU0RBIFRvcGljIENsYXNzaWZpY2F0aW9u",
      "label" : "CESSDA Topic Classification"
    },
    "label" : {
      "pref" : "Wahlen",
      "de" : "Wahlen",
      "en" : "Elections"
    }
  }, {
    "type" : [ "SubjectHeading" ],
    "uri" : "info:searchapp/vocab/adhoc/TWVkaWVu",
    "notation" : "",
    "source" : {
      "uri" : "info:searchapp/vocab/adhoc/Q0VTU0RBIFRvcGljIENsYXNzaWZpY2F0aW9u",
      "label" : "CESSDA Topic Classification"
    },
    "label" : {
      "pref" : "Medien",
      "de" : "Medien",
      "en" : "Media"
    }
  }, {
    "type" : [ "SubjectHeading" ],
    "uri" : "info:searchapp/vocab/adhoc/SW50ZWdyYXRpb25zcG9saXRpaw==",
    "notation" : "",
    "source" : {
      "uri" : "info:searchapp/vocab/adhoc/cmV4Y29uY2VwdHMvMS40LjA=",
      "label" : "rexconcepts/1.4.0"
    },
    "label" : {
      "pref" : "Integrationspolitik",
      "de" : "Integrationspolitik",
      "en" : "Integration policy"
    }
  }, {
    "type" : [ "SubjectHeading" ],
    "uri" : "info:searchapp/vocab/adhoc/R2VzY2hsZWNodGVycm9sbGVudmVyc3TDpG5kbmlz",
    "notation" : "",
    "source" : {
      "uri" : "info:searchapp/vocab/adhoc/cmV4Y29uY2VwdHMvMS40LjA=",
      "label" : "rexconcepts/1.4.0"
    },
    "label" : {
      "pref" : "Geschlechterrollenverständnis",
      "de" : "Geschlechterrollenverständnis",
      "en" : "Understanding of gender roles"
    }
  }, {
    "type" : [ "SubjectHeading" ],
    "uri" : "info:searchapp/vocab/adhoc/U296aWFsZSBNZWRpZW4gRGF0ZW4=",
    "notation" : "",
    "source" : {
      "uri" : "info:searchapp/vocab/adhoc/cmV4ZGF0YXR5cGUvMS4xLjE=",
      "label" : "rexdatatype/1.1.1"
    },
    "label" : {
      "pref" : "Soziale Medien Daten",
      "de" : "Soziale Medien Daten",
      "en" : "Soziale Medien Daten"
    }
  }, {
    "type" : [ "SubjectHeading" ],
    "uri" : "info:searchapp/vocab/adhoc/VGV4dGRhdGVu",
    "notation" : "",
    "source" : {
      "uri" : "info:searchapp/vocab/adhoc/cmV4ZGF0YXR5cGUvMS4xLjE=",
      "label" : "rexdatatype/1.1.1"
    },
    "label" : {
      "pref" : "Textdaten",
      "de" : "Textdaten",
      "en" : "Textdaten"
    }
  }, {
    "type" : [ "SubjectHeading" ],
    "uri" : "info:searchapp/vocab/adhoc/RXJlaWduaXNkYXRlbg==",
    "notation" : "",
    "source" : {
      "uri" : "info:searchapp/vocab/adhoc/cmV4ZGF0YXR5cGUvMS4xLjE=",
      "label" : "rexdatatype/1.1.1"
    },
    "label" : {
      "pref" : "Ereignisdaten",
      "de" : "Ereignisdaten",
      "en" : "Ereignisdaten"
    }
  } ],
  "temporalCoverages" : [ {
    "startDate" : "2013-06",
    "endDate" : "2013-12",
    "labels" : [ ]
  } ],
  "timeDimensions" : [ {
    "timeDimensionType" : "CrossSection"
  } ],
  "title" : {
    "pref" : "Deutsche Bundestagswahl 2013: Nutzung von Twitter durch Kandidaten",
    "de" : "Deutsche Bundestagswahl 2013: Nutzung von Twitter durch Kandidaten",
    "en" : "German Bundestag Elections 2013: Twitter Usage by Electoral Candidates"
  },
  "universe" : {
    "sampled" : {
      "pref" : "Alle Kandidaten (Direkt- und Listenkandidaten) zur Wahl des Bundestages am 22. September 2013, die über einen Social-Media-Account (Twitter und/oder Facebook) verfügen. Berücksichtigt wurden Kandidaten aller im Bundestag vertretenen Parteien, sowie der Piratenpartie und der AfD (nur Facebook).",
      "de" : "Alle Kandidaten (Direkt- und Listenkandidaten) zur Wahl des Bundestages am 22. September 2013, die über einen Social-Media-Account (Twitter und/oder Facebook) verfügen. Berücksichtigt wurden Kandidaten aller im Bundestag vertretenen Parteien, sowie der Piratenpartie und der AfD (nur Facebook).",
      "en" : "The population comprises all candidates (district and party list candidates) for the 2013 German Federal Election on September 22, 2013, who maintain a social media account (Twitter and/or Facebook). The population was further restricted to candidates of political parties which were represented in the German Parliament before the election and to candidates of the Pirate Party and the Alternative for Germany (Facebook only)."
    }
  },
  "uri" : "https://doi.org/10.4232/1.12319",
  "searchappPublisher" : {
    "shortName" : "GESIS",
    "name" : {
      "de" : "GESIS - Leibniz Institut für Sozialwissenschaften",
      "en" : "GESIS - Leibniz Institute for the Social Sciences"
    },
    "url" : "https://www.gesis.org/"
  },
  "calculatedTemporalCoverage" : {
    "label" : "2013",
    "dates" : [ "2013" ]
  }
}
