{
  "abstract" : {
    "pref" : "Die wirtschaftliche Situation von Ausländern in derBundesrepublik.\nThemen: Wohnungsbesitz in Deutschland oder im Heimatland;weitere Ausländer in der Wohngegend; Wohnstatus; Wohnungsgröße,Wohnungsausstattung und Anzahl der Wohnräume; Miethöhe.\nFür alle Haushaltsmitglieder jeweils einzeln erfaßt wurden:Detaillierte Angaben zur Demographie und zur Schulbildung;Verwandtschaftsverhältnis zum Haushaltsvorstand; Zuzugsjahr undAufenthaltsdauer in der Bundesrepublik; Staatsangehörigkeit;Personen in der Ausbildung; empfangene Leistungen nach demBundesausbildungsförderungsgesetz (BAFöG); Dauer und Ort derberuflichen Ausbildung; Berufsausbildungsabschluß; derzeitigebzw. letzte Berufstätigkeit; Nebenerwerbstätigkeit; Einkommenaus unselbständiger oder selbständiger Arbeit bzw. ausVermietung oder Vermögen; Bezug eines 13. Monatsgehalts sowie andererzusätzlicher Vergütungen; monatliche Aufwendungen für Steuernsowie Pflichtbeiträge für Sozialversicherungen; Nettoeinkommen;Dauer der gesamten Erwerbstätigkeit sowie Beginn derErwerbstätigkeit in der Bundesrepublik; Arbeitslosigkeit und empfangeneLeistungen vom Arbeitsamt; Erhalt von Renten und Pensionen;Art der Krankenversicherung und Altersversorgung.\nAngaben zum Haushalt als Gesamtheit: Bekanntheit bzw. Bezug vonWohngeld und Sozialhilfe; Gründe für den Nichterhalt dieserLeistungen; Kindergeldbezug; Vermögenswerte in der Bundesrepublikoder im Heimatland; Sparguthaben und Sparen nach dem624-Mark-Gesetz; Abgabe einer Einkommenssteuererklärung im Jahre 1980;Transfer von Geld oder großen Geschenken in das Heimatland sowieEmpfänger dieser Zuwendungen; Selbsteinschätzung derDeutschkenntnisse.\nZusätzlich verkodet wurde: Interviewdauer.",
    "de" : "Die wirtschaftliche Situation von Ausländern in derBundesrepublik.\nThemen: Wohnungsbesitz in Deutschland oder im Heimatland;weitere Ausländer in der Wohngegend; Wohnstatus; Wohnungsgröße,Wohnungsausstattung und Anzahl der Wohnräume; Miethöhe.\nFür alle Haushaltsmitglieder jeweils einzeln erfaßt wurden:Detaillierte Angaben zur Demographie und zur Schulbildung;Verwandtschaftsverhältnis zum Haushaltsvorstand; Zuzugsjahr undAufenthaltsdauer in der Bundesrepublik; Staatsangehörigkeit;Personen in der Ausbildung; empfangene Leistungen nach demBundesausbildungsförderungsgesetz (BAFöG); Dauer und Ort derberuflichen Ausbildung; Berufsausbildungsabschluß; derzeitigebzw. letzte Berufstätigkeit; Nebenerwerbstätigkeit; Einkommenaus unselbständiger oder selbständiger Arbeit bzw. ausVermietung oder Vermögen; Bezug eines 13. Monatsgehalts sowie andererzusätzlicher Vergütungen; monatliche Aufwendungen für Steuernsowie Pflichtbeiträge für Sozialversicherungen; Nettoeinkommen;Dauer der gesamten Erwerbstätigkeit sowie Beginn derErwerbstätigkeit in der Bundesrepublik; Arbeitslosigkeit und empfangeneLeistungen vom Arbeitsamt; Erhalt von Renten und Pensionen;Art der Krankenversicherung und Altersversorgung.\nAngaben zum Haushalt als Gesamtheit: Bekanntheit bzw. Bezug vonWohngeld und Sozialhilfe; Gründe für den Nichterhalt dieserLeistungen; Kindergeldbezug; Vermögenswerte in der Bundesrepublikoder im Heimatland; Sparguthaben und Sparen nach dem624-Mark-Gesetz; Abgabe einer Einkommenssteuererklärung im Jahre 1980;Transfer von Geld oder großen Geschenken in das Heimatland sowieEmpfänger dieser Zuwendungen; Selbsteinschätzung derDeutschkenntnisse.\nZusätzlich verkodet wurde: Interviewdauer.",
    "en" : "The economic situation of foreigners in the Federal Republic. \nTopics: possession of residence in Germany or native country; otherforeigners in residential area; residential status; size of residence,furnishings and number of living-rooms; amount of rent. \nThe following was collected for all members of the householdindividually: detailed information on demography and school education;degree of relationship to head of household; year of arrival and lengthof stay in the Federal Republic; citizenship; persons in school;payments received under the law regarding grants for higher education(student aid); duration and location of occupational training;vocational training degree; current or last employment; secondaryoccupation; income from employment or self-employed or from rental orassets; receipt of a 13th month salary as well as other additionalcompensations; monthly expenditures for taxes as well as compulsorycontributions to social security; net income; length of entireemployment as well as start of employment in the Federal Republic;unemployment and payments received from the employment office; receiptof pensions; type of health insurance and provision for old age. \nInformation on household as a whole: familiarity or receipt of housingbenefit and welfare; reasons for not receiving these payments; receiptof child allowance; assets in the Federal Republic or native country;savings account and saving according to the 624-Mark law; filing anincome tax return in 1980; transfer of money or large gifts into thenative country as well as recipient of these donations; self-assessmentof knowledge of German. \nAlso encoded was: length of interview."
  },
  "availability" : {
    "availabilityType" : "Download",
    "embargoDate" : "",
    "label" : [ {
      "pref" : "A - Daten und Dokumente sind für die akademische Forschung und Lehre freigegeben.",
      "de" : "A - Daten und Dokumente sind für die akademische Forschung und Lehre freigegeben.",
      "en" : "A - Data and documents are released for academic research and teaching."
    } ]
  },
  "collectionModes" : [ {
    "label" : {
      "pref" : "Mündliche Befragung mit standardisiertem Fragebogen bzw.\nschriftliche Befragung unter Aufsicht",
      "de" : "Mündliche Befragung mit standardisiertem Fragebogen bzw.\nschriftliche Befragung unter Aufsicht",
      "en" : "Oral survey with standardized questionnaire or written survey under supervision"
    }
  } ],
  "contributions" : [ {
    "type" : [ "Creator" ],
    "agent" : {
      "type" : [ "Institution" ],
      "uri" : "info:searchapp/vocab/adhoc/U29uZGVyZm9yc2NodW5nc2JlcmVpY2ggMyBkZXIgVW5pdmVyc2l0w6R0ZW4gRnJhbmtmdXJ0IHVuZCBNYW5uaGVpbQ==",
      "label" : "Sonderforschungsbereich 3 der Universitäten Frankfurt und Mannheim"
    },
    "role" : [ ]
  } ],
  "describedBy" : {
    "uri" : "https://git.gesis.org/datorium/dbk-oai-dprex-set-data/oai.dbk.gesis.org.DBK.ZA1599",
    "type" : "ResearchData",
    "modifiedBy" : {
      "uri" : "https://searchapp-indexer",
      "label" : {
        "pref" : "Searchapp Indexer"
      },
      "dateCreated" : "2024-06-21T05:26:27.239+02:00",
      "dateModified" : "2024-06-21T05:26:27.239+02:00",
      "inDataset" : {
        "uri" : "https://dbkapps.gesis.org/dbkoai/?verb=ListIdentifiers&metadataPrefix=oai_dara&set=DPREX"
      },
      "resultOf" : {
        "type" : [ "CreateAction" ],
        "endTime" : "2024-06-21T05:26:27.239+02:00",
        "instrument" : {
          "uri" : "https://git.gesis.org/datorium/searchapp-indexer",
          "type" : [ "SoftwareApplication" ],
          "label" : "Searchapp Indexer"
        },
        "srcObject" : {
          "uri" : "https://dbkapps.gesis.org/dbkoai/?verb=GetRecord&metadataPrefix=oai_dara&identifier=oai:dbk.gesis.org:DBK/ZA1599",
          "type" : [ "DataFeedItem" ],
          "inDataset" : {
            "uri" : "https://dbkapps.gesis.org/dbkoai/?verb=ListIdentifiers&metadataPrefix=oai_dara&set=DPREX",
            "label" : "DBK_OAI"
          }
        }
      }
    }
  },
  "documentId" : "oai.dbk.gesis.org.DBK.ZA1599",
  "dprexConcepts" : [ {
    "type" : [ "SubjectHeading" ],
    "uri" : "info:searchapp/vocab/adhoc/SW50ZXJncnVwcGVua29udGFrdA==",
    "notation" : "",
    "source" : {
      "uri" : "info:searchapp/vocab/adhoc/cmV4Y29uY2VwdHMvMS40LjA=",
      "label" : "rexconcepts/1.4.0"
    },
    "label" : {
      "pref" : "Intergruppenkontakt",
      "de" : "Intergruppenkontakt",
      "en" : "Intergroup contact"
    }
  }, {
    "type" : [ "SubjectHeading" ],
    "uri" : "info:searchapp/vocab/adhoc/U2VncmVnYXRpb24=",
    "notation" : "",
    "source" : {
      "uri" : "info:searchapp/vocab/adhoc/cmV4Y29uY2VwdHMvMS40LjA=",
      "label" : "rexconcepts/1.4.0"
    },
    "label" : {
      "pref" : "Segregation",
      "de" : "Segregation",
      "en" : "Segregation"
    }
  }, {
    "type" : [ "SubjectHeading" ],
    "uri" : "info:searchapp/vocab/adhoc/U296aWFscsOkdW1saWNoZSBUcmVubnVuZw==",
    "notation" : "",
    "source" : {
      "uri" : "info:searchapp/vocab/adhoc/cmV4Y29uY2VwdHMvMS41LjA=",
      "label" : "rexconcepts/1.5.0"
    },
    "label" : {
      "pref" : "Sozialräumliche Trennung",
      "de" : "Sozialräumliche Trennung",
      "en" : "Socio-spatial separation"
    }
  }, {
    "type" : [ "SubjectHeading" ],
    "uri" : "info:searchapp/vocab/adhoc/U3ByYWNoa29tcGV0ZW56",
    "notation" : "",
    "source" : {
      "uri" : "info:searchapp/vocab/adhoc/cmV4Y29uY2VwdHMvMS41LjA=",
      "label" : "rexconcepts/1.5.0"
    },
    "label" : {
      "pref" : "Sprachkompetenz",
      "de" : "Sprachkompetenz",
      "en" : "Language skills"
    }
  }, {
    "type" : [ "SubjectHeading" ],
    "uri" : "info:searchapp/vocab/adhoc/U3RhYXRzYsO8cmdlcnNjaGFmdA==",
    "notation" : "",
    "source" : {
      "uri" : "info:searchapp/vocab/adhoc/cmV4Y29uY2VwdHMvMS40LjA=",
      "label" : "rexconcepts/1.4.0"
    },
    "label" : {
      "pref" : "Staatsbürgerschaft",
      "de" : "Staatsbürgerschaft",
      "en" : "Citizenship"
    }
  } ],
  "dprexGroups" : [ {
    "type" : [ "SubjectHeading" ],
    "uri" : "info:searchapp/vocab/adhoc/SGVya3VuZnQ=",
    "notation" : "",
    "source" : {
      "uri" : "info:searchapp/vocab/adhoc/cmV4Z3JvdXBzLzEuMy4w",
      "label" : "rexgroups/1.3.0"
    },
    "label" : {
      "pref" : "Herkunft",
      "de" : "Herkunft",
      "en" : "Herkunft"
    }
  }, {
    "type" : [ "SubjectHeading" ],
    "uri" : "info:searchapp/vocab/adhoc/WnVnZXdhbmRlcnRlIGRlciAxLiBHZW5lcmF0aW9u",
    "notation" : "",
    "source" : {
      "uri" : "info:searchapp/vocab/adhoc/cmV4Z3JvdXBzLzEuMy4w",
      "label" : "rexgroups/1.3.0"
    },
    "label" : {
      "pref" : "Zugewanderte der 1. Generation",
      "de" : "Zugewanderte der 1. Generation",
      "en" : "Zugewanderte der 1. Generation"
    }
  }, {
    "type" : [ "SubjectHeading" ],
    "uri" : "info:searchapp/vocab/adhoc/WnVnZXdhbmRlcnRlIGRlciAyLiBHZW5lcmF0aW9u",
    "notation" : "",
    "source" : {
      "uri" : "info:searchapp/vocab/adhoc/cmV4Z3JvdXBzLzEuMy4w",
      "label" : "rexgroups/1.3.0"
    },
    "label" : {
      "pref" : "Zugewanderte der 2. Generation",
      "de" : "Zugewanderte der 2. Generation",
      "en" : "Zugewanderte der 2. Generation"
    }
  } ],
  "dprexTypes" : [ {
    "type" : [ "SubjectHeading" ],
    "uri" : "info:searchapp/vocab/adhoc/VW1mcmFnZWRhdGVu",
    "notation" : "",
    "source" : {
      "uri" : "info:searchapp/vocab/adhoc/cmV4ZGF0YXR5cGUvMS4xLjE=",
      "label" : "rexdatatype/1.1.1"
    },
    "label" : {
      "pref" : "Umfragedaten",
      "de" : "Umfragedaten",
      "en" : "Umfragedaten"
    }
  } ],
  "geographicCoverages" : [ {
    "geographicCoveragesFree" : {
      "pref" : "BRD einschl. West-Berlin\n\t\n",
      "de" : "BRD einschl. West-Berlin\n\t\n",
      "en" : "FRG incl. West Berlin"
    },
    "geographicCoverageControlled" : "DE"
  } ],
  "handles" : [ {
    "type" : "DOI",
    "notation" : "10.4232/1.1599",
    "url" : "https://doi.org/10.4232/1.1599",
    "source" : {
      "uri" : "https://www.da-ra.de/",
      "label" : "DARA"
    }
  } ],
  "natureOfContents" : [ {
    "uri" : "info:searchapp/vocab/Dataset",
    "label" : {
      "pref" : "Dataset",
      "de" : "Dataset",
      "en" : "Dataset"
    }
  } ],
  "publications" : [ {
    "type" : [ "PublicationEvent" ],
    "startDate" : "1986"
  } ],
  "resourceLanguage" : "deu",
  "rights" : {
    "licenseType" : "",
    "label" : {
      "pref" : "Alle im GESIS DBK veröffentlichten Metadaten sind frei verfügbar unter den Creative Commons CC0 1.0 Universal Public Domain Dedication. GESIS bittet jedoch darum, dass Sie alle Metadatenquellen anerkennen und sie nennen, etwa die Datengeber oder jeglichen Aggregator, inklusive GESIS selbst. Für weitere Informationen siehe https://dbk.gesis.org/dbksearch/guidelines.asp?db=d",
      "de" : "Alle im GESIS DBK veröffentlichten Metadaten sind frei verfügbar unter den Creative Commons CC0 1.0 Universal Public Domain Dedication. GESIS bittet jedoch darum, dass Sie alle Metadatenquellen anerkennen und sie nennen, etwa die Datengeber oder jeglichen Aggregator, inklusive GESIS selbst. Für weitere Informationen siehe https://dbk.gesis.org/dbksearch/guidelines.asp?db=d",
      "en" : "All metadata from GESIS DBK are available free of restriction under the Creative Commons CC0 1.0 Universal Public Domain Dedication. However, GESIS requests that you actively acknowledge and give attribution to all metadata sources, such as the data providers and any data aggregators, including GESIS. For further information see https://dbk.gesis.org/dbksearch/guidelines.asp"
    }
  },
  "sampling" : {
    "method" : {
      "pref" : "Auswahlverfahren Kommentar: Mehrstufig geschichtete Zufallsauswahl mit Quotenauswahl auf der\nletzten Stufe. Die hier ausgewählten Haushaltsvorstände gehören\ndenselben Haushalten an, aus denen in der zweiten Welle dieser\nUntersuchung die Haushaltsmitglieder befragt wurden.",
      "de" : "Auswahlverfahren Kommentar: Mehrstufig geschichtete Zufallsauswahl mit Quotenauswahl auf der\nletzten Stufe. Die hier ausgewählten Haushaltsvorstände gehören\ndenselben Haushalten an, aus denen in der zweiten Welle dieser\nUntersuchung die Haushaltsmitglieder befragt wurden.",
      "en" : "Sampling Procedure Comment: Multi-stage stratified random sample with quota sample. The heads of household selected here belong to the same households from which members of the household were interviewed in the second wave of this investigation."
    }
  },
  "subjects" : [ {
    "type" : [ "SubjectHeading" ],
    "uri" : "info:searchapp/vocab/adhoc/TWlncmF0aW9u",
    "notation" : "",
    "source" : {
      "uri" : "info:searchapp/vocab/adhoc/Q0VTU0RBIFRvcGljIENsYXNzaWZpY2F0aW9u",
      "label" : "CESSDA Topic Classification"
    },
    "label" : {
      "pref" : "Migration",
      "de" : "Migration",
      "en" : "Migration"
    }
  }, {
    "type" : [ "SubjectHeading" ],
    "uri" : "info:searchapp/vocab/adhoc/U296aWFsZSBMYWdlIHVuZCBzb3ppYWxlIEluZGlrYXRvcmVu",
    "notation" : "",
    "source" : {
      "uri" : "info:searchapp/vocab/adhoc/Q0VTU0RBIFRvcGljIENsYXNzaWZpY2F0aW9u",
      "label" : "CESSDA Topic Classification"
    },
    "label" : {
      "pref" : "Soziale Lage und soziale Indikatoren",
      "de" : "Soziale Lage und soziale Indikatoren",
      "en" : "Social conditions and indicators"
    }
  }, {
    "type" : [ "SubjectHeading" ],
    "uri" : "info:searchapp/vocab/adhoc/SW50ZXJncnVwcGVua29udGFrdA==",
    "notation" : "",
    "source" : {
      "uri" : "info:searchapp/vocab/adhoc/cmV4Y29uY2VwdHMvMS40LjA=",
      "label" : "rexconcepts/1.4.0"
    },
    "label" : {
      "pref" : "Intergruppenkontakt",
      "de" : "Intergruppenkontakt",
      "en" : "Intergroup contact"
    }
  }, {
    "type" : [ "SubjectHeading" ],
    "uri" : "info:searchapp/vocab/adhoc/U2VncmVnYXRpb24=",
    "notation" : "",
    "source" : {
      "uri" : "info:searchapp/vocab/adhoc/cmV4Y29uY2VwdHMvMS40LjA=",
      "label" : "rexconcepts/1.4.0"
    },
    "label" : {
      "pref" : "Segregation",
      "de" : "Segregation",
      "en" : "Segregation"
    }
  }, {
    "type" : [ "SubjectHeading" ],
    "uri" : "info:searchapp/vocab/adhoc/U3RhYXRzYsO8cmdlcnNjaGFmdA==",
    "notation" : "",
    "source" : {
      "uri" : "info:searchapp/vocab/adhoc/cmV4Y29uY2VwdHMvMS40LjA=",
      "label" : "rexconcepts/1.4.0"
    },
    "label" : {
      "pref" : "Staatsbürgerschaft",
      "de" : "Staatsbürgerschaft",
      "en" : "Citizenship"
    }
  }, {
    "type" : [ "SubjectHeading" ],
    "uri" : "info:searchapp/vocab/adhoc/SGVya3VuZnQ=",
    "notation" : "",
    "source" : {
      "uri" : "info:searchapp/vocab/adhoc/cmV4Z3JvdXBzLzEuMy4w",
      "label" : "rexgroups/1.3.0"
    },
    "label" : {
      "pref" : "Herkunft",
      "de" : "Herkunft",
      "en" : "Herkunft"
    }
  }, {
    "type" : [ "SubjectHeading" ],
    "uri" : "info:searchapp/vocab/adhoc/WnVnZXdhbmRlcnRlIGRlciAxLiBHZW5lcmF0aW9u",
    "notation" : "",
    "source" : {
      "uri" : "info:searchapp/vocab/adhoc/cmV4Z3JvdXBzLzEuMy4w",
      "label" : "rexgroups/1.3.0"
    },
    "label" : {
      "pref" : "Zugewanderte der 1. Generation",
      "de" : "Zugewanderte der 1. Generation",
      "en" : "Zugewanderte der 1. Generation"
    }
  }, {
    "type" : [ "SubjectHeading" ],
    "uri" : "info:searchapp/vocab/adhoc/WnVnZXdhbmRlcnRlIGRlciAyLiBHZW5lcmF0aW9u",
    "notation" : "",
    "source" : {
      "uri" : "info:searchapp/vocab/adhoc/cmV4Z3JvdXBzLzEuMy4w",
      "label" : "rexgroups/1.3.0"
    },
    "label" : {
      "pref" : "Zugewanderte der 2. Generation",
      "de" : "Zugewanderte der 2. Generation",
      "en" : "Zugewanderte der 2. Generation"
    }
  }, {
    "type" : [ "SubjectHeading" ],
    "uri" : "info:searchapp/vocab/adhoc/VW1mcmFnZWRhdGVu",
    "notation" : "",
    "source" : {
      "uri" : "info:searchapp/vocab/adhoc/cmV4ZGF0YXR5cGUvMS4xLjE=",
      "label" : "rexdatatype/1.1.1"
    },
    "label" : {
      "pref" : "Umfragedaten",
      "de" : "Umfragedaten",
      "en" : "Umfragedaten"
    }
  }, {
    "type" : [ "SubjectHeading" ],
    "uri" : "info:searchapp/vocab/adhoc/U3ByYWNoa29tcGV0ZW56",
    "notation" : "",
    "source" : {
      "uri" : "info:searchapp/vocab/adhoc/cmV4Y29uY2VwdHMvMS41LjA=",
      "label" : "rexconcepts/1.5.0"
    },
    "label" : {
      "pref" : "Sprachkompetenz",
      "de" : "Sprachkompetenz",
      "en" : "Language skills"
    }
  }, {
    "type" : [ "SubjectHeading" ],
    "uri" : "info:searchapp/vocab/adhoc/U296aWFscsOkdW1saWNoZSBUcmVubnVuZw==",
    "notation" : "",
    "source" : {
      "uri" : "info:searchapp/vocab/adhoc/cmV4Y29uY2VwdHMvMS41LjA=",
      "label" : "rexconcepts/1.5.0"
    },
    "label" : {
      "pref" : "Sozialräumliche Trennung",
      "de" : "Sozialräumliche Trennung",
      "en" : "Socio-spatial separation"
    }
  } ],
  "temporalCoverages" : [ {
    "startDate" : "1982-05",
    "endDate" : "1982-09",
    "labels" : [ ]
  } ],
  "timeDimensions" : [ {
    "timeDimensionType" : ""
  } ],
  "title" : {
    "pref" : "Ausländerumfrage 1982 (1. Welle: Haushaltsvorstände)",
    "de" : "Ausländerumfrage 1982 (1. Welle: Haushaltsvorstände)",
    "en" : "Foreigner Survey 1982 (1st Wave: Heads of Household)"
  },
  "universe" : {
    "sampled" : {
      "pref" : "Griechische, italienische, jugoslawische spanische und türkische\nHaushaltsvorstände in Privathaushalten",
      "de" : "Griechische, italienische, jugoslawische spanische und türkische\nHaushaltsvorstände in Privathaushalten",
      "en" : "The last level of Greek, Italian, Yugoslav Spanish and Turkish heads of\nhousehold in private households"
    }
  },
  "uri" : "https://doi.org/10.4232/1.1599",
  "searchappPublisher" : {
    "shortName" : "GESIS",
    "name" : {
      "de" : "GESIS - Leibniz Institut für Sozialwissenschaften",
      "en" : "GESIS - Leibniz Institute for the Social Sciences"
    },
    "url" : "https://www.gesis.org/"
  },
  "calculatedTemporalCoverage" : {
    "label" : "1982",
    "dates" : [ "1982" ]
  }
}
