{
  "abstract" : {
    "pref" : "Die Allgemeine Bevölkerungsumfrage der Sozialwissenschaften (ALLBUS) ist eine Trenderhebung, in der seit 1980 alle zwei Jahre eine Zufallsstichprobe der deutschen Bevölkerung befragt wird. Das primäre Ziel des Umfrageprogramms ist die Beobachtung von Einstellungen, Verhalten und sozialen Wandel in Deutschland. Jede ALLBUS-Querschnittserhebung besteht aus ein oder zwei Schwerpunktmodulen zu wechselnden Themen. Diese werden ergänzt durch weitere inhaltliche Fragen und ein Kernmodul mit detaillierten demografischen Informationen. Zudem werden Zusatzinformation zum Interview und den Interviewern bereitgestellt. Die Schwerpunktmodule folgen in der Regel einem 10-jährigen Replikationszyklus, viele Einzelindikatoren und Itembatterien werden aber auch in kürzeren Abständen repliziert. \nSeit Mitte der 1980er Jahre werden zusammen mit ALLBUS auch regelmäßig ein oder zwei Module des ISSP (International Social Survey Programme) erhoben.\nDas Schwerpunktmodul von ALLBUS 1992 befasst sich mit Religion und Weltanschauungen und enthält Fragen zu Kosmologien (Stellungnahmen zur Existenz einer höheren Wirklichkeit), Ansichten über den Sinn des Lebens und Fragen zu Religiosität und Konfession. Andere Themen sind u.a. Einstellungen zu Politik und Wirtschaft, Einstellungen zur deutschen Wiedervereinigung und Fragen zum Thema AIDS (HIV). Zusätzlich ist das ISSP Modul \"Soziale Ungleichheit II\" enthalten.",
    "de" : "Die Allgemeine Bevölkerungsumfrage der Sozialwissenschaften (ALLBUS) ist eine Trenderhebung, in der seit 1980 alle zwei Jahre eine Zufallsstichprobe der deutschen Bevölkerung befragt wird. Das primäre Ziel des Umfrageprogramms ist die Beobachtung von Einstellungen, Verhalten und sozialen Wandel in Deutschland. Jede ALLBUS-Querschnittserhebung besteht aus ein oder zwei Schwerpunktmodulen zu wechselnden Themen. Diese werden ergänzt durch weitere inhaltliche Fragen und ein Kernmodul mit detaillierten demografischen Informationen. Zudem werden Zusatzinformation zum Interview und den Interviewern bereitgestellt. Die Schwerpunktmodule folgen in der Regel einem 10-jährigen Replikationszyklus, viele Einzelindikatoren und Itembatterien werden aber auch in kürzeren Abständen repliziert. \nSeit Mitte der 1980er Jahre werden zusammen mit ALLBUS auch regelmäßig ein oder zwei Module des ISSP (International Social Survey Programme) erhoben.\nDas Schwerpunktmodul von ALLBUS 1992 befasst sich mit Religion und Weltanschauungen und enthält Fragen zu Kosmologien (Stellungnahmen zur Existenz einer höheren Wirklichkeit), Ansichten über den Sinn des Lebens und Fragen zu Religiosität und Konfession. Andere Themen sind u.a. Einstellungen zu Politik und Wirtschaft, Einstellungen zur deutschen Wiedervereinigung und Fragen zum Thema AIDS (HIV). Zusätzlich ist das ISSP Modul \"Soziale Ungleichheit II\" enthalten.",
    "en" : "ALLBUS (GGSS - the German General Social Survey) is a biennial trend survey based on random samples of the German population. Established in 1980, its mission is to monitor attitudes, behavior, and social change in Germany. Each ALLBUS cross-sectional survey consists of one or two main question modules covering changing topics, a range of supplementary questions and a core module providing detailed demographic information. Additionally, data on the interview and the interviewers are provided as well. Key topics generally follow a 10-year replication cycle, many individual indicators and item batteries are replicated at shorter intervals.\nSince the mid-1980ies ALLBUS also regularly hosts one or two modules of the ISSP (International Social Survey Programme).\nThe main question module of ALLBUS/GGSS 1992 addresses religion and worldviews and includes questions about cosmologies (opinions about the existence of a higher reality), views about the meaning of life, and questions about religiosity and religious denomination. Other topics include attitudes towards politics and economy, attitudes towards the process of the German reunification, and questions on AIDS (HIV). In addition, the ISSP module \"Social Inequality II\" is included."
  },
  "availability" : {
    "availabilityType" : "Download",
    "embargoDate" : "",
    "label" : [ {
      "pref" : "A - Daten und Dokumente sind für die akademische Forschung und Lehre freigegeben.",
      "de" : "A - Daten und Dokumente sind für die akademische Forschung und Lehre freigegeben.",
      "en" : "A - Data and documents are released for academic research and teaching."
    } ]
  },
  "collectionModes" : [ {
    "type" : "Interview.FaceToFace.PAPI"
  }, {
    "type" : "SelfAdministeredQuestionnaire.Paper"
  }, {
    "label" : {
      "pref" : "Mündliche Befragung mit standardisiertem Fragebogen und schriftliche\nZusatzbefragung (drop off) im Rahmen des ISSP",
      "de" : "Mündliche Befragung mit standardisiertem Fragebogen und schriftliche\nZusatzbefragung (drop off) im Rahmen des ISSP",
      "en" : "Personal interview with standardized questionnaire (PAPI - Paper and\nPencil Interviewing), additional self-completion questionnaire (drop\noff) for ISSP"
    }
  } ],
  "contributions" : [ {
    "type" : [ "Creator" ],
    "agent" : {
      "type" : [ "Institution" ],
      "uri" : "info:searchapp/vocab/adhoc/R0VTSVMgLSBMZWlibml6LUluc3RpdHV0IGbDvHIgU296aWFsd2lzc2Vuc2NoYWZ0ZW4=",
      "label" : "GESIS - Leibniz-Institut für Sozialwissenschaften"
    },
    "role" : [ ]
  } ],
  "describedBy" : {
    "uri" : "https://git.gesis.org/datorium/dbk-oai-dprex-set-data/oai.dbk.gesis.org.DBK.ZA2140",
    "type" : "ResearchData",
    "modifiedBy" : {
      "uri" : "https://searchapp-indexer",
      "label" : {
        "pref" : "Searchapp Indexer"
      },
      "dateCreated" : "2024-06-21T05:26:26.77+02:00",
      "dateModified" : "2024-06-21T05:26:26.77+02:00",
      "inDataset" : {
        "uri" : "https://dbkapps.gesis.org/dbkoai/?verb=ListIdentifiers&metadataPrefix=oai_dara&set=DPREX"
      },
      "resultOf" : {
        "type" : [ "CreateAction" ],
        "endTime" : "2024-06-21T05:26:26.77+02:00",
        "instrument" : {
          "uri" : "https://git.gesis.org/datorium/searchapp-indexer",
          "type" : [ "SoftwareApplication" ],
          "label" : "Searchapp Indexer"
        },
        "srcObject" : {
          "uri" : "https://dbkapps.gesis.org/dbkoai/?verb=GetRecord&metadataPrefix=oai_dara&identifier=oai:dbk.gesis.org:DBK/ZA2140",
          "type" : [ "DataFeedItem" ],
          "inDataset" : {
            "uri" : "https://dbkapps.gesis.org/dbkoai/?verb=ListIdentifiers&metadataPrefix=oai_dara&set=DPREX",
            "label" : "DBK_OAI"
          }
        }
      }
    }
  },
  "documentId" : "oai.dbk.gesis.org.DBK.ZA2140",
  "geographicCoverages" : [ {
    "geographicCoverageControlled" : "DE"
  } ],
  "handles" : [ {
    "type" : "DOI",
    "notation" : "10.4232/1.11901",
    "url" : "https://doi.org/10.4232/1.11901",
    "source" : {
      "uri" : "https://www.da-ra.de/",
      "label" : "DARA"
    }
  } ],
  "natureOfContents" : [ {
    "uri" : "info:searchapp/vocab/Dataset",
    "label" : {
      "pref" : "Dataset",
      "de" : "Dataset",
      "en" : "Dataset"
    }
  } ],
  "publications" : [ {
    "type" : [ "PublicationEvent" ],
    "startDate" : "2014"
  } ],
  "resourceLanguage" : "deu",
  "rights" : {
    "licenseType" : "",
    "label" : {
      "pref" : "Alle im GESIS DBK veröffentlichten Metadaten sind frei verfügbar unter den Creative Commons CC0 1.0 Universal Public Domain Dedication. GESIS bittet jedoch darum, dass Sie alle Metadatenquellen anerkennen und sie nennen, etwa die Datengeber oder jeglichen Aggregator, inklusive GESIS selbst. Für weitere Informationen siehe https://dbk.gesis.org/dbksearch/guidelines.asp?db=d",
      "de" : "Alle im GESIS DBK veröffentlichten Metadaten sind frei verfügbar unter den Creative Commons CC0 1.0 Universal Public Domain Dedication. GESIS bittet jedoch darum, dass Sie alle Metadatenquellen anerkennen und sie nennen, etwa die Datengeber oder jeglichen Aggregator, inklusive GESIS selbst. Für weitere Informationen siehe https://dbk.gesis.org/dbksearch/guidelines.asp?db=d",
      "en" : "All metadata from GESIS DBK are available free of restriction under the Creative Commons CC0 1.0 Universal Public Domain Dedication. However, GESIS requests that you actively acknowledge and give attribution to all metadata sources, such as the data providers and any data aggregators, including GESIS. For further information see https://dbk.gesis.org/dbksearch/guidelines.asp"
    }
  },
  "sampling" : {
    "method" : {
      "pref" : "Wahrscheinlichkeitsauswahl: Disproportional geschichtete Zufallsauswahl; Wahrscheinlichkeitsauswahl: Mehrstufige Zufallsauswahl; Auswahlverfahren Kommentar: Haushaltsstichprobe: Mehrstufig geschichtete Zufallsauswahl\n(ADM-Mastersample) in Westdeutschland (incl. West-Berlin) und\nOstdeutschland (incl. Ost-Berlin).\nGrundlage für die Auswahl war in Westdeutschland das von Infratest\nmodifizierte ADM-Master-Design, in Ostdeutschland das\nInfratest-Mastersample Ost mit jeweils anschließendem Random-Route. Der\ndisproportionale Stichprobenansatz war so gestaltet, daß die\nWest-Ost-Relation der auswertbaren Interviews ca. 2 : 1 betrug.\nZielpersonen mit nicht hinreichend guten Deutschkenntnissen zählen zu\nden systematischen Ausfällen.",
      "de" : "Wahrscheinlichkeitsauswahl: Disproportional geschichtete Zufallsauswahl; Wahrscheinlichkeitsauswahl: Mehrstufige Zufallsauswahl; Auswahlverfahren Kommentar: Haushaltsstichprobe: Mehrstufig geschichtete Zufallsauswahl\n(ADM-Mastersample) in Westdeutschland (incl. West-Berlin) und\nOstdeutschland (incl. Ost-Berlin).\nGrundlage für die Auswahl war in Westdeutschland das von Infratest\nmodifizierte ADM-Master-Design, in Ostdeutschland das\nInfratest-Mastersample Ost mit jeweils anschließendem Random-Route. Der\ndisproportionale Stichprobenansatz war so gestaltet, daß die\nWest-Ost-Relation der auswertbaren Interviews ca. 2 : 1 betrug.\nZielpersonen mit nicht hinreichend guten Deutschkenntnissen zählen zu\nden systematischen Ausfällen.",
      "en" : "Probability: Stratified: Disproportional; Probability: Multistage; Sampling Procedure Comment: Household sample: Multi-stage random sample (ADM-Mastersample). The basis for selection in western Germany was the ADM-Master-Design as modified by Infratest and in eastern Germany the Infratest Mastersample East, each with subsequent random route. The disproportionate sampling approach was set up such that the West-East relation of usable interviews was about 2:1.\nTargeted individuals who did not have adequate knowledge of German to\nconduct the interview were treated as systematic unit non-responses."
    }
  },
  "subjects" : [ {
    "type" : [ "SubjectHeading" ],
    "uri" : "info:searchapp/vocab/adhoc/QmVzY2jDpGZ0aWd1bmcgdW5kIEVyd2VyYnN0w6R0aWdrZWl0",
    "notation" : "",
    "source" : {
      "uri" : "info:searchapp/vocab/adhoc/Q0VTU0RBIFRvcGljIENsYXNzaWZpY2F0aW9u",
      "label" : "CESSDA Topic Classification"
    },
    "label" : {
      "pref" : "Beschäftigung und Erwerbstätigkeit",
      "de" : "Beschäftigung und Erwerbstätigkeit",
      "en" : "Employment"
    }
  }, {
    "type" : [ "SubjectHeading" ],
    "uri" : "info:searchapp/vocab/adhoc/TWlncmF0aW9u",
    "notation" : "",
    "source" : {
      "uri" : "info:searchapp/vocab/adhoc/Q0VTU0RBIFRvcGljIENsYXNzaWZpY2F0aW9u",
      "label" : "CESSDA Topic Classification"
    },
    "label" : {
      "pref" : "Migration",
      "de" : "Migration",
      "en" : "Migration"
    }
  }, {
    "type" : [ "SubjectHeading" ],
    "uri" : "info:searchapp/vocab/adhoc/S3VsdHVyZWxsZSB1bmQgbmF0aW9uYWxlIElkZW50aXTDpHQ=",
    "notation" : "",
    "source" : {
      "uri" : "info:searchapp/vocab/adhoc/Q0VTU0RBIFRvcGljIENsYXNzaWZpY2F0aW9u",
      "label" : "CESSDA Topic Classification"
    },
    "label" : {
      "pref" : "Kulturelle und nationale Identität",
      "de" : "Kulturelle und nationale Identität",
      "en" : "Cultural and national identity"
    }
  }, {
    "type" : [ "SubjectHeading" ],
    "uri" : "info:searchapp/vocab/adhoc/UmVsaWdpb24gdW5kIFdlcnRl",
    "notation" : "",
    "source" : {
      "uri" : "info:searchapp/vocab/adhoc/Q0VTU0RBIFRvcGljIENsYXNzaWZpY2F0aW9u",
      "label" : "CESSDA Topic Classification"
    },
    "label" : {
      "pref" : "Religion und Werte",
      "de" : "Religion und Werte",
      "en" : "Religion and values"
    }
  }, {
    "type" : [ "SubjectHeading" ],
    "uri" : "info:searchapp/vocab/adhoc/U296aWFsZSBMYWdlIHVuZCBzb3ppYWxlIEluZGlrYXRvcmVu",
    "notation" : "",
    "source" : {
      "uri" : "info:searchapp/vocab/adhoc/Q0VTU0RBIFRvcGljIENsYXNzaWZpY2F0aW9u",
      "label" : "CESSDA Topic Classification"
    },
    "label" : {
      "pref" : "Soziale Lage und soziale Indikatoren",
      "de" : "Soziale Lage und soziale Indikatoren",
      "en" : "Social conditions and indicators"
    }
  }, {
    "type" : [ "SubjectHeading" ],
    "uri" : "info:searchapp/vocab/adhoc/U3BlemlmaXNjaGUgS3JhbmtoZWl0ZW4sIFN0w7ZydW5nZW4gdW5kIEdlc3VuZGhlaXRzcHJvYmxlbWU=",
    "notation" : "",
    "source" : {
      "uri" : "info:searchapp/vocab/adhoc/Q0VTU0RBIFRvcGljIENsYXNzaWZpY2F0aW9u",
      "label" : "CESSDA Topic Classification"
    },
    "label" : {
      "pref" : "Spezifische Krankheiten, Störungen und Gesundheitsprobleme",
      "de" : "Spezifische Krankheiten, Störungen und Gesundheitsprobleme",
      "en" : "Specific diseases, disorders and medical conditions"
    }
  }, {
    "type" : [ "SubjectHeading" ],
    "uri" : "info:searchapp/vocab/adhoc/UG9saXRpc2NoZXMgVmVyaGFsdGVuIHVuZCBwb2xpdGlzY2hlIEVpbnN0ZWxsdW5nZW4=",
    "notation" : "",
    "source" : {
      "uri" : "info:searchapp/vocab/adhoc/Q0VTU0RBIFRvcGljIENsYXNzaWZpY2F0aW9u",
      "label" : "CESSDA Topic Classification"
    },
    "label" : {
      "pref" : "Politisches Verhalten und politische Einstellungen",
      "de" : "Politisches Verhalten und politische Einstellungen",
      "en" : "Political behaviour and attitudes"
    }
  }, {
    "type" : [ "SubjectHeading" ],
    "uri" : "info:searchapp/vocab/adhoc/UmVnaWVydW5nLCBwb2xpdGlzY2hlIFN5c3RlbWUsIFBhcnRlaWVuIHVuZCBPcmdhbmlzYXRpb25lbg==",
    "notation" : "",
    "source" : {
      "uri" : "info:searchapp/vocab/adhoc/Q0VTU0RBIFRvcGljIENsYXNzaWZpY2F0aW9u",
      "label" : "CESSDA Topic Classification"
    },
    "label" : {
      "pref" : "Regierung, politische Systeme, Parteien und Organisationen",
      "de" : "Regierung, politische Systeme, Parteien und Organisationen",
      "en" : "Government, political systems and organisations"
    }
  }, {
    "type" : [ "SubjectHeading" ],
    "uri" : "info:searchapp/vocab/adhoc/V2FobGVu",
    "notation" : "",
    "source" : {
      "uri" : "info:searchapp/vocab/adhoc/Q0VTU0RBIFRvcGljIENsYXNzaWZpY2F0aW9u",
      "label" : "CESSDA Topic Classification"
    },
    "label" : {
      "pref" : "Wahlen",
      "de" : "Wahlen",
      "en" : "Elections"
    }
  }, {
    "type" : [ "SubjectHeading" ],
    "uri" : "info:searchapp/vocab/adhoc/U09aSUFMRSBTQ0hJQ0hUVU5HIFVORCBHUlVQUElFUlVOR0VO",
    "notation" : "",
    "source" : {
      "uri" : "info:searchapp/vocab/adhoc/Q0VTU0RBIFRvcGljIENsYXNzaWZpY2F0aW9u",
      "label" : "CESSDA Topic Classification"
    },
    "label" : {
      "pref" : "SOZIALE SCHICHTUNG UND GRUPPIERUNGEN",
      "de" : "SOZIALE SCHICHTUNG UND GRUPPIERUNGEN",
      "en" : "SOCIAL STRATIFICATION AND GROUPINGS"
    }
  }, {
    "type" : [ "SubjectHeading" ],
    "uri" : "info:searchapp/vocab/adhoc/RmFtaWxpZSB1bmQgRWhl",
    "notation" : "",
    "source" : {
      "uri" : "info:searchapp/vocab/adhoc/Q0VTU0RBIFRvcGljIENsYXNzaWZpY2F0aW9u",
      "label" : "CESSDA Topic Classification"
    },
    "label" : {
      "pref" : "Familie und Ehe",
      "de" : "Familie und Ehe",
      "en" : "Family life and marriage"
    }
  }, {
    "type" : [ "SubjectHeading" ],
    "uri" : "info:searchapp/vocab/adhoc/R2xlaWNoaGVpdCwgVW5nbGVpY2hoZWl0IHVuZCBzb3ppYWxlIEF1c2dyZW56dW5n",
    "notation" : "",
    "source" : {
      "uri" : "info:searchapp/vocab/adhoc/Q0VTU0RBIFRvcGljIENsYXNzaWZpY2F0aW9u",
      "label" : "CESSDA Topic Classification"
    },
    "label" : {
      "pref" : "Gleichheit, Ungleichheit und soziale Ausgrenzung",
      "de" : "Gleichheit, Ungleichheit und soziale Ausgrenzung",
      "en" : "Equality, inequality and social exclusion"
    }
  }, {
    "type" : [ "SubjectHeading" ],
    "uri" : "info:searchapp/vocab/adhoc/S2luZGVy",
    "notation" : "",
    "source" : {
      "uri" : "info:searchapp/vocab/adhoc/Q0VTU0RBIFRvcGljIENsYXNzaWZpY2F0aW9u",
      "label" : "CESSDA Topic Classification"
    },
    "label" : {
      "pref" : "Kinder",
      "de" : "Kinder",
      "en" : "Children"
    }
  }, {
    "type" : [ "SubjectHeading" ],
    "uri" : "info:searchapp/vocab/adhoc/V2lydHNjaGFmdHNzeXN0ZW1lIHVuZCB3aXJ0c2NoYWZ0bGljaGUgRW50d2lja2x1bmc=",
    "notation" : "",
    "source" : {
      "uri" : "info:searchapp/vocab/adhoc/Q0VTU0RBIFRvcGljIENsYXNzaWZpY2F0aW9u",
      "label" : "CESSDA Topic Classification"
    },
    "label" : {
      "pref" : "Wirtschaftssysteme und wirtschaftliche Entwicklung",
      "de" : "Wirtschaftssysteme und wirtschaftliche Entwicklung",
      "en" : "Economic systems and development"
    }
  } ],
  "temporalCoverages" : [ {
    "startDate" : "1992-05",
    "endDate" : "1992-06",
    "labels" : [ ]
  } ],
  "timeDimensions" : [ {
    "timeDimensionType" : "CrossSection"
  } ],
  "title" : {
    "pref" : "Allgemeine Bevölkerungsumfrage der Sozialwissenschaften ALLBUS 1992",
    "de" : "Allgemeine Bevölkerungsumfrage der Sozialwissenschaften ALLBUS 1992",
    "en" : "ALLBUS/GGSS 1992 (Allgemeine Bevölkerungsumfrage der \\nSozialwissenschaften/German General Social \\nSurvey 1992)"
  },
  "universe" : {
    "sampled" : {
      "pref" : "In der Bundesrepublik Deutschland lebende Personen (Deutsche und\nAusländer), die zum Befragungstag das 18. Lebensjahr vollendet hatten.",
      "de" : "In der Bundesrepublik Deutschland lebende Personen (Deutsche und\nAusländer), die zum Befragungstag das 18. Lebensjahr vollendet hatten.",
      "en" : "Private households in the new and old states addressing all individuals (German and non-German) who were at least 18 years of age by the day of the interview"
    }
  },
  "uri" : "https://doi.org/10.4232/1.11901",
  "searchappPublisher" : {
    "shortName" : "GESIS",
    "name" : {
      "de" : "GESIS - Leibniz Institut für Sozialwissenschaften",
      "en" : "GESIS - Leibniz Institute for the Social Sciences"
    },
    "url" : "https://www.gesis.org/"
  },
  "calculatedTemporalCoverage" : {
    "label" : "1992",
    "dates" : [ "1992" ]
  }
}
