{
  "abstract" : {
    "pref" : "Vorurteile und Stereotype der Franzosen gegenüber Deutschen.\nThemen: Persönliche Beziehungen zu Deutschen; Einschätzung derSympathie verschiedener Nationalitäten; Einstellung zu Deutschen(Skala); deutsch-französische Freundschaft; Bekanntheitsgrad desdeutschen Kanzlers; Auslandsreisen.\nDemographie: Alter (klassiert); Geschlecht; Schulbildung; Beruf;Parteipräferenz; Ortsgröße; Besitz langlebiger Wirtschaftsgüter;Mediennutzung.\nInterviewerrating: Schichtzugehörigkeit des Befragten.",
    "de" : "Vorurteile und Stereotype der Franzosen gegenüber Deutschen.\nThemen: Persönliche Beziehungen zu Deutschen; Einschätzung derSympathie verschiedener Nationalitäten; Einstellung zu Deutschen(Skala); deutsch-französische Freundschaft; Bekanntheitsgrad desdeutschen Kanzlers; Auslandsreisen.\nDemographie: Alter (klassiert); Geschlecht; Schulbildung; Beruf;Parteipräferenz; Ortsgröße; Besitz langlebiger Wirtschaftsgüter;Mediennutzung.\nInterviewerrating: Schichtzugehörigkeit des Befragten.",
    "en" : "Prejudices and stereotypes of the French regarding Germans. \nTopics: The content of the questionnaire is identical to that of ZAStudy No. 0200. \nDemography: age (classified); sex; school education; occupation; partypreference; city size; possession of durable economic goods; mediausage. \nInterviewer rating: social class of respondent."
  },
  "availability" : {
    "availabilityType" : "Delivery",
    "embargoDate" : "",
    "label" : [ {
      "pref" : "A - Daten und Dokumente sind für die akademische Forschung und Lehre freigegeben.",
      "de" : "A - Daten und Dokumente sind für die akademische Forschung und Lehre freigegeben.",
      "en" : "A - Data and documents are released for academic research and teaching."
    } ]
  },
  "collectionModes" : [ {
    "label" : {
      "pref" : "Mündliche Befragung mit standardisiertem Fragebogen",
      "de" : "Mündliche Befragung mit standardisiertem Fragebogen",
      "en" : "Oral survey with standardized questionnaire"
    }
  } ],
  "contributions" : [ {
    "type" : [ "Creator" ],
    "agent" : {
      "type" : [ "Institution" ],
      "uri" : "info:searchapp/vocab/adhoc/U2VydmljZXMgZGUgU29uZGFnZXMgZXQgU3RhdGlzdGlxdWVzLCBQYXJpcw==",
      "label" : "Services de Sondages et Statistiques, Paris"
    },
    "role" : [ ]
  } ],
  "describedBy" : {
    "uri" : "https://git.gesis.org/datorium/dbk-oai-dprex-set-data/oai.dbk.gesis.org.DBK.ZA0201",
    "type" : "ResearchData",
    "modifiedBy" : {
      "uri" : "https://searchapp-indexer",
      "label" : {
        "pref" : "Searchapp Indexer"
      },
      "dateCreated" : "2024-06-21T05:26:27.26+02:00",
      "dateModified" : "2024-06-21T05:26:27.26+02:00",
      "inDataset" : {
        "uri" : "https://dbkapps.gesis.org/dbkoai/?verb=ListIdentifiers&metadataPrefix=oai_dara&set=DPREX"
      },
      "resultOf" : {
        "type" : [ "CreateAction" ],
        "endTime" : "2024-06-21T05:26:27.26+02:00",
        "instrument" : {
          "uri" : "https://git.gesis.org/datorium/searchapp-indexer",
          "type" : [ "SoftwareApplication" ],
          "label" : "Searchapp Indexer"
        },
        "srcObject" : {
          "uri" : "https://dbkapps.gesis.org/dbkoai/?verb=GetRecord&metadataPrefix=oai_dara&identifier=oai:dbk.gesis.org:DBK/ZA0201",
          "type" : [ "DataFeedItem" ],
          "inDataset" : {
            "uri" : "https://dbkapps.gesis.org/dbkoai/?verb=ListIdentifiers&metadataPrefix=oai_dara&set=DPREX",
            "label" : "DBK_OAI"
          }
        }
      }
    }
  },
  "documentId" : "oai.dbk.gesis.org.DBK.ZA0201",
  "geographicCoverages" : [ {
    "geographicCoverageControlled" : "FR"
  } ],
  "handles" : [ {
    "type" : "DOI",
    "notation" : "10.4232/1.0201",
    "url" : "https://doi.org/10.4232/1.0201",
    "source" : {
      "uri" : "https://www.da-ra.de/",
      "label" : "DARA"
    }
  } ],
  "natureOfContents" : [ {
    "uri" : "info:searchapp/vocab/Dataset",
    "label" : {
      "pref" : "Dataset",
      "de" : "Dataset",
      "en" : "Dataset"
    }
  } ],
  "publications" : [ {
    "type" : [ "PublicationEvent" ],
    "startDate" : "1966"
  } ],
  "resourceLanguage" : "fra",
  "rights" : {
    "licenseType" : "",
    "label" : {
      "pref" : "Alle im GESIS DBK veröffentlichten Metadaten sind frei verfügbar unter den Creative Commons CC0 1.0 Universal Public Domain Dedication. GESIS bittet jedoch darum, dass Sie alle Metadatenquellen anerkennen und sie nennen, etwa die Datengeber oder jeglichen Aggregator, inklusive GESIS selbst. Für weitere Informationen siehe https://dbk.gesis.org/dbksearch/guidelines.asp?db=d",
      "de" : "Alle im GESIS DBK veröffentlichten Metadaten sind frei verfügbar unter den Creative Commons CC0 1.0 Universal Public Domain Dedication. GESIS bittet jedoch darum, dass Sie alle Metadatenquellen anerkennen und sie nennen, etwa die Datengeber oder jeglichen Aggregator, inklusive GESIS selbst. Für weitere Informationen siehe https://dbk.gesis.org/dbksearch/guidelines.asp?db=d",
      "en" : "All metadata from GESIS DBK are available free of restriction under the Creative Commons CC0 1.0 Universal Public Domain Dedication. However, GESIS requests that you actively acknowledge and give attribution to all metadata sources, such as the data providers and any data aggregators, including GESIS. For further information see https://dbk.gesis.org/dbksearch/guidelines.asp"
    }
  },
  "sampling" : {
    "method" : {
      "pref" : "Auswahlverfahren Kommentar: Geschichtete Zufallsauswahl",
      "de" : "Auswahlverfahren Kommentar: Geschichtete Zufallsauswahl",
      "en" : "Sampling Procedure Comment: Stratified random sample"
    }
  },
  "subjects" : [ {
    "type" : [ "SubjectHeading" ],
    "uri" : "info:searchapp/vocab/adhoc/S3VsdHVyZWxsZSB1bmQgbmF0aW9uYWxlIElkZW50aXTDpHQ=",
    "notation" : "",
    "source" : {
      "uri" : "info:searchapp/vocab/adhoc/Q0VTU0RBIFRvcGljIENsYXNzaWZpY2F0aW9u",
      "label" : "CESSDA Topic Classification"
    },
    "label" : {
      "pref" : "Kulturelle und nationale Identität",
      "de" : "Kulturelle und nationale Identität",
      "en" : "Cultural and national identity"
    }
  } ],
  "temporalCoverages" : [ {
    "startDate" : "1959-05",
    "labels" : [ ]
  } ],
  "timeDimensions" : [ {
    "timeDimensionType" : ""
  } ],
  "title" : {
    "pref" : "L'Allemagne et l'opinion publique francaise (1959)",
    "de" : "L'Allemagne et l'opinion publique francaise (1959)",
    "en" : "L'Allemagne et l'opinion publique francaise (1959)"
  },
  "universe" : {
    "sampled" : {
      "pref" : "Alter: 20 Jahre und älter",
      "de" : "Alter: 20 Jahre und älter",
      "en" : "Age: 20 and older."
    }
  },
  "uri" : "https://doi.org/10.4232/1.0201",
  "searchappPublisher" : {
    "shortName" : "GESIS",
    "name" : {
      "de" : "GESIS - Leibniz Institut für Sozialwissenschaften",
      "en" : "GESIS - Leibniz Institute for the Social Sciences"
    },
    "url" : "https://www.gesis.org/"
  },
  "calculatedTemporalCoverage" : {
    "label" : "1959",
    "dates" : [ "1959" ]
  }
}
