{
  "abstract" : {
    "pref" : "Der Thüringen-Monitor ist eine seit 2000 jährlich stattfindende repräsentative Bevölkerungsbefragung zur politischen Kultur im Freistaat Thüringen mit festen und wechselnden Fragenkomplexen. Der Thüringen-Monitor wird von der Thüringer Staatskanzlei (Erfurt) in Auftrag gegeben. Ein besonderer Fokus liegt auf der Erforschung rechtsextremer Einstellungen, der Demokratieakzeptanz, der Demokratiezufriedenheit und dem Institutionenvertrauen der Thüringer Bevölkerung. Grundgesamtheit ist die wahlberechtigte Bevölkerung des Freistaats Thüringen. Bis 2022 wurden im Trend-Design von wechselnden Befragungsinstituten insgesamt 22 Befragungswellen mit jeweils min. 1.000 Befragten durchgeführt (CATI, Stichprobenziehung nach dem Gabler-Häder-Design). 2009 fand keine Befragung statt. Die Daten wurden ab 2012 nach Angaben des Thüringer Landesamtes für Statistik bezüglich des Alters, des Geschlechts, der Bildung und der Haushaltsgröße gewichtet (IPF-Gewichtung).\nIm Thüringen-Monitor wurden von 2000 bis 2022 insgesamt 1.362 verschiedene Variablen erhoben, die sich den folgenden Kategorien zuordnen lassen:  \t\t\t\t\t1 Deprivation/Anomie/Zufriedenheit\t\t\t\t\t\t2 Thüringen/Identität/Deutsche Einheit\t\t\t\t\t\t3 Politik/Demokratie/Institutionen/Akteure\t\t\t\t\t4 Rechtsextremismus/Einstellung zu Migration/Minderheiten\t\t\t5 DDR/Sozialismus\t\t\t\t\t\t6 Sozialstaat/Marktwirtschaft/Ökologie\t\t\t\t\t\t7 Gesellschaftliche Probleme\t\t\t\t\t\t8 Werte\t\t\t\t\t\t9 Familie/Erziehung und Bildung/Generationenbeziehungen\t\t\t\t10 Internationalisierung/Europäisierung/kulturelle Kompetenz\t11 Gesundheit und Pflege 12 Covid-19 Pandemie13 Stadt und Land14 Umwelt und Klima\nDie Messreihe zu rechtsextremen Einstellungen basiert auf zehn Zustimmungsitems (mit vierstufigen Antwortskalen) und beginnt 2001. Sie erfasst nach der Konsensdefinition des Rechtsextremismus die Einstellungsdimensionen Fremdenfeindlichkeit, Nationalismus/Chauvinismus, Sozialdarwinismus, Verharmlosung des Nationalsozialismus, Antisemitismus sowie die Befürwortung einer rechten Diktatur (vgl. Heinrich Best / Katja Salomo (2014): Güte und Reichweite der Messung des Rechtsextremismus im THÜRINGEN-MONITOR 2000 bis 2014. Expertise für die Thüringer Staatskanzlei. Erfurt.)",
    "de" : "Der Thüringen-Monitor ist eine seit 2000 jährlich stattfindende repräsentative Bevölkerungsbefragung zur politischen Kultur im Freistaat Thüringen mit festen und wechselnden Fragenkomplexen. Der Thüringen-Monitor wird von der Thüringer Staatskanzlei (Erfurt) in Auftrag gegeben. Ein besonderer Fokus liegt auf der Erforschung rechtsextremer Einstellungen, der Demokratieakzeptanz, der Demokratiezufriedenheit und dem Institutionenvertrauen der Thüringer Bevölkerung. Grundgesamtheit ist die wahlberechtigte Bevölkerung des Freistaats Thüringen. Bis 2022 wurden im Trend-Design von wechselnden Befragungsinstituten insgesamt 22 Befragungswellen mit jeweils min. 1.000 Befragten durchgeführt (CATI, Stichprobenziehung nach dem Gabler-Häder-Design). 2009 fand keine Befragung statt. Die Daten wurden ab 2012 nach Angaben des Thüringer Landesamtes für Statistik bezüglich des Alters, des Geschlechts, der Bildung und der Haushaltsgröße gewichtet (IPF-Gewichtung).\nIm Thüringen-Monitor wurden von 2000 bis 2022 insgesamt 1.362 verschiedene Variablen erhoben, die sich den folgenden Kategorien zuordnen lassen:  \t\t\t\t\t1 Deprivation/Anomie/Zufriedenheit\t\t\t\t\t\t2 Thüringen/Identität/Deutsche Einheit\t\t\t\t\t\t3 Politik/Demokratie/Institutionen/Akteure\t\t\t\t\t4 Rechtsextremismus/Einstellung zu Migration/Minderheiten\t\t\t5 DDR/Sozialismus\t\t\t\t\t\t6 Sozialstaat/Marktwirtschaft/Ökologie\t\t\t\t\t\t7 Gesellschaftliche Probleme\t\t\t\t\t\t8 Werte\t\t\t\t\t\t9 Familie/Erziehung und Bildung/Generationenbeziehungen\t\t\t\t10 Internationalisierung/Europäisierung/kulturelle Kompetenz\t11 Gesundheit und Pflege 12 Covid-19 Pandemie13 Stadt und Land14 Umwelt und Klima\nDie Messreihe zu rechtsextremen Einstellungen basiert auf zehn Zustimmungsitems (mit vierstufigen Antwortskalen) und beginnt 2001. Sie erfasst nach der Konsensdefinition des Rechtsextremismus die Einstellungsdimensionen Fremdenfeindlichkeit, Nationalismus/Chauvinismus, Sozialdarwinismus, Verharmlosung des Nationalsozialismus, Antisemitismus sowie die Befürwortung einer rechten Diktatur (vgl. Heinrich Best / Katja Salomo (2014): Güte und Reichweite der Messung des Rechtsextremismus im THÜRINGEN-MONITOR 2000 bis 2014. Expertise für die Thüringer Staatskanzlei. Erfurt.)",
    "en" : "The Thüringen-Monitor is a representative population survey on political culture in the Free State of Thuringia that has been held annually since 2000. It contains fixed and changing questions. The Thuringia Monitor is commissioned by the Thuringian State Chancellery (Erfurt). A particular focus is on research into right-wing extremist attitudes, acceptance of democracy, satisfaction with democracy and the institutional trust of the Thuringian population. The basic population is the electorate of the Free State of Thuringia. By 2022, a total of 22 survey waves with at least 1,000 respondents each were carried out in the trend design by changing survey institutes (CATI, random sampling according to the Gabler-Häder design). No survey took place in 2009. From 2012, the data were weighted according to the Thuringian State Statistical Office with regard to age, gender, education and household size (IPF weighting).\nFrom 2000 to 2022, a total of 1,362 different variables were collected in the Thüringen-Monitor, which can be assigned to the following categories:\n1 Deprivation/Anomy/Satisfaction2 Thuringia/Identity/German Unity3 Politics/Democracy/Institutions/Actors4 Right-wing extremism/attitude towards migration/minorities5 GDR/Socialism6 Social State/Market Economy/Ecology7 Social problems8 Values9 Family/education and education/generational relations10 Internationalization/Europeanization/Cultural Competence11 Health and care12 Covid-19 Pandemic13 City and country14 Environment and climate\nThe series of measurements on right-wing extremist attitudes is based on ten consent items (with four-step response scales) and begins in 2001. According to the consensus definition of right-wing extremism, it covers the following attitudinal dimensions: xenophobia, nationalism/chauvinism, social Darwinism, trivialisation of National Socialism, anti-Semitism and advocacy of a right-wing dictatorship (vgl. Heinrich Best / Katja Salomo (2014): Güte und Reichweite der Messung des Rechtsextremismus im THÜRINGEN-MONITOR 2000 bis 2014. Expertise für die Thüringer Staatskanzlei. Erfurt.)"
  },
  "availability" : {
    "availabilityType" : "Download",
    "embargoDate" : "",
    "label" : [ {
      "pref" : "0 - Daten und Dokumente sind für jedermann freigegeben.",
      "de" : "0 - Daten und Dokumente sind für jedermann freigegeben.",
      "en" : "0 - Data and documents are released for everybody."
    } ]
  },
  "collectionModes" : [ {
    "type" : "Interview.Telephone.CATI"
  } ],
  "contributions" : [ {
    "type" : [ "Creator" ],
    "agent" : {
      "type" : [ "Person" ],
      "uri" : "info:searchapp/vocab/adhoc/U2NobWl0dCwgS2FybA==",
      "label" : "Schmitt, Karl",
      "affiliation" : {
        "uri" : "info:searchapp/vocab/adhoc/SW5zdGl0dXQgZsO8ciBQb2xpdGlrd2lzc2Vuc2NoYWZ0LCBGcmllZHJpY2gtU2NoaWxsZXItVW5pdmVyc2l0w6R0IEplbmE=",
        "label" : {
          "pref" : "Institut für Politikwissenschaft, Friedrich-Schiller-Universität Jena",
          "de" : "Institut für Politikwissenschaft, Friedrich-Schiller-Universität Jena",
          "en" : "Institut für Politikwissenschaft, Friedrich-Schiller-Universität Jena"
        }
      }
    },
    "role" : [ ]
  }, {
    "type" : [ "Creator" ],
    "agent" : {
      "type" : [ "Person" ],
      "uri" : "info:searchapp/vocab/adhoc/QmVzdCwgSGVpbnJpY2g=",
      "label" : "Best, Heinrich",
      "affiliation" : {
        "uri" : "info:searchapp/vocab/adhoc/SW5zdGl0dXQgZsO8ciBTb3ppb2xvZ2llLCBGcmllZHJpY2gtU2NoaWxsZXItVW5pdmVyc2l0w6R0IEplbmE=",
        "label" : {
          "pref" : "Institut für Soziologie, Friedrich-Schiller-Universität Jena",
          "de" : "Institut für Soziologie, Friedrich-Schiller-Universität Jena",
          "en" : "Institut für Soziologie, Friedrich-Schiller-Universität Jena"
        }
      }
    },
    "role" : [ ]
  }, {
    "type" : [ "Creator" ],
    "agent" : {
      "type" : [ "Person" ],
      "uri" : "info:searchapp/vocab/adhoc/UmVpc2VyLCBNYXJpb24=",
      "label" : "Reiser, Marion",
      "affiliation" : {
        "uri" : "info:searchapp/vocab/adhoc/SW5zdGl0dXQgZsO8ciBQb2xpdGlrd2lzc2Vuc2NoYWZ0LCBGcmllZHJpY2gtU2NoaWxsZXItVW5pdmVyc2l0w6R0IEplbmE=",
        "label" : {
          "pref" : "Institut für Politikwissenschaft, Friedrich-Schiller-Universität Jena",
          "de" : "Institut für Politikwissenschaft, Friedrich-Schiller-Universität Jena",
          "en" : "Institut für Politikwissenschaft, Friedrich-Schiller-Universität Jena"
        }
      }
    },
    "role" : [ ]
  } ],
  "describedBy" : {
    "uri" : "https://git.gesis.org/datorium/dbk-oai-dprex-set-data/oai.dbk.gesis.org.DBK.ZA6345",
    "type" : "ResearchData",
    "modifiedBy" : {
      "uri" : "https://searchapp-indexer",
      "label" : {
        "pref" : "Searchapp Indexer"
      },
      "dateCreated" : "2024-06-21T05:26:26.747+02:00",
      "dateModified" : "2024-06-21T05:26:26.747+02:00",
      "inDataset" : {
        "uri" : "https://dbkapps.gesis.org/dbkoai/?verb=ListIdentifiers&metadataPrefix=oai_dara&set=DPREX"
      },
      "resultOf" : {
        "type" : [ "CreateAction" ],
        "endTime" : "2024-06-21T05:26:26.747+02:00",
        "instrument" : {
          "uri" : "https://git.gesis.org/datorium/searchapp-indexer",
          "type" : [ "SoftwareApplication" ],
          "label" : "Searchapp Indexer"
        },
        "srcObject" : {
          "uri" : "https://dbkapps.gesis.org/dbkoai/?verb=GetRecord&metadataPrefix=oai_dara&identifier=oai:dbk.gesis.org:DBK/ZA6345",
          "type" : [ "DataFeedItem" ],
          "inDataset" : {
            "uri" : "https://dbkapps.gesis.org/dbkoai/?verb=ListIdentifiers&metadataPrefix=oai_dara&set=DPREX",
            "label" : "DBK_OAI"
          }
        }
      }
    }
  },
  "documentId" : "oai.dbk.gesis.org.DBK.ZA6345",
  "dprexConcepts" : [ {
    "type" : [ "SubjectHeading" ],
    "uri" : "info:searchapp/vocab/adhoc/QW5vbWll",
    "notation" : "",
    "source" : {
      "uri" : "info:searchapp/vocab/adhoc/cmV4Y29uY2VwdHMvMS41LjA=",
      "label" : "rexconcepts/1.5.0"
    },
    "label" : {
      "pref" : "Anomie",
      "de" : "Anomie",
      "en" : "Anomia"
    }
  }, {
    "type" : [ "SubjectHeading" ],
    "uri" : "info:searchapp/vocab/adhoc/QW50aWZlbWluaXNtdXM=",
    "notation" : "",
    "source" : {
      "uri" : "info:searchapp/vocab/adhoc/cmV4Y29uY2VwdHMvMS41LjA=",
      "label" : "rexconcepts/1.5.0"
    },
    "label" : {
      "pref" : "Antifeminismus",
      "de" : "Antifeminismus",
      "en" : "Antifeminism"
    }
  }, {
    "type" : [ "SubjectHeading" ],
    "uri" : "info:searchapp/vocab/adhoc/QW50aXNlbWl0aXNtdXM=",
    "notation" : "",
    "source" : {
      "uri" : "info:searchapp/vocab/adhoc/cmV4Y29uY2VwdHMvMS41LjA=",
      "label" : "rexconcepts/1.5.0"
    },
    "label" : {
      "pref" : "Antisemitismus",
      "de" : "Antisemitismus",
      "en" : "Antisemitism"
    }
  }, {
    "type" : [ "SubjectHeading" ],
    "uri" : "info:searchapp/vocab/adhoc/QXV0b3JpdGFyaXNtdXM=",
    "notation" : "",
    "source" : {
      "uri" : "info:searchapp/vocab/adhoc/cmV4Y29uY2VwdHMvMS41LjA=",
      "label" : "rexconcepts/1.5.0"
    },
    "label" : {
      "pref" : "Autoritarismus",
      "de" : "Autoritarismus",
      "en" : "Authoritarianism"
    }
  }, {
    "type" : [ "SubjectHeading" ],
    "uri" : "info:searchapp/vocab/adhoc/QmVkcm9odW5nc3dhaHJuZWhtdW5nZW7CoA==",
    "notation" : "",
    "source" : {
      "uri" : "info:searchapp/vocab/adhoc/cmV4Y29uY2VwdHMvMS41LjA=",
      "label" : "rexconcepts/1.5.0"
    },
    "label" : {
      "pref" : "Bedrohungswahrnehmungen ",
      "de" : "Bedrohungswahrnehmungen ",
      "en" : "Threat perceptions"
    }
  }, {
    "type" : [ "SubjectHeading" ],
    "uri" : "info:searchapp/vocab/adhoc/Q2hhdXZpbmlzbXVz",
    "notation" : "",
    "source" : {
      "uri" : "info:searchapp/vocab/adhoc/cmV4Y29uY2VwdHMvMS41LjA=",
      "label" : "rexconcepts/1.5.0"
    },
    "label" : {
      "pref" : "Chauvinismus",
      "de" : "Chauvinismus",
      "en" : "Chauvinism"
    }
  }, {
    "type" : [ "SubjectHeading" ],
    "uri" : "info:searchapp/vocab/adhoc/RGVtb2tyYXRpZXZlcnN0w6RuZG5pcw==",
    "notation" : "",
    "source" : {
      "uri" : "info:searchapp/vocab/adhoc/cmV4Y29uY2VwdHMvMS41LjA=",
      "label" : "rexconcepts/1.5.0"
    },
    "label" : {
      "pref" : "Demokratieverständnis",
      "de" : "Demokratieverständnis",
      "en" : "Understanding of democracy"
    }
  }, {
    "type" : [ "SubjectHeading" ],
    "uri" : "info:searchapp/vocab/adhoc/RWluYsO8cmdlcnVuZ3NtYcOfbmFobWVu",
    "notation" : "",
    "source" : {
      "uri" : "info:searchapp/vocab/adhoc/cmV4Y29uY2VwdHMvMS41LjA=",
      "label" : "rexconcepts/1.5.0"
    },
    "label" : {
      "pref" : "Einbürgerungsmaßnahmen",
      "de" : "Einbürgerungsmaßnahmen",
      "en" : "Naturalisation measures"
    }
  }, {
    "type" : [ "SubjectHeading" ],
    "uri" : "info:searchapp/vocab/adhoc/RXRobm96ZW50cmlzbXVz",
    "notation" : "",
    "source" : {
      "uri" : "info:searchapp/vocab/adhoc/cmV4Y29uY2VwdHMvMS41LjA=",
      "label" : "rexconcepts/1.5.0"
    },
    "label" : {
      "pref" : "Ethnozentrismus",
      "de" : "Ethnozentrismus",
      "en" : "Ethnocentrism"
    }
  }, {
    "type" : [ "SubjectHeading" ],
    "uri" : "info:searchapp/vocab/adhoc/RnJlbWRlbmZlaW5kbGljaGtlaXQ=",
    "notation" : "",
    "source" : {
      "uri" : "info:searchapp/vocab/adhoc/cmV4Y29uY2VwdHMvMS41LjA=",
      "label" : "rexconcepts/1.5.0"
    },
    "label" : {
      "pref" : "Fremdenfeindlichkeit",
      "de" : "Fremdenfeindlichkeit",
      "en" : "Xenophobia"
    }
  }, {
    "type" : [ "SubjectHeading" ],
    "uri" : "info:searchapp/vocab/adhoc/SWRlbnRpdMOkdCAmIHNvemlhbGVzIFp1Z2Vow7ZyaWdrZWl0c2dlZsO8aGw=",
    "notation" : "",
    "source" : {
      "uri" : "info:searchapp/vocab/adhoc/cmV4Y29uY2VwdHMvMS41LjA=",
      "label" : "rexconcepts/1.5.0"
    },
    "label" : {
      "pref" : "Identität & soziales Zugehörigkeitsgefühl",
      "de" : "Identität & soziales Zugehörigkeitsgefühl",
      "en" : "Identity & sense of social belonging"
    }
  }, {
    "type" : [ "SubjectHeading" ],
    "uri" : "info:searchapp/vocab/adhoc/SW50ZWdyYXRpb25zcG9saXRpaw==",
    "notation" : "",
    "source" : {
      "uri" : "info:searchapp/vocab/adhoc/cmV4Y29uY2VwdHMvMS41LjA=",
      "label" : "rexconcepts/1.5.0"
    },
    "label" : {
      "pref" : "Integrationspolitik",
      "de" : "Integrationspolitik",
      "en" : "Integration policy"
    }
  }, {
    "type" : [ "SubjectHeading" ],
    "uri" : "info:searchapp/vocab/adhoc/SW50ZXJncnVwcGVua29udGFrdA==",
    "notation" : "",
    "source" : {
      "uri" : "info:searchapp/vocab/adhoc/cmV4Y29uY2VwdHMvMS41LjA=",
      "label" : "rexconcepts/1.5.0"
    },
    "label" : {
      "pref" : "Intergruppenkontakt",
      "de" : "Intergruppenkontakt",
      "en" : "Intergroup contact"
    }
  }, {
    "type" : [ "SubjectHeading" ],
    "uri" : "info:searchapp/vocab/adhoc/SXNyYWVsYmV6b2dlbmVyIEFudGlzZW1pdGlzbXVz",
    "notation" : "",
    "source" : {
      "uri" : "info:searchapp/vocab/adhoc/cmV4Y29uY2VwdHMvMS41LjA=",
      "label" : "rexconcepts/1.5.0"
    },
    "label" : {
      "pref" : "Israelbezogener Antisemitismus",
      "de" : "Israelbezogener Antisemitismus",
      "en" : "Israel-related antisemitism"
    }
  }, {
    "type" : [ "SubjectHeading" ],
    "uri" : "info:searchapp/vocab/adhoc/S3JpbWluYWxpdMOkdA==",
    "notation" : "",
    "source" : {
      "uri" : "info:searchapp/vocab/adhoc/cmV4Y29uY2VwdHMvMS41LjA=",
      "label" : "rexconcepts/1.5.0"
    },
    "label" : {
      "pref" : "Kriminalität",
      "de" : "Kriminalität",
      "en" : "Criminality"
    }
  }, {
    "type" : [ "SubjectHeading" ],
    "uri" : "info:searchapp/vocab/adhoc/TG9rYWxwYXRyaW90aXNtdXM=",
    "notation" : "",
    "source" : {
      "uri" : "info:searchapp/vocab/adhoc/cmV4Y29uY2VwdHMvMS41LjA=",
      "label" : "rexconcepts/1.5.0"
    },
    "label" : {
      "pref" : "Lokalpatriotismus",
      "de" : "Lokalpatriotismus",
      "en" : "Local patriotism"
    }
  }, {
    "type" : [ "SubjectHeading" ],
    "uri" : "info:searchapp/vocab/adhoc/TWlncmF0aW9uc3BvbGl0aWs=",
    "notation" : "",
    "source" : {
      "uri" : "info:searchapp/vocab/adhoc/cmV4Y29uY2VwdHMvMS41LjA=",
      "label" : "rexconcepts/1.5.0"
    },
    "label" : {
      "pref" : "Migrationspolitik",
      "de" : "Migrationspolitik",
      "en" : "Migration policy"
    }
  }, {
    "type" : [ "SubjectHeading" ],
    "uri" : "info:searchapp/vocab/adhoc/TXVsdGlrdWx0dXJhbGlzbXVz",
    "notation" : "",
    "source" : {
      "uri" : "info:searchapp/vocab/adhoc/cmV4Y29uY2VwdHMvMS41LjA=",
      "label" : "rexconcepts/1.5.0"
    },
    "label" : {
      "pref" : "Multikulturalismus",
      "de" : "Multikulturalismus",
      "en" : "Multiculturalism"
    }
  }, {
    "type" : [ "SubjectHeading" ],
    "uri" : "info:searchapp/vocab/adhoc/TmF0aW9uYWxpc211cw==",
    "notation" : "",
    "source" : {
      "uri" : "info:searchapp/vocab/adhoc/cmV4Y29uY2VwdHMvMS41LjA=",
      "label" : "rexconcepts/1.5.0"
    },
    "label" : {
      "pref" : "Nationalismus",
      "de" : "Nationalismus",
      "en" : "Nationalism"
    }
  }, {
    "type" : [ "SubjectHeading" ],
    "uri" : "info:searchapp/vocab/adhoc/TmF0aW9uYWxpc211cw==",
    "notation" : "",
    "source" : {
      "uri" : "info:searchapp/vocab/adhoc/cmV4Y29uY2VwdHMvMS41LjA=",
      "label" : "rexconcepts/1.5.0"
    },
    "label" : {
      "pref" : "Nationalismus",
      "de" : "Nationalismus",
      "en" : "Nationalism"
    }
  }, {
    "type" : [ "SubjectHeading" ],
    "uri" : "info:searchapp/vocab/adhoc/TmF0aW9uYWxzb3ppYWxpc211cw==",
    "notation" : "",
    "source" : {
      "uri" : "info:searchapp/vocab/adhoc/cmV4Y29uY2VwdHMvMS41LjA=",
      "label" : "rexconcepts/1.5.0"
    },
    "label" : {
      "pref" : "Nationalsozialismus",
      "de" : "Nationalsozialismus",
      "en" : "National socialism"
    }
  }, {
    "type" : [ "SubjectHeading" ],
    "uri" : "info:searchapp/vocab/adhoc/TlMtVmVyaGVycmxpY2h1bmcvLVZlcmhhcm1sb3N1bmc=",
    "notation" : "",
    "source" : {
      "uri" : "info:searchapp/vocab/adhoc/cmV4Y29uY2VwdHMvMS41LjA=",
      "label" : "rexconcepts/1.5.0"
    },
    "label" : {
      "pref" : "NS-Verherrlichung/-Verharmlosung",
      "de" : "NS-Verherrlichung/-Verharmlosung",
      "en" : "Glorification/ Trivialisation of National Socialism"
    }
  }, {
    "type" : [ "SubjectHeading" ],
    "uri" : "info:searchapp/vocab/adhoc/T3N0LVdlc3QtVW50ZXJzY2hpZWRl",
    "notation" : "",
    "source" : {
      "uri" : "info:searchapp/vocab/adhoc/cmV4Y29uY2VwdHMvMS41LjA=",
      "label" : "rexconcepts/1.5.0"
    },
    "label" : {
      "pref" : "Ost-West-Unterschiede",
      "de" : "Ost-West-Unterschiede",
      "en" : "East-West differences"
    }
  }, {
    "type" : [ "SubjectHeading" ],
    "uri" : "info:searchapp/vocab/adhoc/UmFkaWthbGlzaWVydW5n",
    "notation" : "",
    "source" : {
      "uri" : "info:searchapp/vocab/adhoc/cmV4Y29uY2VwdHMvMS41LjA=",
      "label" : "rexconcepts/1.5.0"
    },
    "label" : {
      "pref" : "Radikalisierung",
      "de" : "Radikalisierung",
      "en" : "Radicalisation"
    }
  }, {
    "type" : [ "SubjectHeading" ],
    "uri" : "info:searchapp/vocab/adhoc/UmVjaHRzZXh0cmVtaXNtdXM=",
    "notation" : "",
    "source" : {
      "uri" : "info:searchapp/vocab/adhoc/cmV4Y29uY2VwdHMvMS41LjA=",
      "label" : "rexconcepts/1.5.0"
    },
    "label" : {
      "pref" : "Rechtsextremismus",
      "de" : "Rechtsextremismus",
      "en" : "Right-wing extremism"
    }
  }, {
    "type" : [ "SubjectHeading" ],
    "uri" : "info:searchapp/vocab/adhoc/U296aWFsZSBEb21pbmFuem9yaWVudGllcnVuZw==",
    "notation" : "",
    "source" : {
      "uri" : "info:searchapp/vocab/adhoc/cmV4Y29uY2VwdHMvMS41LjA=",
      "label" : "rexconcepts/1.5.0"
    },
    "label" : {
      "pref" : "Soziale Dominanzorientierung",
      "de" : "Soziale Dominanzorientierung",
      "en" : "Social dominance orientation"
    }
  }, {
    "type" : [ "SubjectHeading" ],
    "uri" : "info:searchapp/vocab/adhoc/U296aWFsZSBOZXR6d2Vya2U=",
    "notation" : "",
    "source" : {
      "uri" : "info:searchapp/vocab/adhoc/cmV4Y29uY2VwdHMvMS41LjA=",
      "label" : "rexconcepts/1.5.0"
    },
    "label" : {
      "pref" : "Soziale Netzwerke",
      "de" : "Soziale Netzwerke",
      "en" : "Social networks"
    }
  }, {
    "type" : [ "SubjectHeading" ],
    "uri" : "info:searchapp/vocab/adhoc/U296aWFscsOkdW1saWNoZSBUcmVubnVuZw==",
    "notation" : "",
    "source" : {
      "uri" : "info:searchapp/vocab/adhoc/cmV4Y29uY2VwdHMvMS41LjA=",
      "label" : "rexconcepts/1.5.0"
    },
    "label" : {
      "pref" : "Sozialräumliche Trennung",
      "de" : "Sozialräumliche Trennung",
      "en" : "Socio-spatial separation"
    }
  }, {
    "type" : [ "SubjectHeading" ],
    "uri" : "info:searchapp/vocab/adhoc/VmVyc2Nod8O2cnVuZ3N0aGVvcmllbg==",
    "notation" : "",
    "source" : {
      "uri" : "info:searchapp/vocab/adhoc/cmV4Y29uY2VwdHMvMS41LjA=",
      "label" : "rexconcepts/1.5.0"
    },
    "label" : {
      "pref" : "Verschwörungstheorien",
      "de" : "Verschwörungstheorien",
      "en" : "Conspiracy theories"
    }
  }, {
    "type" : [ "SubjectHeading" ],
    "uri" : "info:searchapp/vocab/adhoc/V2VydG9yaWVudGllcnVuZ2Vu",
    "notation" : "",
    "source" : {
      "uri" : "info:searchapp/vocab/adhoc/cmV4Y29uY2VwdHMvMS41LjA=",
      "label" : "rexconcepts/1.5.0"
    },
    "label" : {
      "pref" : "Wertorientierungen",
      "de" : "Wertorientierungen",
      "en" : "Value orientations"
    }
  } ],
  "dprexGroups" : [ {
    "type" : [ "SubjectHeading" ],
    "uri" : "info:searchapp/vocab/adhoc/R2FzdGFyYmVpdGVyKmlubmVu",
    "notation" : "",
    "source" : {
      "uri" : "info:searchapp/vocab/adhoc/cmV4Z3JvdXBzLzEuNS4w",
      "label" : "rexgroups/1.5.0"
    },
    "label" : {
      "pref" : "Gastarbeiter*innen",
      "de" : "Gastarbeiter*innen",
      "en" : "Gastarbeiter*innen"
    }
  }, {
    "type" : [ "SubjectHeading" ],
    "uri" : "info:searchapp/vocab/adhoc/R2VmbMO8Y2h0ZXRl",
    "notation" : "",
    "source" : {
      "uri" : "info:searchapp/vocab/adhoc/cmV4Z3JvdXBzLzEuNS4w",
      "label" : "rexgroups/1.5.0"
    },
    "label" : {
      "pref" : "Geflüchtete",
      "de" : "Geflüchtete",
      "en" : "Geflüchtete"
    }
  }, {
    "type" : [ "SubjectHeading" ],
    "uri" : "info:searchapp/vocab/adhoc/SsO8ZCppbm5lbg==",
    "notation" : "",
    "source" : {
      "uri" : "info:searchapp/vocab/adhoc/cmV4Z3JvdXBzLzEuNS4w",
      "label" : "rexgroups/1.5.0"
    },
    "label" : {
      "pref" : "Jüd*innen",
      "de" : "Jüd*innen",
      "en" : "Jüd*innen"
    }
  }, {
    "type" : [ "SubjectHeading" ],
    "uri" : "info:searchapp/vocab/adhoc/TXVzbGltKmlubmVu",
    "notation" : "",
    "source" : {
      "uri" : "info:searchapp/vocab/adhoc/cmV4Z3JvdXBzLzEuNS4w",
      "label" : "rexgroups/1.5.0"
    },
    "label" : {
      "pref" : "Muslim*innen",
      "de" : "Muslim*innen",
      "en" : "Muslim*innen"
    }
  }, {
    "type" : [ "SubjectHeading" ],
    "uri" : "info:searchapp/vocab/adhoc/T3N0LURldXRzY2hsYW5k",
    "notation" : "",
    "source" : {
      "uri" : "info:searchapp/vocab/adhoc/cmV4Z3JvdXBzLzEuNS4w",
      "label" : "rexgroups/1.5.0"
    },
    "label" : {
      "pref" : "Ost-Deutschland",
      "de" : "Ost-Deutschland",
      "en" : "Ost-Deutschland"
    }
  }, {
    "type" : [ "SubjectHeading" ],
    "uri" : "info:searchapp/vocab/adhoc/UmVsaWdpw7ZzZSBadWdlaMO2cmlna2VpdA==",
    "notation" : "",
    "source" : {
      "uri" : "info:searchapp/vocab/adhoc/cmV4Z3JvdXBzLzEuNS4w",
      "label" : "rexgroups/1.5.0"
    },
    "label" : {
      "pref" : "Religiöse Zugehörigkeit",
      "de" : "Religiöse Zugehörigkeit",
      "en" : "Religiöse Zugehörigkeit"
    }
  }, {
    "type" : [ "SubjectHeading" ],
    "uri" : "info:searchapp/vocab/adhoc/V2VzdC1EZXV0c2NobGFuZA==",
    "notation" : "",
    "source" : {
      "uri" : "info:searchapp/vocab/adhoc/cmV4Z3JvdXBzLzEuNS4w",
      "label" : "rexgroups/1.5.0"
    },
    "label" : {
      "pref" : "West-Deutschland",
      "de" : "West-Deutschland",
      "en" : "West-Deutschland"
    }
  }, {
    "type" : [ "SubjectHeading" ],
    "uri" : "info:searchapp/vocab/adhoc/WnVnZXdhbmRlcnRlIGRlciAxLiBHZW5lcmF0aW9u",
    "notation" : "",
    "source" : {
      "uri" : "info:searchapp/vocab/adhoc/cmV4Z3JvdXBzLzEuNS4w",
      "label" : "rexgroups/1.5.0"
    },
    "label" : {
      "pref" : "Zugewanderte der 1. Generation",
      "de" : "Zugewanderte der 1. Generation",
      "en" : "Zugewanderte der 1. Generation"
    }
  } ],
  "dprexTypes" : [ {
    "type" : [ "SubjectHeading" ],
    "uri" : "info:searchapp/vocab/adhoc/VW1mcmFnZWRhdGVu",
    "notation" : "",
    "source" : {
      "uri" : "info:searchapp/vocab/adhoc/cmV4ZGF0YXR5cGUvMS4xLjE=",
      "label" : "rexdatatype/1.1.1"
    },
    "label" : {
      "pref" : "Umfragedaten",
      "de" : "Umfragedaten",
      "en" : "Umfragedaten"
    }
  } ],
  "geographicCoverages" : [ {
    "geographicCoverageControlled" : "DE-TH"
  } ],
  "handles" : [ {
    "type" : "DOI",
    "notation" : "10.4232/1.14191",
    "url" : "https://doi.org/10.4232/1.14191",
    "source" : {
      "uri" : "https://www.da-ra.de/",
      "label" : "DARA"
    }
  } ],
  "natureOfContents" : [ {
    "uri" : "info:searchapp/vocab/Dataset",
    "label" : {
      "pref" : "Dataset",
      "de" : "Dataset",
      "en" : "Dataset"
    }
  } ],
  "publications" : [ {
    "type" : [ "PublicationEvent" ],
    "startDate" : "2023"
  } ],
  "resourceLanguage" : "deu",
  "rights" : {
    "licenseType" : "",
    "label" : {
      "pref" : "Alle im GESIS DBK veröffentlichten Metadaten sind frei verfügbar unter den Creative Commons CC0 1.0 Universal Public Domain Dedication. GESIS bittet jedoch darum, dass Sie alle Metadatenquellen anerkennen und sie nennen, etwa die Datengeber oder jeglichen Aggregator, inklusive GESIS selbst. Für weitere Informationen siehe https://dbk.gesis.org/dbksearch/guidelines.asp?db=d",
      "de" : "Alle im GESIS DBK veröffentlichten Metadaten sind frei verfügbar unter den Creative Commons CC0 1.0 Universal Public Domain Dedication. GESIS bittet jedoch darum, dass Sie alle Metadatenquellen anerkennen und sie nennen, etwa die Datengeber oder jeglichen Aggregator, inklusive GESIS selbst. Für weitere Informationen siehe https://dbk.gesis.org/dbksearch/guidelines.asp?db=d",
      "en" : "All metadata from GESIS DBK are available free of restriction under the Creative Commons CC0 1.0 Universal Public Domain Dedication. However, GESIS requests that you actively acknowledge and give attribution to all metadata sources, such as the data providers and any data aggregators, including GESIS. For further information see https://dbk.gesis.org/dbksearch/guidelines.asp"
    }
  },
  "sampling" : {
    "method" : {
      "pref" : "Wahrscheinlichkeitsauswahl: Mehrstufige Zufallsauswahl; Auswahlverfahren Kommentar: Wahrscheinlichkeitsauswahl: Mehrstufige Zufallsauswahl\n\nDie Altersgruppe der 16-29 Jährigen wurde 2001 überrepräsentiert (Oversampling, N=600)",
      "de" : "Wahrscheinlichkeitsauswahl: Mehrstufige Zufallsauswahl; Auswahlverfahren Kommentar: Wahrscheinlichkeitsauswahl: Mehrstufige Zufallsauswahl\n\nDie Altersgruppe der 16-29 Jährigen wurde 2001 überrepräsentiert (Oversampling, N=600)",
      "en" : "Probability: Multistage; Sampling Procedure Comment: Probability sample: Multi-stage random sample\n\nThe age group 16-29 was overrepresented in 2001 (oversampling, N=600)"
    }
  },
  "subjects" : [ {
    "type" : [ "SubjectHeading" ],
    "uri" : "info:searchapp/vocab/adhoc/TWlncmF0aW9u",
    "notation" : "",
    "source" : {
      "uri" : "info:searchapp/vocab/adhoc/Q0VTU0RBIFRvcGljIENsYXNzaWZpY2F0aW9u",
      "label" : "CESSDA Topic Classification"
    },
    "label" : {
      "pref" : "Migration",
      "de" : "Migration",
      "en" : "Migration"
    }
  }, {
    "type" : [ "SubjectHeading" ],
    "uri" : "info:searchapp/vocab/adhoc/S3VsdHVyZWxsZSB1bmQgbmF0aW9uYWxlIElkZW50aXTDpHQ=",
    "notation" : "",
    "source" : {
      "uri" : "info:searchapp/vocab/adhoc/Q0VTU0RBIFRvcGljIENsYXNzaWZpY2F0aW9u",
      "label" : "CESSDA Topic Classification"
    },
    "label" : {
      "pref" : "Kulturelle und nationale Identität",
      "de" : "Kulturelle und nationale Identität",
      "en" : "Cultural and national identity"
    }
  }, {
    "type" : [ "SubjectHeading" ],
    "uri" : "info:searchapp/vocab/adhoc/UmVsaWdpb24gdW5kIFdlcnRl",
    "notation" : "",
    "source" : {
      "uri" : "info:searchapp/vocab/adhoc/Q0VTU0RBIFRvcGljIENsYXNzaWZpY2F0aW9u",
      "label" : "CESSDA Topic Classification"
    },
    "label" : {
      "pref" : "Religion und Werte",
      "de" : "Religion und Werte",
      "en" : "Religion and values"
    }
  }, {
    "type" : [ "SubjectHeading" ],
    "uri" : "info:searchapp/vocab/adhoc/U296aWFsZSBMYWdlIHVuZCBzb3ppYWxlIEluZGlrYXRvcmVu",
    "notation" : "",
    "source" : {
      "uri" : "info:searchapp/vocab/adhoc/Q0VTU0RBIFRvcGljIENsYXNzaWZpY2F0aW9u",
      "label" : "CESSDA Topic Classification"
    },
    "label" : {
      "pref" : "Soziale Lage und soziale Indikatoren",
      "de" : "Soziale Lage und soziale Indikatoren",
      "en" : "Social conditions and indicators"
    }
  }, {
    "type" : [ "SubjectHeading" ],
    "uri" : "info:searchapp/vocab/adhoc/U296aWFsZXMgVmVyaGFsdGVuIHVuZCBzb3ppYWxlIEVpbnN0ZWxsdW5nZW4=",
    "notation" : "",
    "source" : {
      "uri" : "info:searchapp/vocab/adhoc/Q0VTU0RBIFRvcGljIENsYXNzaWZpY2F0aW9u",
      "label" : "CESSDA Topic Classification"
    },
    "label" : {
      "pref" : "Soziales Verhalten und soziale Einstellungen",
      "de" : "Soziales Verhalten und soziale Einstellungen",
      "en" : "Social behaviour and attitudes"
    }
  }, {
    "type" : [ "SubjectHeading" ],
    "uri" : "info:searchapp/vocab/adhoc/SW50ZXJuYXRpb25hbGUgUG9saXRpayB1bmQgSW50ZXJuYXRpb25hbGUgT3JnYW5pc2F0aW9uZW4=",
    "notation" : "",
    "source" : {
      "uri" : "info:searchapp/vocab/adhoc/Q0VTU0RBIFRvcGljIENsYXNzaWZpY2F0aW9u",
      "label" : "CESSDA Topic Classification"
    },
    "label" : {
      "pref" : "Internationale Politik und Internationale Organisationen",
      "de" : "Internationale Politik und Internationale Organisationen",
      "en" : "International politics and organisations"
    }
  }, {
    "type" : [ "SubjectHeading" ],
    "uri" : "info:searchapp/vocab/adhoc/UG9saXRpc2NoZSBJZGVvbG9naWU=",
    "notation" : "",
    "source" : {
      "uri" : "info:searchapp/vocab/adhoc/Q0VTU0RBIFRvcGljIENsYXNzaWZpY2F0aW9u",
      "label" : "CESSDA Topic Classification"
    },
    "label" : {
      "pref" : "Politische Ideologie",
      "de" : "Politische Ideologie",
      "en" : "Political ideology"
    }
  }, {
    "type" : [ "SubjectHeading" ],
    "uri" : "info:searchapp/vocab/adhoc/UG9saXRpc2NoZXMgVmVyaGFsdGVuIHVuZCBwb2xpdGlzY2hlIEVpbnN0ZWxsdW5nZW4=",
    "notation" : "",
    "source" : {
      "uri" : "info:searchapp/vocab/adhoc/Q0VTU0RBIFRvcGljIENsYXNzaWZpY2F0aW9u",
      "label" : "CESSDA Topic Classification"
    },
    "label" : {
      "pref" : "Politisches Verhalten und politische Einstellungen",
      "de" : "Politisches Verhalten und politische Einstellungen",
      "en" : "Political behaviour and attitudes"
    }
  }, {
    "type" : [ "SubjectHeading" ],
    "uri" : "info:searchapp/vocab/adhoc/UmVnaWVydW5nLCBwb2xpdGlzY2hlIFN5c3RlbWUsIFBhcnRlaWVuIHVuZCBPcmdhbmlzYXRpb25lbg==",
    "notation" : "",
    "source" : {
      "uri" : "info:searchapp/vocab/adhoc/Q0VTU0RBIFRvcGljIENsYXNzaWZpY2F0aW9u",
      "label" : "CESSDA Topic Classification"
    },
    "label" : {
      "pref" : "Regierung, politische Systeme, Parteien und Organisationen",
      "de" : "Regierung, politische Systeme, Parteien und Organisationen",
      "en" : "Government, political systems and organisations"
    }
  }, {
    "type" : [ "SubjectHeading" ],
    "uri" : "info:searchapp/vocab/adhoc/RmFtaWxpZSB1bmQgRWhl",
    "notation" : "",
    "source" : {
      "uri" : "info:searchapp/vocab/adhoc/Q0VTU0RBIFRvcGljIENsYXNzaWZpY2F0aW9u",
      "label" : "CESSDA Topic Classification"
    },
    "label" : {
      "pref" : "Familie und Ehe",
      "de" : "Familie und Ehe",
      "en" : "Family life and marriage"
    }
  }, {
    "type" : [ "SubjectHeading" ],
    "uri" : "info:searchapp/vocab/adhoc/TWluZGVyaGVpdGVu",
    "notation" : "",
    "source" : {
      "uri" : "info:searchapp/vocab/adhoc/Q0VTU0RBIFRvcGljIENsYXNzaWZpY2F0aW9u",
      "label" : "CESSDA Topic Classification"
    },
    "label" : {
      "pref" : "Minderheiten",
      "de" : "Minderheiten",
      "en" : "Minorities"
    }
  }, {
    "type" : [ "SubjectHeading" ],
    "uri" : "info:searchapp/vocab/adhoc/R2xlaWNoaGVpdCwgVW5nbGVpY2hoZWl0IHVuZCBzb3ppYWxlIEF1c2dyZW56dW5n",
    "notation" : "",
    "source" : {
      "uri" : "info:searchapp/vocab/adhoc/Q0VTU0RBIFRvcGljIENsYXNzaWZpY2F0aW9u",
      "label" : "CESSDA Topic Classification"
    },
    "label" : {
      "pref" : "Gleichheit, Ungleichheit und soziale Ausgrenzung",
      "de" : "Gleichheit, Ungleichheit und soziale Ausgrenzung",
      "en" : "Equality, inequality and social exclusion"
    }
  }, {
    "type" : [ "SubjectHeading" ],
    "uri" : "info:searchapp/vocab/adhoc/V2lydHNjaGFmdHNwb2xpdGlrLCDDtmZmZW50bGljaGUgQXVzZ2FiZW4gdW5kIEVpbm5haG1lbg==",
    "notation" : "",
    "source" : {
      "uri" : "info:searchapp/vocab/adhoc/Q0VTU0RBIFRvcGljIENsYXNzaWZpY2F0aW9u",
      "label" : "CESSDA Topic Classification"
    },
    "label" : {
      "pref" : "Wirtschaftspolitik, öffentliche Ausgaben und Einnahmen",
      "de" : "Wirtschaftspolitik, öffentliche Ausgaben und Einnahmen",
      "en" : "Economic policy,  public expenditure and revenue"
    }
  }, {
    "type" : [ "SubjectHeading" ],
    "uri" : "info:searchapp/vocab/adhoc/QmVkcm9odW5nc3dhaHJuZWhtdW5nZW7CoA==",
    "notation" : "",
    "source" : {
      "uri" : "info:searchapp/vocab/adhoc/cmV4Y29uY2VwdHMvMS41LjA=",
      "label" : "rexconcepts/1.5.0"
    },
    "label" : {
      "pref" : "Bedrohungswahrnehmungen ",
      "de" : "Bedrohungswahrnehmungen ",
      "en" : "Threat perceptions"
    }
  }, {
    "type" : [ "SubjectHeading" ],
    "uri" : "info:searchapp/vocab/adhoc/QW5vbWll",
    "notation" : "",
    "source" : {
      "uri" : "info:searchapp/vocab/adhoc/cmV4Y29uY2VwdHMvMS41LjA=",
      "label" : "rexconcepts/1.5.0"
    },
    "label" : {
      "pref" : "Anomie",
      "de" : "Anomie",
      "en" : "Anomia"
    }
  }, {
    "type" : [ "SubjectHeading" ],
    "uri" : "info:searchapp/vocab/adhoc/SWRlbnRpdMOkdCAmIHNvemlhbGVzIFp1Z2Vow7ZyaWdrZWl0c2dlZsO8aGw=",
    "notation" : "",
    "source" : {
      "uri" : "info:searchapp/vocab/adhoc/cmV4Y29uY2VwdHMvMS41LjA=",
      "label" : "rexconcepts/1.5.0"
    },
    "label" : {
      "pref" : "Identität & soziales Zugehörigkeitsgefühl",
      "de" : "Identität & soziales Zugehörigkeitsgefühl",
      "en" : "Identity & sense of social belonging"
    }
  }, {
    "type" : [ "SubjectHeading" ],
    "uri" : "info:searchapp/vocab/adhoc/TmF0aW9uYWxpc211cw==",
    "notation" : "",
    "source" : {
      "uri" : "info:searchapp/vocab/adhoc/cmV4Y29uY2VwdHMvMS41LjA=",
      "label" : "rexconcepts/1.5.0"
    },
    "label" : {
      "pref" : "Nationalismus",
      "de" : "Nationalismus",
      "en" : "Nationalism"
    }
  }, {
    "type" : [ "SubjectHeading" ],
    "uri" : "info:searchapp/vocab/adhoc/Q2hhdXZpbmlzbXVz",
    "notation" : "",
    "source" : {
      "uri" : "info:searchapp/vocab/adhoc/cmV4Y29uY2VwdHMvMS41LjA=",
      "label" : "rexconcepts/1.5.0"
    },
    "label" : {
      "pref" : "Chauvinismus",
      "de" : "Chauvinismus",
      "en" : "Chauvinism"
    }
  }, {
    "type" : [ "SubjectHeading" ],
    "uri" : "info:searchapp/vocab/adhoc/TlMtVmVyaGVycmxpY2h1bmcvLVZlcmhhcm1sb3N1bmc=",
    "notation" : "",
    "source" : {
      "uri" : "info:searchapp/vocab/adhoc/cmV4Y29uY2VwdHMvMS41LjA=",
      "label" : "rexconcepts/1.5.0"
    },
    "label" : {
      "pref" : "NS-Verherrlichung/-Verharmlosung",
      "de" : "NS-Verherrlichung/-Verharmlosung",
      "en" : "Glorification/ Trivialisation of National Socialism"
    }
  }, {
    "type" : [ "SubjectHeading" ],
    "uri" : "info:searchapp/vocab/adhoc/TmF0aW9uYWxzb3ppYWxpc211cw==",
    "notation" : "",
    "source" : {
      "uri" : "info:searchapp/vocab/adhoc/cmV4Y29uY2VwdHMvMS41LjA=",
      "label" : "rexconcepts/1.5.0"
    },
    "label" : {
      "pref" : "Nationalsozialismus",
      "de" : "Nationalsozialismus",
      "en" : "National socialism"
    }
  }, {
    "type" : [ "SubjectHeading" ],
    "uri" : "info:searchapp/vocab/adhoc/TmF0aW9uYWxpc211cw==",
    "notation" : "",
    "source" : {
      "uri" : "info:searchapp/vocab/adhoc/cmV4Y29uY2VwdHMvMS41LjA=",
      "label" : "rexconcepts/1.5.0"
    },
    "label" : {
      "pref" : "Nationalismus",
      "de" : "Nationalismus",
      "en" : "Nationalism"
    }
  }, {
    "type" : [ "SubjectHeading" ],
    "uri" : "info:searchapp/vocab/adhoc/QW50aXNlbWl0aXNtdXM=",
    "notation" : "",
    "source" : {
      "uri" : "info:searchapp/vocab/adhoc/cmV4Y29uY2VwdHMvMS41LjA=",
      "label" : "rexconcepts/1.5.0"
    },
    "label" : {
      "pref" : "Antisemitismus",
      "de" : "Antisemitismus",
      "en" : "Antisemitism"
    }
  }, {
    "type" : [ "SubjectHeading" ],
    "uri" : "info:searchapp/vocab/adhoc/SXNyYWVsYmV6b2dlbmVyIEFudGlzZW1pdGlzbXVz",
    "notation" : "",
    "source" : {
      "uri" : "info:searchapp/vocab/adhoc/cmV4Y29uY2VwdHMvMS41LjA=",
      "label" : "rexconcepts/1.5.0"
    },
    "label" : {
      "pref" : "Israelbezogener Antisemitismus",
      "de" : "Israelbezogener Antisemitismus",
      "en" : "Israel-related antisemitism"
    }
  }, {
    "type" : [ "SubjectHeading" ],
    "uri" : "info:searchapp/vocab/adhoc/UmVjaHRzZXh0cmVtaXNtdXM=",
    "notation" : "",
    "source" : {
      "uri" : "info:searchapp/vocab/adhoc/cmV4Y29uY2VwdHMvMS41LjA=",
      "label" : "rexconcepts/1.5.0"
    },
    "label" : {
      "pref" : "Rechtsextremismus",
      "de" : "Rechtsextremismus",
      "en" : "Right-wing extremism"
    }
  }, {
    "type" : [ "SubjectHeading" ],
    "uri" : "info:searchapp/vocab/adhoc/UmFkaWthbGlzaWVydW5n",
    "notation" : "",
    "source" : {
      "uri" : "info:searchapp/vocab/adhoc/cmV4Y29uY2VwdHMvMS41LjA=",
      "label" : "rexconcepts/1.5.0"
    },
    "label" : {
      "pref" : "Radikalisierung",
      "de" : "Radikalisierung",
      "en" : "Radicalisation"
    }
  }, {
    "type" : [ "SubjectHeading" ],
    "uri" : "info:searchapp/vocab/adhoc/RnJlbWRlbmZlaW5kbGljaGtlaXQ=",
    "notation" : "",
    "source" : {
      "uri" : "info:searchapp/vocab/adhoc/cmV4Y29uY2VwdHMvMS41LjA=",
      "label" : "rexconcepts/1.5.0"
    },
    "label" : {
      "pref" : "Fremdenfeindlichkeit",
      "de" : "Fremdenfeindlichkeit",
      "en" : "Xenophobia"
    }
  }, {
    "type" : [ "SubjectHeading" ],
    "uri" : "info:searchapp/vocab/adhoc/V2VydG9yaWVudGllcnVuZ2Vu",
    "notation" : "",
    "source" : {
      "uri" : "info:searchapp/vocab/adhoc/cmV4Y29uY2VwdHMvMS41LjA=",
      "label" : "rexconcepts/1.5.0"
    },
    "label" : {
      "pref" : "Wertorientierungen",
      "de" : "Wertorientierungen",
      "en" : "Value orientations"
    }
  }, {
    "type" : [ "SubjectHeading" ],
    "uri" : "info:searchapp/vocab/adhoc/U296aWFsZSBOZXR6d2Vya2U=",
    "notation" : "",
    "source" : {
      "uri" : "info:searchapp/vocab/adhoc/cmV4Y29uY2VwdHMvMS41LjA=",
      "label" : "rexconcepts/1.5.0"
    },
    "label" : {
      "pref" : "Soziale Netzwerke",
      "de" : "Soziale Netzwerke",
      "en" : "Social networks"
    }
  }, {
    "type" : [ "SubjectHeading" ],
    "uri" : "info:searchapp/vocab/adhoc/U296aWFsZSBEb21pbmFuem9yaWVudGllcnVuZw==",
    "notation" : "",
    "source" : {
      "uri" : "info:searchapp/vocab/adhoc/cmV4Y29uY2VwdHMvMS41LjA=",
      "label" : "rexconcepts/1.5.0"
    },
    "label" : {
      "pref" : "Soziale Dominanzorientierung",
      "de" : "Soziale Dominanzorientierung",
      "en" : "Social dominance orientation"
    }
  }, {
    "type" : [ "SubjectHeading" ],
    "uri" : "info:searchapp/vocab/adhoc/RXRobm96ZW50cmlzbXVz",
    "notation" : "",
    "source" : {
      "uri" : "info:searchapp/vocab/adhoc/cmV4Y29uY2VwdHMvMS41LjA=",
      "label" : "rexconcepts/1.5.0"
    },
    "label" : {
      "pref" : "Ethnozentrismus",
      "de" : "Ethnozentrismus",
      "en" : "Ethnocentrism"
    }
  }, {
    "type" : [ "SubjectHeading" ],
    "uri" : "info:searchapp/vocab/adhoc/T3N0LVdlc3QtVW50ZXJzY2hpZWRl",
    "notation" : "",
    "source" : {
      "uri" : "info:searchapp/vocab/adhoc/cmV4Y29uY2VwdHMvMS41LjA=",
      "label" : "rexconcepts/1.5.0"
    },
    "label" : {
      "pref" : "Ost-West-Unterschiede",
      "de" : "Ost-West-Unterschiede",
      "en" : "East-West differences"
    }
  }, {
    "type" : [ "SubjectHeading" ],
    "uri" : "info:searchapp/vocab/adhoc/S3JpbWluYWxpdMOkdA==",
    "notation" : "",
    "source" : {
      "uri" : "info:searchapp/vocab/adhoc/cmV4Y29uY2VwdHMvMS41LjA=",
      "label" : "rexconcepts/1.5.0"
    },
    "label" : {
      "pref" : "Kriminalität",
      "de" : "Kriminalität",
      "en" : "Criminality"
    }
  }, {
    "type" : [ "SubjectHeading" ],
    "uri" : "info:searchapp/vocab/adhoc/SW50ZWdyYXRpb25zcG9saXRpaw==",
    "notation" : "",
    "source" : {
      "uri" : "info:searchapp/vocab/adhoc/cmV4Y29uY2VwdHMvMS41LjA=",
      "label" : "rexconcepts/1.5.0"
    },
    "label" : {
      "pref" : "Integrationspolitik",
      "de" : "Integrationspolitik",
      "en" : "Integration policy"
    }
  }, {
    "type" : [ "SubjectHeading" ],
    "uri" : "info:searchapp/vocab/adhoc/TXVsdGlrdWx0dXJhbGlzbXVz",
    "notation" : "",
    "source" : {
      "uri" : "info:searchapp/vocab/adhoc/cmV4Y29uY2VwdHMvMS41LjA=",
      "label" : "rexconcepts/1.5.0"
    },
    "label" : {
      "pref" : "Multikulturalismus",
      "de" : "Multikulturalismus",
      "en" : "Multiculturalism"
    }
  }, {
    "type" : [ "SubjectHeading" ],
    "uri" : "info:searchapp/vocab/adhoc/TG9rYWxwYXRyaW90aXNtdXM=",
    "notation" : "",
    "source" : {
      "uri" : "info:searchapp/vocab/adhoc/cmV4Y29uY2VwdHMvMS41LjA=",
      "label" : "rexconcepts/1.5.0"
    },
    "label" : {
      "pref" : "Lokalpatriotismus",
      "de" : "Lokalpatriotismus",
      "en" : "Local patriotism"
    }
  }, {
    "type" : [ "SubjectHeading" ],
    "uri" : "info:searchapp/vocab/adhoc/U296aWFscsOkdW1saWNoZSBUcmVubnVuZw==",
    "notation" : "",
    "source" : {
      "uri" : "info:searchapp/vocab/adhoc/cmV4Y29uY2VwdHMvMS41LjA=",
      "label" : "rexconcepts/1.5.0"
    },
    "label" : {
      "pref" : "Sozialräumliche Trennung",
      "de" : "Sozialräumliche Trennung",
      "en" : "Socio-spatial separation"
    }
  }, {
    "type" : [ "SubjectHeading" ],
    "uri" : "info:searchapp/vocab/adhoc/SW50ZXJncnVwcGVua29udGFrdA==",
    "notation" : "",
    "source" : {
      "uri" : "info:searchapp/vocab/adhoc/cmV4Y29uY2VwdHMvMS41LjA=",
      "label" : "rexconcepts/1.5.0"
    },
    "label" : {
      "pref" : "Intergruppenkontakt",
      "de" : "Intergruppenkontakt",
      "en" : "Intergroup contact"
    }
  }, {
    "type" : [ "SubjectHeading" ],
    "uri" : "info:searchapp/vocab/adhoc/QXV0b3JpdGFyaXNtdXM=",
    "notation" : "",
    "source" : {
      "uri" : "info:searchapp/vocab/adhoc/cmV4Y29uY2VwdHMvMS41LjA=",
      "label" : "rexconcepts/1.5.0"
    },
    "label" : {
      "pref" : "Autoritarismus",
      "de" : "Autoritarismus",
      "en" : "Authoritarianism"
    }
  }, {
    "type" : [ "SubjectHeading" ],
    "uri" : "info:searchapp/vocab/adhoc/RWluYsO8cmdlcnVuZ3NtYcOfbmFobWVu",
    "notation" : "",
    "source" : {
      "uri" : "info:searchapp/vocab/adhoc/cmV4Y29uY2VwdHMvMS41LjA=",
      "label" : "rexconcepts/1.5.0"
    },
    "label" : {
      "pref" : "Einbürgerungsmaßnahmen",
      "de" : "Einbürgerungsmaßnahmen",
      "en" : "Naturalisation measures"
    }
  }, {
    "type" : [ "SubjectHeading" ],
    "uri" : "info:searchapp/vocab/adhoc/TWlncmF0aW9uc3BvbGl0aWs=",
    "notation" : "",
    "source" : {
      "uri" : "info:searchapp/vocab/adhoc/cmV4Y29uY2VwdHMvMS41LjA=",
      "label" : "rexconcepts/1.5.0"
    },
    "label" : {
      "pref" : "Migrationspolitik",
      "de" : "Migrationspolitik",
      "en" : "Migration policy"
    }
  }, {
    "type" : [ "SubjectHeading" ],
    "uri" : "info:searchapp/vocab/adhoc/RGVtb2tyYXRpZXZlcnN0w6RuZG5pcw==",
    "notation" : "",
    "source" : {
      "uri" : "info:searchapp/vocab/adhoc/cmV4Y29uY2VwdHMvMS41LjA=",
      "label" : "rexconcepts/1.5.0"
    },
    "label" : {
      "pref" : "Demokratieverständnis",
      "de" : "Demokratieverständnis",
      "en" : "Understanding of democracy"
    }
  }, {
    "type" : [ "SubjectHeading" ],
    "uri" : "info:searchapp/vocab/adhoc/QW50aWZlbWluaXNtdXM=",
    "notation" : "",
    "source" : {
      "uri" : "info:searchapp/vocab/adhoc/cmV4Y29uY2VwdHMvMS41LjA=",
      "label" : "rexconcepts/1.5.0"
    },
    "label" : {
      "pref" : "Antifeminismus",
      "de" : "Antifeminismus",
      "en" : "Antifeminism"
    }
  }, {
    "type" : [ "SubjectHeading" ],
    "uri" : "info:searchapp/vocab/adhoc/VmVyc2Nod8O2cnVuZ3N0aGVvcmllbg==",
    "notation" : "",
    "source" : {
      "uri" : "info:searchapp/vocab/adhoc/cmV4Y29uY2VwdHMvMS41LjA=",
      "label" : "rexconcepts/1.5.0"
    },
    "label" : {
      "pref" : "Verschwörungstheorien",
      "de" : "Verschwörungstheorien",
      "en" : "Conspiracy theories"
    }
  }, {
    "type" : [ "SubjectHeading" ],
    "uri" : "info:searchapp/vocab/adhoc/WnVnZXdhbmRlcnRlIGRlciAxLiBHZW5lcmF0aW9u",
    "notation" : "",
    "source" : {
      "uri" : "info:searchapp/vocab/adhoc/cmV4Z3JvdXBzLzEuNS4w",
      "label" : "rexgroups/1.5.0"
    },
    "label" : {
      "pref" : "Zugewanderte der 1. Generation",
      "de" : "Zugewanderte der 1. Generation",
      "en" : "Zugewanderte der 1. Generation"
    }
  }, {
    "type" : [ "SubjectHeading" ],
    "uri" : "info:searchapp/vocab/adhoc/UmVsaWdpw7ZzZSBadWdlaMO2cmlna2VpdA==",
    "notation" : "",
    "source" : {
      "uri" : "info:searchapp/vocab/adhoc/cmV4Z3JvdXBzLzEuNS4w",
      "label" : "rexgroups/1.5.0"
    },
    "label" : {
      "pref" : "Religiöse Zugehörigkeit",
      "de" : "Religiöse Zugehörigkeit",
      "en" : "Religiöse Zugehörigkeit"
    }
  }, {
    "type" : [ "SubjectHeading" ],
    "uri" : "info:searchapp/vocab/adhoc/T3N0LURldXRzY2hsYW5k",
    "notation" : "",
    "source" : {
      "uri" : "info:searchapp/vocab/adhoc/cmV4Z3JvdXBzLzEuNS4w",
      "label" : "rexgroups/1.5.0"
    },
    "label" : {
      "pref" : "Ost-Deutschland",
      "de" : "Ost-Deutschland",
      "en" : "Ost-Deutschland"
    }
  }, {
    "type" : [ "SubjectHeading" ],
    "uri" : "info:searchapp/vocab/adhoc/V2VzdC1EZXV0c2NobGFuZA==",
    "notation" : "",
    "source" : {
      "uri" : "info:searchapp/vocab/adhoc/cmV4Z3JvdXBzLzEuNS4w",
      "label" : "rexgroups/1.5.0"
    },
    "label" : {
      "pref" : "West-Deutschland",
      "de" : "West-Deutschland",
      "en" : "West-Deutschland"
    }
  }, {
    "type" : [ "SubjectHeading" ],
    "uri" : "info:searchapp/vocab/adhoc/SsO8ZCppbm5lbg==",
    "notation" : "",
    "source" : {
      "uri" : "info:searchapp/vocab/adhoc/cmV4Z3JvdXBzLzEuNS4w",
      "label" : "rexgroups/1.5.0"
    },
    "label" : {
      "pref" : "Jüd*innen",
      "de" : "Jüd*innen",
      "en" : "Jüd*innen"
    }
  }, {
    "type" : [ "SubjectHeading" ],
    "uri" : "info:searchapp/vocab/adhoc/TXVzbGltKmlubmVu",
    "notation" : "",
    "source" : {
      "uri" : "info:searchapp/vocab/adhoc/cmV4Z3JvdXBzLzEuNS4w",
      "label" : "rexgroups/1.5.0"
    },
    "label" : {
      "pref" : "Muslim*innen",
      "de" : "Muslim*innen",
      "en" : "Muslim*innen"
    }
  }, {
    "type" : [ "SubjectHeading" ],
    "uri" : "info:searchapp/vocab/adhoc/R2VmbMO8Y2h0ZXRl",
    "notation" : "",
    "source" : {
      "uri" : "info:searchapp/vocab/adhoc/cmV4Z3JvdXBzLzEuNS4w",
      "label" : "rexgroups/1.5.0"
    },
    "label" : {
      "pref" : "Geflüchtete",
      "de" : "Geflüchtete",
      "en" : "Geflüchtete"
    }
  }, {
    "type" : [ "SubjectHeading" ],
    "uri" : "info:searchapp/vocab/adhoc/R2FzdGFyYmVpdGVyKmlubmVu",
    "notation" : "",
    "source" : {
      "uri" : "info:searchapp/vocab/adhoc/cmV4Z3JvdXBzLzEuNS4w",
      "label" : "rexgroups/1.5.0"
    },
    "label" : {
      "pref" : "Gastarbeiter*innen",
      "de" : "Gastarbeiter*innen",
      "en" : "Gastarbeiter*innen"
    }
  }, {
    "type" : [ "SubjectHeading" ],
    "uri" : "info:searchapp/vocab/adhoc/VW1mcmFnZWRhdGVu",
    "notation" : "",
    "source" : {
      "uri" : "info:searchapp/vocab/adhoc/cmV4ZGF0YXR5cGUvMS4xLjE=",
      "label" : "rexdatatype/1.1.1"
    },
    "label" : {
      "pref" : "Umfragedaten",
      "de" : "Umfragedaten",
      "en" : "Umfragedaten"
    }
  } ],
  "temporalCoverages" : [ {
    "startDate" : "2000-09-19",
    "endDate" : "2000-09-25",
    "labels" : [ ]
  }, {
    "startDate" : "2001-05-16",
    "endDate" : "2001-05-31",
    "labels" : [ ]
  }, {
    "startDate" : "2002-08-13",
    "endDate" : "2002-08-18",
    "labels" : [ ]
  }, {
    "startDate" : "2003-09-03",
    "endDate" : "2003-09-09",
    "labels" : [ ]
  }, {
    "startDate" : "2004-09-13",
    "endDate" : "2004-09-28",
    "labels" : [ ]
  }, {
    "startDate" : "2005-06-20",
    "endDate" : "2005-07-03",
    "labels" : [ ]
  }, {
    "startDate" : "2006-06-28",
    "endDate" : "2006-07-18",
    "labels" : [ ]
  }, {
    "startDate" : "2007-10-11",
    "endDate" : "2007-10-24",
    "labels" : [ ]
  }, {
    "startDate" : "2008-06-26",
    "endDate" : "2008-07-10",
    "labels" : [ ]
  }, {
    "startDate" : "2010-01-11",
    "endDate" : "2010-01-30",
    "labels" : [ ]
  }, {
    "startDate" : "2011-05-02",
    "endDate" : "2011-05-10",
    "labels" : [ ]
  }, {
    "startDate" : "2012-05-21",
    "endDate" : "2012-06-09",
    "labels" : [ ]
  }, {
    "startDate" : "2013-05-13",
    "endDate" : "2013-05-27",
    "labels" : [ ]
  }, {
    "startDate" : "2014-05-26",
    "endDate" : "2014-06-18",
    "labels" : [ ]
  }, {
    "startDate" : "2015-06-08",
    "endDate" : "2015-06-27",
    "labels" : [ ]
  }, {
    "startDate" : "2016-05-30",
    "endDate" : "2016-06-25",
    "labels" : [ ]
  }, {
    "startDate" : "2017-05-29",
    "endDate" : "2017-06-26",
    "labels" : [ ]
  }, {
    "startDate" : "2018-05-31",
    "endDate" : "2018-07-07",
    "labels" : [ ]
  }, {
    "startDate" : "2019-05-27",
    "endDate" : "2019-07-06",
    "labels" : [ ]
  }, {
    "startDate" : "2020-09-03",
    "endDate" : "2020-10-05",
    "labels" : [ ]
  }, {
    "startDate" : "2021-06-04",
    "endDate" : "2021-07-03",
    "labels" : [ ]
  }, {
    "startDate" : "2022-09-19",
    "endDate" : "2022-12-06",
    "labels" : [ ]
  } ],
  "timeDimensions" : [ {
    "timeDimensionType" : "Longitudinal.Trend/RepeatedCrossSection"
  } ],
  "title" : {
    "pref" : "Thüringen-Monitor 2000-2022",
    "de" : "Thüringen-Monitor 2000-2022",
    "en" : "Thüringen-Monitor 2000-2022"
  },
  "universe" : {
    "sampled" : {
      "pref" : "Wahlberechtigte Personen ab 18 Jahren in Privathaushalten",
      "de" : "Wahlberechtigte Personen ab 18 Jahren in Privathaushalten",
      "en" : "Eligible voters aged 18 and over in private households"
    }
  },
  "uri" : "https://doi.org/10.4232/1.14191",
  "searchappPublisher" : {
    "shortName" : "GESIS",
    "name" : {
      "de" : "GESIS - Leibniz Institut für Sozialwissenschaften",
      "en" : "GESIS - Leibniz Institute for the Social Sciences"
    },
    "url" : "https://www.gesis.org/"
  },
  "calculatedTemporalCoverage" : {
    "label" : "2000 - 2022",
    "dates" : [ "2000", "2001", "2002", "2003", "2004", "2005", "2006", "2007", "2008", "2009", "2010", "2011", "2012", "2013", "2014", "2015", "2016", "2017", "2018", "2019", "2020", "2021", "2022" ]
  }
}
