{
  "abstract" : {
    "pref" : "Parteineigung und Persönlichkeitsbeschreibung.\nThemen: Verhaltensabsicht für hypothetische Situation:Materialvorlieben für einen handwerklichen Beruf (Holz, Stahl, Ton oderStein) und präferierte Welt: überschaubar oder komplex;Sympathie-Skalometer für die Parteien SPD, CDU, CSU, FDP, Bündnis90/DieGrünen, PDS, Republikaner und DVU sowie für die Politiker GerhardSchröder, Joschka Fischer, Wolfgang Schäuble, Guido Westerwelle, EdmundStoiber, Jürgen Trittin, Gregor Gysi, Franz Schönhuber und Gerhard Frey;Sympathie-Skalometer für die Gewerkschaften, die katholische und dieevangelische Kirche; Einstellung zu konservativen und innovativenVorgehensweisen (ASCO-Skala); Ambiguitätstoleranz: Offenheit für neueErfahrungen (Skala), Rollenstereotypen (Skala), Toughness-Skala;Wählbarkeit von SPD, CDU, CSU, FDP, Bündnis90/Die Grünen, PDS,Republikaner und DVU; positive oder negative Empfindungen bei denBegriffen Traditionsverbundenheit, Protest, Veränderungsfreudigkeit,Selbstzucht, kompromisslose Haltung, Aufgeschlossenheit gegenüber Neuem,Pflichtbewusstsein, Phantasie, Gefühlsbetontheit, Kampf,Kritikfreudigkeit und Härte; Selbsteinstufung auf einemLinks-Rechts-Kontinuum; Politikinteresse; Postmaterialismus;Selbsteinschätzung der Charaktermerkmale (NEO-FFI-Skalen: Offenheit fürErfahrungen, Verträglichkeit und Gewissenhaftigkeit); Zuordnung derBegriffe Traditionsverbundenheit, kompromisslose Haltung,Veränderungsfreudigkeit, Protest, Pflichtbewusstsein, Gefühlsbetontheit,Phantasie, Gewissenhaftigkeit, Härte, Aufgeschlossenheit gegenüber Neuemzu Parteien; Einschätzung der Aufgeschlossenheit gegenüber Neuem, derHärte und Kompromisslosigkeit von Parteien, von Spitzenpolitikern undvom Befragten selbst (Skalometer); Beurteilung der eigenenwirtschaftlichen Lage sowie der wirtschaftlichen Lage in der BRD;wichtigstes Problem in Deutschland; Problemlösungskompetenz dereinzelnen Parteien (Skalometer); Neurotizismus und Extraversion(Skalen); charakterliche Selbsteinschätzung (Skala);Wahlbeteiligungsabsicht und Parteipräferenz (Sonntagsfrage); Gründe fürdie Wahlentscheidung: Gefühl oder Sympathie und Antipathie gegenüberbestimmten Politikern; Protestabsicht in der eigenen Wahlentscheidung(100-stufiges Skalometer); Selbsteinstufung als Protestwähler;politischer Kenntnistest (Bedeutung von Erststimme und Zweitstimme,Abstimmungsfreiheit von Bundestagsabgeordneten (kein Fraktionszwang),gesetzliche Erlaubnis zum Angriffskrieg durch die Bundeswehr);Einstellung zur Zuwanderung von Ausländern, zur Abrüstung der Bundeswehrund zur Einführung des Euro; Skala zur Erfassung extrem rechter undlinker politischer Einstellungen: Vertrauenswürdigkeit derParteipolitiker, Wahlbeteiligung als Bürgerpflicht, Nationalstolz,Machtgier von Parteien, Diktatur als Staatsform, Bürgernähe vonPolitikern, Überfremdung durch hohen Ausländeranteil in der BRD,Ausbeutung der Dritten Welt, Parteienverhalten gegenüber dem Staat,Heiratsverhalten von Ausländern, Ausrüstung der Bundeswehr, Korruptionvon Parteien und Politikern, Sozialismus als Idee, Unterordnung vonVerbandsinteressen zugunsten des Gemeinwohls, Mut zum Nationalgefühl,Einfluss der Parteien auf die Gesellschaft, Ausbeutung von Arbeitern,Antisemitismus, positive Bewertung der DDR, Verständnis für Anschlägeauf Asylbewerberheime, Verstaatlichung wichtiger Wirtschaftsunternehmen,Parteien nur auf Stimmenfang, amerikanischer Imperialismus als Gefahrfür den Weltfrieden, positive Bewertung des Nationalsozialismus, Hitlerals großer Staatsmann, zu großer Einfluss von Juden.\nDemographie: Geschlecht; Alter (Geburtsjahr); Religionszugehörigkeit;höchster Schulabschluss; Haushaltsgröße; derzeitige und frühereErwerbstätigkeit;  berufliche Stellung; Gewerkschaftsmitgliedschaft;Wahlberechtigung bei Bundestagswahlen; regionale Zugehörigkeit vor derWende; Stadtbezirk in Berlin; Parteineigung und Parteiidentifikation;",
    "de" : "Parteineigung und Persönlichkeitsbeschreibung.\nThemen: Verhaltensabsicht für hypothetische Situation:Materialvorlieben für einen handwerklichen Beruf (Holz, Stahl, Ton oderStein) und präferierte Welt: überschaubar oder komplex;Sympathie-Skalometer für die Parteien SPD, CDU, CSU, FDP, Bündnis90/DieGrünen, PDS, Republikaner und DVU sowie für die Politiker GerhardSchröder, Joschka Fischer, Wolfgang Schäuble, Guido Westerwelle, EdmundStoiber, Jürgen Trittin, Gregor Gysi, Franz Schönhuber und Gerhard Frey;Sympathie-Skalometer für die Gewerkschaften, die katholische und dieevangelische Kirche; Einstellung zu konservativen und innovativenVorgehensweisen (ASCO-Skala); Ambiguitätstoleranz: Offenheit für neueErfahrungen (Skala), Rollenstereotypen (Skala), Toughness-Skala;Wählbarkeit von SPD, CDU, CSU, FDP, Bündnis90/Die Grünen, PDS,Republikaner und DVU; positive oder negative Empfindungen bei denBegriffen Traditionsverbundenheit, Protest, Veränderungsfreudigkeit,Selbstzucht, kompromisslose Haltung, Aufgeschlossenheit gegenüber Neuem,Pflichtbewusstsein, Phantasie, Gefühlsbetontheit, Kampf,Kritikfreudigkeit und Härte; Selbsteinstufung auf einemLinks-Rechts-Kontinuum; Politikinteresse; Postmaterialismus;Selbsteinschätzung der Charaktermerkmale (NEO-FFI-Skalen: Offenheit fürErfahrungen, Verträglichkeit und Gewissenhaftigkeit); Zuordnung derBegriffe Traditionsverbundenheit, kompromisslose Haltung,Veränderungsfreudigkeit, Protest, Pflichtbewusstsein, Gefühlsbetontheit,Phantasie, Gewissenhaftigkeit, Härte, Aufgeschlossenheit gegenüber Neuemzu Parteien; Einschätzung der Aufgeschlossenheit gegenüber Neuem, derHärte und Kompromisslosigkeit von Parteien, von Spitzenpolitikern undvom Befragten selbst (Skalometer); Beurteilung der eigenenwirtschaftlichen Lage sowie der wirtschaftlichen Lage in der BRD;wichtigstes Problem in Deutschland; Problemlösungskompetenz dereinzelnen Parteien (Skalometer); Neurotizismus und Extraversion(Skalen); charakterliche Selbsteinschätzung (Skala);Wahlbeteiligungsabsicht und Parteipräferenz (Sonntagsfrage); Gründe fürdie Wahlentscheidung: Gefühl oder Sympathie und Antipathie gegenüberbestimmten Politikern; Protestabsicht in der eigenen Wahlentscheidung(100-stufiges Skalometer); Selbsteinstufung als Protestwähler;politischer Kenntnistest (Bedeutung von Erststimme und Zweitstimme,Abstimmungsfreiheit von Bundestagsabgeordneten (kein Fraktionszwang),gesetzliche Erlaubnis zum Angriffskrieg durch die Bundeswehr);Einstellung zur Zuwanderung von Ausländern, zur Abrüstung der Bundeswehrund zur Einführung des Euro; Skala zur Erfassung extrem rechter undlinker politischer Einstellungen: Vertrauenswürdigkeit derParteipolitiker, Wahlbeteiligung als Bürgerpflicht, Nationalstolz,Machtgier von Parteien, Diktatur als Staatsform, Bürgernähe vonPolitikern, Überfremdung durch hohen Ausländeranteil in der BRD,Ausbeutung der Dritten Welt, Parteienverhalten gegenüber dem Staat,Heiratsverhalten von Ausländern, Ausrüstung der Bundeswehr, Korruptionvon Parteien und Politikern, Sozialismus als Idee, Unterordnung vonVerbandsinteressen zugunsten des Gemeinwohls, Mut zum Nationalgefühl,Einfluss der Parteien auf die Gesellschaft, Ausbeutung von Arbeitern,Antisemitismus, positive Bewertung der DDR, Verständnis für Anschlägeauf Asylbewerberheime, Verstaatlichung wichtiger Wirtschaftsunternehmen,Parteien nur auf Stimmenfang, amerikanischer Imperialismus als Gefahrfür den Weltfrieden, positive Bewertung des Nationalsozialismus, Hitlerals großer Staatsmann, zu großer Einfluss von Juden.\nDemographie: Geschlecht; Alter (Geburtsjahr); Religionszugehörigkeit;höchster Schulabschluss; Haushaltsgröße; derzeitige und frühereErwerbstätigkeit;  berufliche Stellung; Gewerkschaftsmitgliedschaft;Wahlberechtigung bei Bundestagswahlen; regionale Zugehörigkeit vor derWende; Stadtbezirk in Berlin; Parteineigung und Parteiidentifikation;",
    "en" : ""
  },
  "availability" : {
    "availabilityType" : "Download",
    "embargoDate" : "",
    "label" : [ {
      "pref" : "0 - Daten und Dokumente sind für jedermann freigegeben.",
      "de" : "0 - Daten und Dokumente sind für jedermann freigegeben.",
      "en" : "0 - Data and documents are released for everybody."
    } ]
  },
  "collectionModes" : [ {
    "label" : {
      "pref" : "Telefonische Befragung mit standardisiertem Fragebogen",
      "de" : "Telefonische Befragung mit standardisiertem Fragebogen",
      "en" : ""
    }
  } ],
  "contributions" : [ {
    "type" : [ "Creator" ],
    "agent" : {
      "type" : [ "Person" ],
      "uri" : "info:searchapp/vocab/adhoc/U2NodW1hbm4sIFNpZWdmcmllZA==",
      "label" : "Schumann, Siegfried",
      "affiliation" : {
        "uri" : "info:searchapp/vocab/adhoc/SW5zdGl0dXQgZsO8ciBQb2xpdGlrd2lzc2Vuc2NoYWZ0LCBKb2hhbm5lcy1HdXRlbmJlcmctVW5pdmVyc2l0w6R0LApNYWlueg==",
        "label" : {
          "pref" : "Institut für Politikwissenschaft, Johannes-Gutenberg-Universität,\nMainz",
          "de" : "Institut für Politikwissenschaft, Johannes-Gutenberg-Universität,\nMainz",
          "en" : "Institut für Politikwissenschaft, Johannes-Gutenberg-Universität,\nMainz"
        }
      }
    },
    "role" : [ ]
  }, {
    "type" : [ "Creator" ],
    "agent" : {
      "type" : [ "Institution" ],
      "uri" : "info:searchapp/vocab/adhoc/RnJpdHogVGh5c3NlbiBTdGlmdHVuZywgS8O2bG4=",
      "label" : "Fritz Thyssen Stiftung, Köln"
    },
    "role" : [ ]
  } ],
  "describedBy" : {
    "uri" : "https://git.gesis.org/datorium/dbk-oai-dprex-set-data/oai.dbk.gesis.org.DBK.ZA4174",
    "type" : "ResearchData",
    "modifiedBy" : {
      "uri" : "https://searchapp-indexer",
      "label" : {
        "pref" : "Searchapp Indexer"
      },
      "dateCreated" : "2024-06-21T05:26:27.082+02:00",
      "dateModified" : "2024-06-21T05:26:27.082+02:00",
      "inDataset" : {
        "uri" : "https://dbkapps.gesis.org/dbkoai/?verb=ListIdentifiers&metadataPrefix=oai_dara&set=DPREX"
      },
      "resultOf" : {
        "type" : [ "CreateAction" ],
        "endTime" : "2024-06-21T05:26:27.082+02:00",
        "instrument" : {
          "uri" : "https://git.gesis.org/datorium/searchapp-indexer",
          "type" : [ "SoftwareApplication" ],
          "label" : "Searchapp Indexer"
        },
        "srcObject" : {
          "uri" : "https://dbkapps.gesis.org/dbkoai/?verb=GetRecord&metadataPrefix=oai_dara&identifier=oai:dbk.gesis.org:DBK/ZA4174",
          "type" : [ "DataFeedItem" ],
          "inDataset" : {
            "uri" : "https://dbkapps.gesis.org/dbkoai/?verb=ListIdentifiers&metadataPrefix=oai_dara&set=DPREX",
            "label" : "DBK_OAI"
          }
        }
      }
    }
  },
  "documentId" : "oai.dbk.gesis.org.DBK.ZA4174",
  "geographicCoverages" : [ {
    "geographicCoverageControlled" : "DE-BE"
  } ],
  "handles" : [ {
    "type" : "DOI",
    "notation" : "10.4232/1.4174",
    "url" : "https://doi.org/10.4232/1.4174",
    "source" : {
      "uri" : "https://www.da-ra.de/",
      "label" : "DARA"
    }
  } ],
  "natureOfContents" : [ {
    "uri" : "info:searchapp/vocab/Dataset",
    "label" : {
      "pref" : "Dataset",
      "de" : "Dataset",
      "en" : "Dataset"
    }
  } ],
  "publications" : [ {
    "type" : [ "PublicationEvent" ],
    "startDate" : "2003"
  } ],
  "resourceLanguage" : "deu",
  "rights" : {
    "licenseType" : "",
    "label" : {
      "pref" : "Alle im GESIS DBK veröffentlichten Metadaten sind frei verfügbar unter den Creative Commons CC0 1.0 Universal Public Domain Dedication. GESIS bittet jedoch darum, dass Sie alle Metadatenquellen anerkennen und sie nennen, etwa die Datengeber oder jeglichen Aggregator, inklusive GESIS selbst. Für weitere Informationen siehe https://dbk.gesis.org/dbksearch/guidelines.asp?db=d",
      "de" : "Alle im GESIS DBK veröffentlichten Metadaten sind frei verfügbar unter den Creative Commons CC0 1.0 Universal Public Domain Dedication. GESIS bittet jedoch darum, dass Sie alle Metadatenquellen anerkennen und sie nennen, etwa die Datengeber oder jeglichen Aggregator, inklusive GESIS selbst. Für weitere Informationen siehe https://dbk.gesis.org/dbksearch/guidelines.asp?db=d",
      "en" : "All metadata from GESIS DBK are available free of restriction under the Creative Commons CC0 1.0 Universal Public Domain Dedication. However, GESIS requests that you actively acknowledge and give attribution to all metadata sources, such as the data providers and any data aggregators, including GESIS. For further information see https://dbk.gesis.org/dbksearch/guidelines.asp"
    }
  },
  "sampling" : {
    "method" : {
      "pref" : "Auswahlverfahren Kommentar: Zufallsauswahl",
      "de" : "Auswahlverfahren Kommentar: Zufallsauswahl",
      "en" : ""
    }
  },
  "subjects" : [ {
    "type" : [ "SubjectHeading" ],
    "uri" : "info:searchapp/vocab/adhoc/UG9saXRpc2NoZXMgVmVyaGFsdGVuIHVuZCBwb2xpdGlzY2hlIEVpbnN0ZWxsdW5nZW4=",
    "notation" : "",
    "source" : {
      "uri" : "info:searchapp/vocab/adhoc/Q0VTU0RBIFRvcGljIENsYXNzaWZpY2F0aW9u",
      "label" : "CESSDA Topic Classification"
    },
    "label" : {
      "pref" : "Politisches Verhalten und politische Einstellungen",
      "de" : "Politisches Verhalten und politische Einstellungen",
      "en" : "Political behaviour and attitudes"
    }
  }, {
    "type" : [ "SubjectHeading" ],
    "uri" : "info:searchapp/vocab/adhoc/UmVnaWVydW5nLCBwb2xpdGlzY2hlIFN5c3RlbWUsIFBhcnRlaWVuIHVuZCBPcmdhbmlzYXRpb25lbg==",
    "notation" : "",
    "source" : {
      "uri" : "info:searchapp/vocab/adhoc/Q0VTU0RBIFRvcGljIENsYXNzaWZpY2F0aW9u",
      "label" : "CESSDA Topic Classification"
    },
    "label" : {
      "pref" : "Regierung, politische Systeme, Parteien und Organisationen",
      "de" : "Regierung, politische Systeme, Parteien und Organisationen",
      "en" : "Government, political systems and organisations"
    }
  }, {
    "type" : [ "SubjectHeading" ],
    "uri" : "info:searchapp/vocab/adhoc/UFNZQ0hPTE9HSUU=",
    "notation" : "",
    "source" : {
      "uri" : "info:searchapp/vocab/adhoc/Q0VTU0RBIFRvcGljIENsYXNzaWZpY2F0aW9u",
      "label" : "CESSDA Topic Classification"
    },
    "label" : {
      "pref" : "PSYCHOLOGIE",
      "de" : "PSYCHOLOGIE",
      "en" : "PSYCHOLOGY"
    }
  } ],
  "temporalCoverages" : [ {
    "startDate" : "1999-08",
    "endDate" : "1999-09",
    "labels" : [ ]
  } ],
  "timeDimensions" : [ {
    "timeDimensionType" : ""
  } ],
  "title" : {
    "pref" : "Persönlichkeitsbedingte Einstellungen zu Parteien, Berlin-Studie 1999",
    "de" : "Persönlichkeitsbedingte Einstellungen zu Parteien, Berlin-Studie 1999",
    "en" : "Personality-Based Attitudes towards Political Parties, Berlin Study 1999"
  },
  "universe" : {
    "sampled" : {
      "pref" : "Deutschsprachige Wahlberechtigte im Alter von 18 Jahren und älter",
      "de" : "Deutschsprachige Wahlberechtigte im Alter von 18 Jahren und älter",
      "en" : ""
    }
  },
  "uri" : "https://doi.org/10.4232/1.4174",
  "searchappPublisher" : {
    "shortName" : "GESIS",
    "name" : {
      "de" : "GESIS - Leibniz Institut für Sozialwissenschaften",
      "en" : "GESIS - Leibniz Institute for the Social Sciences"
    },
    "url" : "https://www.gesis.org/"
  },
  "calculatedTemporalCoverage" : {
    "label" : "1999",
    "dates" : [ "1999" ]
  }
}
