{
  "abstract" : {
    "pref" : "Die Politbarometer werden seit 1977 etwa monatlich von der Forschungsgruppe Wahlen für das Zweite Deutsche Fernsehen (ZDF) durchgeführt. Seit 1990 steht diese Datenbasis auch für die neuen Bundesländer zur Verfügung. Im Zentrum der Untersuchung stehen die Meinungen und Einstellungen der wahlberechtigten Bevölkerung in der Bundesrepublik zu aktuellen politischen Themen, Parteien und Politikern sowie dem Wahlverhalten. 1990 bis 1995 und ab 1999 wurden die Politbarometer-Umfragen in den neuen und alten Bundesländern getrennt durchgeführt (Politbarometer Ost bzw. Politbarometer West). Die monatlichen Einzelumfragen eines Jahres werden in einen kumulierten Datensatz integriert, der alle Erhebungen eines Jahres und alle Variablen des jeweiligen Jahrganges umfasst. Ab 2003 sind die Politbarometer-Kurzbefragungen, die unterschiedlich häufig im Jahr erhoben werden, in die Jahreskumulation integriert.",
    "de" : "Die Politbarometer werden seit 1977 etwa monatlich von der Forschungsgruppe Wahlen für das Zweite Deutsche Fernsehen (ZDF) durchgeführt. Seit 1990 steht diese Datenbasis auch für die neuen Bundesländer zur Verfügung. Im Zentrum der Untersuchung stehen die Meinungen und Einstellungen der wahlberechtigten Bevölkerung in der Bundesrepublik zu aktuellen politischen Themen, Parteien und Politikern sowie dem Wahlverhalten. 1990 bis 1995 und ab 1999 wurden die Politbarometer-Umfragen in den neuen und alten Bundesländern getrennt durchgeführt (Politbarometer Ost bzw. Politbarometer West). Die monatlichen Einzelumfragen eines Jahres werden in einen kumulierten Datensatz integriert, der alle Erhebungen eines Jahres und alle Variablen des jeweiligen Jahrganges umfasst. Ab 2003 sind die Politbarometer-Kurzbefragungen, die unterschiedlich häufig im Jahr erhoben werden, in die Jahreskumulation integriert.",
    "en" : "The Politbarometer has been conducted since 1977 on an almost monthly basis by the Forschungsgruppe Wahlen on behalf of the Second German Television (ZDF). Since 1990, this database has also been available for the new German states. The survey focuses on the opinions and attitudes of the voting-age population in the Federal Republic on current political issues, parties, politicians, and voting behavior. From 1990 to 1995 and from 1999 onward, the Politbarometer surveys were conducted separately both in the newly formed eastern and in the western German states (Politbarometer East and Politbarometer West). The separate monthly surveys of a year are integrated into a cumulative data set that includes all surveys of a year and all variables of the respective year. Starting in 2003, the Politbarometer short surveys, collected with varying frequency throughout the year, are integrated into the annual cumulation."
  },
  "availability" : {
    "availabilityType" : "Download",
    "embargoDate" : "",
    "label" : [ {
      "pref" : "A - Daten und Dokumente sind für die akademische Forschung und Lehre freigegeben.",
      "de" : "A - Daten und Dokumente sind für die akademische Forschung und Lehre freigegeben.",
      "en" : "A - Data and documents are released for academic research and teaching."
    } ]
  },
  "collectionModes" : [ {
    "type" : "Interview.FaceToFace.PAPI"
  }, {
    "label" : {
      "pref" : "Mündliche Befragung mit standardisiertem Fragebogen",
      "de" : "Mündliche Befragung mit standardisiertem Fragebogen",
      "en" : "Oral survey with standardized questionnaire"
    }
  } ],
  "contributions" : [ {
    "type" : [ "Creator" ],
    "agent" : {
      "type" : [ "Person" ],
      "uri" : "info:searchapp/vocab/adhoc/QmVyZ2VyLCBNYW5mcmVk",
      "label" : "Berger, Manfred",
      "affiliation" : {
        "uri" : "info:searchapp/vocab/adhoc/Rm9yc2NodW5nc2dydXBwZSBXYWhsZW4sIE1hbm5oZWlt",
        "label" : {
          "pref" : "Forschungsgruppe Wahlen, Mannheim",
          "de" : "Forschungsgruppe Wahlen, Mannheim",
          "en" : "Forschungsgruppe Wahlen, Mannheim"
        }
      }
    },
    "role" : [ ]
  }, {
    "type" : [ "Creator" ],
    "agent" : {
      "type" : [ "Person" ],
      "uri" : "info:searchapp/vocab/adhoc/SnVuZywgTWF0dGhpYXM=",
      "label" : "Jung, Matthias",
      "affiliation" : {
        "uri" : "info:searchapp/vocab/adhoc/Rm9yc2NodW5nc2dydXBwZSBXYWhsZW4sIE1hbm5oZWlt",
        "label" : {
          "pref" : "Forschungsgruppe Wahlen, Mannheim",
          "de" : "Forschungsgruppe Wahlen, Mannheim",
          "en" : "Forschungsgruppe Wahlen, Mannheim"
        }
      }
    },
    "role" : [ ]
  }, {
    "type" : [ "Creator" ],
    "agent" : {
      "type" : [ "Person" ],
      "uri" : "info:searchapp/vocab/adhoc/Um90aCwgRGlldGVy",
      "label" : "Roth, Dieter",
      "affiliation" : {
        "uri" : "info:searchapp/vocab/adhoc/Rm9yc2NodW5nc2dydXBwZSBXYWhsZW4sIE1hbm5oZWlt",
        "label" : {
          "pref" : "Forschungsgruppe Wahlen, Mannheim",
          "de" : "Forschungsgruppe Wahlen, Mannheim",
          "en" : "Forschungsgruppe Wahlen, Mannheim"
        }
      }
    },
    "role" : [ ]
  }, {
    "type" : [ "Creator" ],
    "agent" : {
      "type" : [ "Institution" ],
      "uri" : "info:searchapp/vocab/adhoc/VVNVTUEsIEJlcmxpbg==",
      "label" : "USUMA, Berlin"
    },
    "role" : [ ]
  } ],
  "describedBy" : {
    "uri" : "https://git.gesis.org/datorium/dbk-oai-dprex-set-data/oai.dbk.gesis.org.DBK.ZA2114",
    "type" : "ResearchData",
    "modifiedBy" : {
      "uri" : "https://searchapp-indexer",
      "label" : {
        "pref" : "Searchapp Indexer"
      },
      "dateCreated" : "2024-06-21T05:26:26.709+02:00",
      "dateModified" : "2024-06-21T05:26:26.709+02:00",
      "inDataset" : {
        "uri" : "https://dbkapps.gesis.org/dbkoai/?verb=ListIdentifiers&metadataPrefix=oai_dara&set=DPREX"
      },
      "resultOf" : {
        "type" : [ "CreateAction" ],
        "endTime" : "2024-06-21T05:26:26.709+02:00",
        "instrument" : {
          "uri" : "https://git.gesis.org/datorium/searchapp-indexer",
          "type" : [ "SoftwareApplication" ],
          "label" : "Searchapp Indexer"
        },
        "srcObject" : {
          "uri" : "https://dbkapps.gesis.org/dbkoai/?verb=GetRecord&metadataPrefix=oai_dara&identifier=oai:dbk.gesis.org:DBK/ZA2114",
          "type" : [ "DataFeedItem" ],
          "inDataset" : {
            "uri" : "https://dbkapps.gesis.org/dbkoai/?verb=ListIdentifiers&metadataPrefix=oai_dara&set=DPREX",
            "label" : "DBK_OAI"
          }
        }
      }
    }
  },
  "documentId" : "oai.dbk.gesis.org.DBK.ZA2114",
  "geographicCoverages" : [ {
    "geographicCoveragesFree" : {
      "pref" : "mit Berlin-Ost",
      "de" : "mit Berlin-Ost",
      "en" : "with East Berlin"
    },
    "geographicCoverageControlled" : "DE-BE"
  }, {
    "geographicCoverageControlled" : "DE-BB"
  }, {
    "geographicCoverageControlled" : "DE-MV"
  }, {
    "geographicCoverageControlled" : "DE-SN"
  }, {
    "geographicCoverageControlled" : "DE-ST"
  }, {
    "geographicCoverageControlled" : "DE-TH"
  } ],
  "handles" : [ {
    "type" : "DOI",
    "notation" : "10.4232/1.2114",
    "url" : "https://doi.org/10.4232/1.2114",
    "source" : {
      "uri" : "https://www.da-ra.de/",
      "label" : "DARA"
    }
  } ],
  "natureOfContents" : [ {
    "uri" : "info:searchapp/vocab/Dataset",
    "label" : {
      "pref" : "Dataset",
      "de" : "Dataset",
      "en" : "Dataset"
    }
  } ],
  "publications" : [ {
    "type" : [ "PublicationEvent" ],
    "startDate" : "1992"
  } ],
  "resourceLanguage" : "deu",
  "rights" : {
    "licenseType" : "",
    "label" : {
      "pref" : "Alle im GESIS DBK veröffentlichten Metadaten sind frei verfügbar unter den Creative Commons CC0 1.0 Universal Public Domain Dedication. GESIS bittet jedoch darum, dass Sie alle Metadatenquellen anerkennen und sie nennen, etwa die Datengeber oder jeglichen Aggregator, inklusive GESIS selbst. Für weitere Informationen siehe https://dbk.gesis.org/dbksearch/guidelines.asp?db=d",
      "de" : "Alle im GESIS DBK veröffentlichten Metadaten sind frei verfügbar unter den Creative Commons CC0 1.0 Universal Public Domain Dedication. GESIS bittet jedoch darum, dass Sie alle Metadatenquellen anerkennen und sie nennen, etwa die Datengeber oder jeglichen Aggregator, inklusive GESIS selbst. Für weitere Informationen siehe https://dbk.gesis.org/dbksearch/guidelines.asp?db=d",
      "en" : "All metadata from GESIS DBK are available free of restriction under the Creative Commons CC0 1.0 Universal Public Domain Dedication. However, GESIS requests that you actively acknowledge and give attribution to all metadata sources, such as the data providers and any data aggregators, including GESIS. For further information see https://dbk.gesis.org/dbksearch/guidelines.asp"
    }
  },
  "sampling" : {
    "method" : {
      "pref" : "Wahrscheinlichkeitsauswahl: Mehrstufige Zufallsauswahl; Wahrscheinlichkeitsauswahl: Geschichtete Zufallsauswahl; Auswahlverfahren Kommentar: Mehrstufig geschichtete Zufallsauswahl (Random-Route-Verfahren)",
      "de" : "Wahrscheinlichkeitsauswahl: Mehrstufige Zufallsauswahl; Wahrscheinlichkeitsauswahl: Geschichtete Zufallsauswahl; Auswahlverfahren Kommentar: Mehrstufig geschichtete Zufallsauswahl (Random-Route-Verfahren)",
      "en" : "Probability: Multistage; Probability: Stratified; Sampling Procedure Comment: Multi-stage stratified random sample (random route procedure)"
    }
  },
  "subjects" : [ {
    "type" : [ "SubjectHeading" ],
    "uri" : "info:searchapp/vocab/adhoc/TWlncmF0aW9u",
    "notation" : "",
    "source" : {
      "uri" : "info:searchapp/vocab/adhoc/Q0VTU0RBIFRvcGljIENsYXNzaWZpY2F0aW9u",
      "label" : "CESSDA Topic Classification"
    },
    "label" : {
      "pref" : "Migration",
      "de" : "Migration",
      "en" : "Migration"
    }
  }, {
    "type" : [ "SubjectHeading" ],
    "uri" : "info:searchapp/vocab/adhoc/S3VsdHVyZWxsZSB1bmQgbmF0aW9uYWxlIElkZW50aXTDpHQ=",
    "notation" : "",
    "source" : {
      "uri" : "info:searchapp/vocab/adhoc/Q0VTU0RBIFRvcGljIENsYXNzaWZpY2F0aW9u",
      "label" : "CESSDA Topic Classification"
    },
    "label" : {
      "pref" : "Kulturelle und nationale Identität",
      "de" : "Kulturelle und nationale Identität",
      "en" : "Cultural and national identity"
    }
  }, {
    "type" : [ "SubjectHeading" ],
    "uri" : "info:searchapp/vocab/adhoc/R0VTRVRaLCBLUklNSU5BTElUw4RUIFVORCBSRUNIVFNTWVNURU1F",
    "notation" : "",
    "source" : {
      "uri" : "info:searchapp/vocab/adhoc/Q0VTU0RBIFRvcGljIENsYXNzaWZpY2F0aW9u",
      "label" : "CESSDA Topic Classification"
    },
    "label" : {
      "pref" : "GESETZ, KRIMINALITÄT UND RECHTSSYSTEME",
      "de" : "GESETZ, KRIMINALITÄT UND RECHTSSYSTEME",
      "en" : "LAW, CRIME AND LEGAL SYSTEMS"
    }
  }, {
    "type" : [ "SubjectHeading" ],
    "uri" : "info:searchapp/vocab/adhoc/S29uZmxpa3RlLCBTaWNoZXJoZWl0IHVuZCBGcmllZGVu",
    "notation" : "",
    "source" : {
      "uri" : "info:searchapp/vocab/adhoc/Q0VTU0RBIFRvcGljIENsYXNzaWZpY2F0aW9u",
      "label" : "CESSDA Topic Classification"
    },
    "label" : {
      "pref" : "Konflikte, Sicherheit und Frieden",
      "de" : "Konflikte, Sicherheit und Frieden",
      "en" : "Conflict, security and peace"
    }
  }, {
    "type" : [ "SubjectHeading" ],
    "uri" : "info:searchapp/vocab/adhoc/UG9saXRpc2NoZSBJZGVvbG9naWU=",
    "notation" : "",
    "source" : {
      "uri" : "info:searchapp/vocab/adhoc/Q0VTU0RBIFRvcGljIENsYXNzaWZpY2F0aW9u",
      "label" : "CESSDA Topic Classification"
    },
    "label" : {
      "pref" : "Politische Ideologie",
      "de" : "Politische Ideologie",
      "en" : "Political ideology"
    }
  }, {
    "type" : [ "SubjectHeading" ],
    "uri" : "info:searchapp/vocab/adhoc/UG9saXRpc2NoZXMgVmVyaGFsdGVuIHVuZCBwb2xpdGlzY2hlIEVpbnN0ZWxsdW5nZW4=",
    "notation" : "",
    "source" : {
      "uri" : "info:searchapp/vocab/adhoc/Q0VTU0RBIFRvcGljIENsYXNzaWZpY2F0aW9u",
      "label" : "CESSDA Topic Classification"
    },
    "label" : {
      "pref" : "Politisches Verhalten und politische Einstellungen",
      "de" : "Politisches Verhalten und politische Einstellungen",
      "en" : "Political behaviour and attitudes"
    }
  }, {
    "type" : [ "SubjectHeading" ],
    "uri" : "info:searchapp/vocab/adhoc/UmVnaWVydW5nLCBwb2xpdGlzY2hlIFN5c3RlbWUsIFBhcnRlaWVuIHVuZCBPcmdhbmlzYXRpb25lbg==",
    "notation" : "",
    "source" : {
      "uri" : "info:searchapp/vocab/adhoc/Q0VTU0RBIFRvcGljIENsYXNzaWZpY2F0aW9u",
      "label" : "CESSDA Topic Classification"
    },
    "label" : {
      "pref" : "Regierung, politische Systeme, Parteien und Organisationen",
      "de" : "Regierung, politische Systeme, Parteien und Organisationen",
      "en" : "Government, political systems and organisations"
    }
  }, {
    "type" : [ "SubjectHeading" ],
    "uri" : "info:searchapp/vocab/adhoc/V2FobGVu",
    "notation" : "",
    "source" : {
      "uri" : "info:searchapp/vocab/adhoc/Q0VTU0RBIFRvcGljIENsYXNzaWZpY2F0aW9u",
      "label" : "CESSDA Topic Classification"
    },
    "label" : {
      "pref" : "Wahlen",
      "de" : "Wahlen",
      "en" : "Elections"
    }
  }, {
    "type" : [ "SubjectHeading" ],
    "uri" : "info:searchapp/vocab/adhoc/V2lydHNjaGFmdGxpY2hlIExhZ2UgdW5kIEluZGlrYXRvcmVu",
    "notation" : "",
    "source" : {
      "uri" : "info:searchapp/vocab/adhoc/Q0VTU0RBIFRvcGljIENsYXNzaWZpY2F0aW9u",
      "label" : "CESSDA Topic Classification"
    },
    "label" : {
      "pref" : "Wirtschaftliche Lage und Indikatoren",
      "de" : "Wirtschaftliche Lage und Indikatoren",
      "en" : "Economic conditions and indicators"
    }
  }, {
    "type" : [ "SubjectHeading" ],
    "uri" : "info:searchapp/vocab/adhoc/V2lydHNjaGFmdHNwb2xpdGlrLCDDtmZmZW50bGljaGUgQXVzZ2FiZW4gdW5kIEVpbm5haG1lbg==",
    "notation" : "",
    "source" : {
      "uri" : "info:searchapp/vocab/adhoc/Q0VTU0RBIFRvcGljIENsYXNzaWZpY2F0aW9u",
      "label" : "CESSDA Topic Classification"
    },
    "label" : {
      "pref" : "Wirtschaftspolitik, öffentliche Ausgaben und Einnahmen",
      "de" : "Wirtschaftspolitik, öffentliche Ausgaben und Einnahmen",
      "en" : "Economic policy,  public expenditure and revenue"
    }
  }, {
    "type" : [ "SubjectHeading" ],
    "uri" : "info:searchapp/vocab/adhoc/V2lydHNjaGFmdHNzeXN0ZW1lIHVuZCB3aXJ0c2NoYWZ0bGljaGUgRW50d2lja2x1bmc=",
    "notation" : "",
    "source" : {
      "uri" : "info:searchapp/vocab/adhoc/Q0VTU0RBIFRvcGljIENsYXNzaWZpY2F0aW9u",
      "label" : "CESSDA Topic Classification"
    },
    "label" : {
      "pref" : "Wirtschaftssysteme und wirtschaftliche Entwicklung",
      "de" : "Wirtschaftssysteme und wirtschaftliche Entwicklung",
      "en" : "Economic systems and development"
    }
  }, {
    "type" : [ "SubjectHeading" ],
    "uri" : "info:searchapp/vocab/adhoc/V29obnJhdW0=",
    "notation" : "",
    "source" : {
      "uri" : "info:searchapp/vocab/adhoc/Q0VTU0RBIFRvcGljIENsYXNzaWZpY2F0aW9u",
      "label" : "CESSDA Topic Classification"
    },
    "label" : {
      "pref" : "Wohnraum",
      "de" : "Wohnraum",
      "en" : "Housing"
    }
  } ],
  "temporalCoverages" : [ {
    "startDate" : "1991-01",
    "endDate" : "1991-12",
    "labels" : [ ]
  } ],
  "timeDimensions" : [ {
    "timeDimensionType" : "Longitudinal.Trend/RepeatedCrossSection"
  } ],
  "title" : {
    "pref" : "Politbarometer Ost 1991 (Kumulierter Datensatz)",
    "de" : "Politbarometer Ost 1991 (Kumulierter Datensatz)",
    "en" : "Politbarometer East 1991 (Cumulated Data Set)"
  },
  "universe" : {
    "sampled" : {
      "pref" : "In Privathaushalten lebende deutsche Staatsangehörige ab 18 Jahren",
      "de" : "In Privathaushalten lebende deutsche Staatsangehörige ab 18 Jahren",
      "en" : "Persons of German citizenship living in private households 18 years old and older."
    }
  },
  "uri" : "https://doi.org/10.4232/1.2114",
  "searchappPublisher" : {
    "shortName" : "GESIS",
    "name" : {
      "de" : "GESIS - Leibniz Institut für Sozialwissenschaften",
      "en" : "GESIS - Leibniz Institute for the Social Sciences"
    },
    "url" : "https://www.gesis.org/"
  },
  "calculatedTemporalCoverage" : {
    "label" : "1991",
    "dates" : [ "1991" ]
  }
}
