{
  "abstract" : {
    "pref" : "Allgemeine Lebenssituation von Türkischstämmigen in Deutschland  und deren Verhältnis zu Deutschland und den Deutschen. Zugehörigkeitsgefühl und Identität. Integration. Gesellschaft und Politik. \n1. Allgemeine Lebenssituation und Verhältnis zu Deutschland und den Deutschen: Geburt in Deutschland; allgemeine Lebenszufriedenheit; Eltern leben noch, Eltern leben in Deutschland oder im Ausland; eigene Zukunft eher in Deutschland, in der Türkei, in Europa oder anderswo; Lebenszufriedenheit in Deutschland; positive Merkmale Deutschlands bzw. Störendes; Kontakte zu Deutschen: Anteil der Personen deutscher Herkunft im Freundeskreis; Herkunft der beiden engsten Freunde; Bereitschaft zu einer Partnerschaft mit einem nicht-muslimischen Partner (nur Muslime); \n2. Zugehörigkeitsgefühl und Identität: Deutsche Staatsangehörigkeit; beabsichtigte deutsche Staatsbürgerschaft; Verbundenheit mit Deutschland und mit der Türkei; Selbsteinschätzung der deutschen und türkischen Sprachkenntnisse; Identität als Deutsche/r, Türke/Türkin oder (nur Muslime: Muslim/Muslima); Kultur und kulturelle Fremdheit: Religiosität und Glaubenspraxis im Alltag; Einstellungen zum Thema Religion und Gesellschaft. \n3. Integration: Gefühl der Akzeptanz als gleichberechtigter Bürger; Häufigkeit erfahrener Diskriminierung in verschiedenen Situationen; Einstellung zum Thema Integration (Skala); Angaben zum eigenen Migrationshintergrund (Generation); bessere Integration der Generation der Eltern oder der eigenen Generation; Selbsteinschätzung der eigenen Integration; wichtige Aspekte im Hinblick auf die Integration von Zuwanderern (Zuwanderer selbst sowie Staat bzw. deutsche Gesellschaft); Realisierung dieser Aspekte bzw. Maßnahmen.\n4. Gesellschaft und Politik: Zukunftssorgen; Politikinteresse; Demokratiezufriedenheit; Meinung zum Thema Zuwanderung: eher Vorteile oder Nachteile für Deutschland durch die Zuwanderung; Deutschland sollte mehr oder weniger Flüchtlinge aufnehmen. \nDemographie: Geschlecht; Alter; Erwerbsstatus; Religionszugehörigkeit; muslimische Glaubensgemeinschaft; Kinder und Anzahl eigener Kinder; Familienstand; Aufenthaltsdauer in Deutschland (Lebensjahr); Mitgliedschaften in Vereinen, Verbänden, kirchlichen und gesellschaftlichen Organisationen sowie Gruppen, die Traditionen des Herkunftslandes der Familie pflegen; Zweck der erteilten Aufenthaltserlaubnis; Schulabschluss erworben; Erwerb des Schulabschlusses in Deutschland, in der Türkei oder anderswo; höchster Schulabschluss; höchster in der Türkei erworbener Schulabschluss; berufliche Stellung; Haushaltsnettoeinkommen.\nZusätzlich verkodet wurde: Befragten-ID; Gewichtungsfaktor; BIK-Gemeindetyp; Integrations-INDEX.",
    "de" : "Allgemeine Lebenssituation von Türkischstämmigen in Deutschland  und deren Verhältnis zu Deutschland und den Deutschen. Zugehörigkeitsgefühl und Identität. Integration. Gesellschaft und Politik. \n1. Allgemeine Lebenssituation und Verhältnis zu Deutschland und den Deutschen: Geburt in Deutschland; allgemeine Lebenszufriedenheit; Eltern leben noch, Eltern leben in Deutschland oder im Ausland; eigene Zukunft eher in Deutschland, in der Türkei, in Europa oder anderswo; Lebenszufriedenheit in Deutschland; positive Merkmale Deutschlands bzw. Störendes; Kontakte zu Deutschen: Anteil der Personen deutscher Herkunft im Freundeskreis; Herkunft der beiden engsten Freunde; Bereitschaft zu einer Partnerschaft mit einem nicht-muslimischen Partner (nur Muslime); \n2. Zugehörigkeitsgefühl und Identität: Deutsche Staatsangehörigkeit; beabsichtigte deutsche Staatsbürgerschaft; Verbundenheit mit Deutschland und mit der Türkei; Selbsteinschätzung der deutschen und türkischen Sprachkenntnisse; Identität als Deutsche/r, Türke/Türkin oder (nur Muslime: Muslim/Muslima); Kultur und kulturelle Fremdheit: Religiosität und Glaubenspraxis im Alltag; Einstellungen zum Thema Religion und Gesellschaft. \n3. Integration: Gefühl der Akzeptanz als gleichberechtigter Bürger; Häufigkeit erfahrener Diskriminierung in verschiedenen Situationen; Einstellung zum Thema Integration (Skala); Angaben zum eigenen Migrationshintergrund (Generation); bessere Integration der Generation der Eltern oder der eigenen Generation; Selbsteinschätzung der eigenen Integration; wichtige Aspekte im Hinblick auf die Integration von Zuwanderern (Zuwanderer selbst sowie Staat bzw. deutsche Gesellschaft); Realisierung dieser Aspekte bzw. Maßnahmen.\n4. Gesellschaft und Politik: Zukunftssorgen; Politikinteresse; Demokratiezufriedenheit; Meinung zum Thema Zuwanderung: eher Vorteile oder Nachteile für Deutschland durch die Zuwanderung; Deutschland sollte mehr oder weniger Flüchtlinge aufnehmen. \nDemographie: Geschlecht; Alter; Erwerbsstatus; Religionszugehörigkeit; muslimische Glaubensgemeinschaft; Kinder und Anzahl eigener Kinder; Familienstand; Aufenthaltsdauer in Deutschland (Lebensjahr); Mitgliedschaften in Vereinen, Verbänden, kirchlichen und gesellschaftlichen Organisationen sowie Gruppen, die Traditionen des Herkunftslandes der Familie pflegen; Zweck der erteilten Aufenthaltserlaubnis; Schulabschluss erworben; Erwerb des Schulabschlusses in Deutschland, in der Türkei oder anderswo; höchster Schulabschluss; höchster in der Türkei erworbener Schulabschluss; berufliche Stellung; Haushaltsnettoeinkommen.\nZusätzlich verkodet wurde: Befragten-ID; Gewichtungsfaktor; BIK-Gemeindetyp; Integrations-INDEX.",
    "en" : "General situation of young people of Turkish descent and their relationship to Germany and the Germans. Sense of belonging and identity. Integration. Society and politics.\n1. General situation and relationship to Germany and the Germans: born in Germany; general life satisfaction; parents are still alive, parents live in Germany or abroad; own future rather in Germany, in Turkey, in Europe, or elsewhere; life satisfaction in Germany; positive and or disturbing characteristics of Germany; personal contacts with Germans: proportion of people of German origin in the circle of friends; origin of the two closest friends; readiness for a partnership with a non-Muslim partner (Muslims only).\n2. Sense of belonging and identity: German nationality; intention to German citizenship; closeness to Germany and to Turkey; self-assessment of German and Turkish language skills; identity as a German Turk (Muslims only: or Muslim); culture and cultural alienation: religiousness and religious practice in everyday life; attitudes towards religion and society.\n3. Integration: sense of acceptance as an equal citizen; frequency of discrimination experience in different situations; attitude towards integration (scale); information on personal immigrant background (generation); better integration of the generation of the parents or of the own generation; self-assessment of personal integration; important aspects with regard to the integration of immigrants (immigrants themselves, state and German society); realization of these aspects and measures.\n4. Society and politics: future worries; interest in politics; satisfaction with democracy; opinion on immigration: more advantages or disadvantages by immigration for Germany; Germany should take more or less refugees.\nDemography: sex; age; employment status; religious affiliation; Muslim affiliation; number of own children; marital status; duration of stay in Germany (age); memberships in clubs, associations, ecclesial and social organizations, and in groups, that maintain the traditions of the country of origin of the family; purpose of residence permit; graduation acquired; acquisition of graduation in Germany, in Turkey or elsewhere; highest education degree; highest in Turkey acquired education degree; occupational position; household income.\nAlso encoded was: respondent-ID; weighting factor; BIK-type of municipality; integration-INDEX."
  },
  "availability" : {
    "availabilityType" : "Download",
    "embargoDate" : "",
    "label" : [ {
      "pref" : "0 - Daten und Dokumente sind für jedermann freigegeben.",
      "de" : "0 - Daten und Dokumente sind für jedermann freigegeben.",
      "en" : "0 - Data and documents are released for everybody."
    } ]
  },
  "collectionModes" : [ {
    "label" : {
      "pref" : "Telefonisches Interview: CATI (Computerunterstützte telefonische Befragung)",
      "de" : "Telefonisches Interview: CATI (Computerunterstützte telefonische Befragung)",
      "en" : "Telephone interview: CATI (Computer Assisted Telephone Interview)"
    }
  } ],
  "contributions" : [ {
    "type" : [ "Creator" ],
    "agent" : {
      "type" : [ "Person" ],
      "uri" : "info:searchapp/vocab/adhoc/UHJlc3NlLSB1bmQgSW5mb3JtYXRpb25zYW10IGRlciBCdW5kZXNyZWdpZXJ1bmcsIEJlcmxpbg==",
      "label" : "Presse- und Informationsamt der Bundesregierung, Berlin"
    },
    "role" : [ ]
  } ],
  "describedBy" : {
    "uri" : "https://git.gesis.org/datorium/dbk-oai-dprex-set-data/oai.dbk.gesis.org.DBK.ZA6617",
    "type" : "ResearchData",
    "modifiedBy" : {
      "uri" : "https://searchapp-indexer",
      "label" : {
        "pref" : "Searchapp Indexer"
      },
      "dateCreated" : "2024-06-21T05:26:26.855+02:00",
      "dateModified" : "2024-06-21T05:26:26.855+02:00",
      "inDataset" : {
        "uri" : "https://dbkapps.gesis.org/dbkoai/?verb=ListIdentifiers&metadataPrefix=oai_dara&set=DPREX"
      },
      "resultOf" : {
        "type" : [ "CreateAction" ],
        "endTime" : "2024-06-21T05:26:26.855+02:00",
        "instrument" : {
          "uri" : "https://git.gesis.org/datorium/searchapp-indexer",
          "type" : [ "SoftwareApplication" ],
          "label" : "Searchapp Indexer"
        },
        "srcObject" : {
          "uri" : "https://dbkapps.gesis.org/dbkoai/?verb=GetRecord&metadataPrefix=oai_dara&identifier=oai:dbk.gesis.org:DBK/ZA6617",
          "type" : [ "DataFeedItem" ],
          "inDataset" : {
            "uri" : "https://dbkapps.gesis.org/dbkoai/?verb=ListIdentifiers&metadataPrefix=oai_dara&set=DPREX",
            "label" : "DBK_OAI"
          }
        }
      }
    }
  },
  "documentId" : "oai.dbk.gesis.org.DBK.ZA6617",
  "geographicCoverages" : [ {
    "geographicCoverageControlled" : "DE"
  } ],
  "handles" : [ {
    "type" : "DOI",
    "notation" : "10.4232/1.12556",
    "url" : "https://doi.org/10.4232/1.12556",
    "source" : {
      "uri" : "https://www.da-ra.de/",
      "label" : "DARA"
    }
  } ],
  "natureOfContents" : [ {
    "uri" : "info:searchapp/vocab/Dataset",
    "label" : {
      "pref" : "Dataset",
      "de" : "Dataset",
      "en" : "Dataset"
    }
  } ],
  "publications" : [ {
    "type" : [ "PublicationEvent" ],
    "startDate" : "2016"
  } ],
  "resourceLanguage" : "deu",
  "rights" : {
    "licenseType" : "",
    "label" : {
      "pref" : "Alle im GESIS DBK veröffentlichten Metadaten sind frei verfügbar unter den Creative Commons CC0 1.0 Universal Public Domain Dedication. GESIS bittet jedoch darum, dass Sie alle Metadatenquellen anerkennen und sie nennen, etwa die Datengeber oder jeglichen Aggregator, inklusive GESIS selbst. Für weitere Informationen siehe https://dbk.gesis.org/dbksearch/guidelines.asp?db=d",
      "de" : "Alle im GESIS DBK veröffentlichten Metadaten sind frei verfügbar unter den Creative Commons CC0 1.0 Universal Public Domain Dedication. GESIS bittet jedoch darum, dass Sie alle Metadatenquellen anerkennen und sie nennen, etwa die Datengeber oder jeglichen Aggregator, inklusive GESIS selbst. Für weitere Informationen siehe https://dbk.gesis.org/dbksearch/guidelines.asp?db=d",
      "en" : "All metadata from GESIS DBK are available free of restriction under the Creative Commons CC0 1.0 Universal Public Domain Dedication. However, GESIS requests that you actively acknowledge and give attribution to all metadata sources, such as the data providers and any data aggregators, including GESIS. For further information see https://dbk.gesis.org/dbksearch/guidelines.asp"
    }
  },
  "sampling" : {
    "method" : {
      "pref" : "Auswahlverfahren Kommentar: Repräsentative Zufallsauswahl aus onomastischer Stichprobe",
      "de" : "Auswahlverfahren Kommentar: Repräsentative Zufallsauswahl aus onomastischer Stichprobe",
      "en" : ""
    }
  },
  "subjects" : [ {
    "type" : [ "SubjectHeading" ],
    "uri" : "info:searchapp/vocab/adhoc/TWlncmF0aW9u",
    "notation" : "",
    "source" : {
      "uri" : "info:searchapp/vocab/adhoc/Q0VTU0RBIFRvcGljIENsYXNzaWZpY2F0aW9u",
      "label" : "CESSDA Topic Classification"
    },
    "label" : {
      "pref" : "Migration",
      "de" : "Migration",
      "en" : "Migration"
    }
  }, {
    "type" : [ "SubjectHeading" ],
    "uri" : "info:searchapp/vocab/adhoc/S3VsdHVyZWxsZSB1bmQgbmF0aW9uYWxlIElkZW50aXTDpHQ=",
    "notation" : "",
    "source" : {
      "uri" : "info:searchapp/vocab/adhoc/Q0VTU0RBIFRvcGljIENsYXNzaWZpY2F0aW9u",
      "label" : "CESSDA Topic Classification"
    },
    "label" : {
      "pref" : "Kulturelle und nationale Identität",
      "de" : "Kulturelle und nationale Identität",
      "en" : "Cultural and national identity"
    }
  }, {
    "type" : [ "SubjectHeading" ],
    "uri" : "info:searchapp/vocab/adhoc/UmVsaWdpb24gdW5kIFdlcnRl",
    "notation" : "",
    "source" : {
      "uri" : "info:searchapp/vocab/adhoc/Q0VTU0RBIFRvcGljIENsYXNzaWZpY2F0aW9u",
      "label" : "CESSDA Topic Classification"
    },
    "label" : {
      "pref" : "Religion und Werte",
      "de" : "Religion und Werte",
      "en" : "Religion and values"
    }
  }, {
    "type" : [ "SubjectHeading" ],
    "uri" : "info:searchapp/vocab/adhoc/U296aWFsZSBMYWdlIHVuZCBzb3ppYWxlIEluZGlrYXRvcmVu",
    "notation" : "",
    "source" : {
      "uri" : "info:searchapp/vocab/adhoc/Q0VTU0RBIFRvcGljIENsYXNzaWZpY2F0aW9u",
      "label" : "CESSDA Topic Classification"
    },
    "label" : {
      "pref" : "Soziale Lage und soziale Indikatoren",
      "de" : "Soziale Lage und soziale Indikatoren",
      "en" : "Social conditions and indicators"
    }
  }, {
    "type" : [ "SubjectHeading" ],
    "uri" : "info:searchapp/vocab/adhoc/UG9saXRpc2NoZXMgVmVyaGFsdGVuIHVuZCBwb2xpdGlzY2hlIEVpbnN0ZWxsdW5nZW4=",
    "notation" : "",
    "source" : {
      "uri" : "info:searchapp/vocab/adhoc/Q0VTU0RBIFRvcGljIENsYXNzaWZpY2F0aW9u",
      "label" : "CESSDA Topic Classification"
    },
    "label" : {
      "pref" : "Politisches Verhalten und politische Einstellungen",
      "de" : "Politisches Verhalten und politische Einstellungen",
      "en" : "Political behaviour and attitudes"
    }
  }, {
    "type" : [ "SubjectHeading" ],
    "uri" : "info:searchapp/vocab/adhoc/R2xlaWNoaGVpdCwgVW5nbGVpY2hoZWl0IHVuZCBzb3ppYWxlIEF1c2dyZW56dW5n",
    "notation" : "",
    "source" : {
      "uri" : "info:searchapp/vocab/adhoc/Q0VTU0RBIFRvcGljIENsYXNzaWZpY2F0aW9u",
      "label" : "CESSDA Topic Classification"
    },
    "label" : {
      "pref" : "Gleichheit, Ungleichheit und soziale Ausgrenzung",
      "de" : "Gleichheit, Ungleichheit und soziale Ausgrenzung",
      "en" : "Equality, inequality and social exclusion"
    }
  } ],
  "temporalCoverages" : [ {
    "startDate" : "2015-10-21",
    "endDate" : "2015-11-21",
    "labels" : [ ]
  } ],
  "timeDimensions" : [ {
    "timeDimensionType" : ""
  } ],
  "title" : {
    "pref" : "Junge Türkischstämmige in Deutschland",
    "de" : "Junge Türkischstämmige in Deutschland",
    "en" : "Young People of Turkish Descent in Germany"
  },
  "universe" : {
    "sampled" : {
      "pref" : "Türkischstämmige Bevölkerung in Deutschland im Alter von 18 bis 34 Jahren",
      "de" : "Türkischstämmige Bevölkerung in Deutschland im Alter von 18 bis 34 Jahren",
      "en" : "Young people of Turkish descent in Germany aged 18 to 34 years"
    }
  },
  "uri" : "https://doi.org/10.4232/1.12556",
  "searchappPublisher" : {
    "shortName" : "GESIS",
    "name" : {
      "de" : "GESIS - Leibniz Institut für Sozialwissenschaften",
      "en" : "GESIS - Leibniz Institute for the Social Sciences"
    },
    "url" : "https://www.gesis.org/"
  },
  "calculatedTemporalCoverage" : {
    "label" : "2015",
    "dates" : [ "2015" ]
  }
}
