{
  "abstract" : {
    "pref" : "Auto- und Heterostereotyp türkischer Schulkinder in KölnerHauptschulen.\nThemen: Aufenthaltsdauer in der Bundesrepublik; Besuch einerVorbereitungsklasse; Dauer der täglichen Hausaufgaben; Schule undDisziplin; Klassenfahrtteilnahme; eigene Einstellung und vermuteteEinstellung der Deutschen zum gemeinsamen bzw. getrennten Schulbesuchvon deutschen Kindern und Gastarbeiterkindern; Nationalität der Lehrer;Türkischkenntnisse der deutschen Lehrer; Einstufung des Verhältnisseszum Lehrer sowie zu türkischen und deutschen Klassenkameraden; Strukturdes Freundeskreises; Ort des Kennenlernens von Freunden; Wunsch nachmehr Kontakt zu Deutschen; Gründe für eventuellen Kontaktmangel;detaillierte Einschätzung der Deutsch- und Türkischkenntnisse desBefragten sowie von Vater und Mutter; Teilnahme der Eltern an einemDeutschkurs; Sehen von türkischen oder deutschen Videofilmen; Radio- undFernsehgewohnheiten; Häufigkeit des Hörens des Radiosprachkurses\"Deutsch für junge Türken\" in der Familie; Bekanntheitsgrad desSprachkurses im eigenen Umfeld; Informationsquelle über den Sprachkurs;Einschätzung des Wahrheitsgehalts der von Medien verbreitetenInformationen; eigenes Interesse an deutschen Sitten und vermutetesInteresse der Deutschen an türkischen Traditionen; Autostereotyp derTürken und Heterostereotyp der Deutschen; tatsächliche sowie präferierteWohnsituation, gemessen am Ausländeranteil in einem Mietshaus;Ausländeranteil in der eigenen Wohngegend; Ort für Freizeitaktivitäten;Hauptverständigungsschwierigkeiten bei Behörden; Bezugsperson; Bedeutungder Nationalität des zukünftigen Ehepartners; Urteil der Eltern über daseigene Anpassungsverhalten; Lebenszufriedenheit; Interesse an deutscherStaatsangehörigkeit; Einreisejahr der Eltern in die BRD; Einladung derEltern zu einem Besuch bei Deutschen; allgemeine Beurteilung der Türkendurch die Deutschen; Beurteilung der Zukunft der Türken in derBundesrepublik Deutschland; eigene Entscheidung für das Verbleiben inder Bundesrepublik oder Rückkehr in die Türkei.\nDemographie: Alter (klassiert); Geschlecht; Familienstand;Familienzusammensetzung; Alter und Anzahl der Geschwister; Anzahl derGeschwister, die in Deutschland geboren sind; Stadtteil in Köln; Jahr,indem der Vater bzw. die Mutter nach Deutschland kamen; beruflicheStellung des Vaters, Alter der Mutter (klassifiziert); Berufstätigkeitder Mutter.\nInterviewerrating: Datum; Schulform; Schuljahrgang;Vorbereitungsklasse; Anzahl der Schüler in der Klasse; Anzahl dertürkischen Schüler in der Klasse; sonstige ausländische Schüler in derKlasse; Stadtteil von Köln, in der die Schule liegt.",
    "de" : "Auto- und Heterostereotyp türkischer Schulkinder in KölnerHauptschulen.\nThemen: Aufenthaltsdauer in der Bundesrepublik; Besuch einerVorbereitungsklasse; Dauer der täglichen Hausaufgaben; Schule undDisziplin; Klassenfahrtteilnahme; eigene Einstellung und vermuteteEinstellung der Deutschen zum gemeinsamen bzw. getrennten Schulbesuchvon deutschen Kindern und Gastarbeiterkindern; Nationalität der Lehrer;Türkischkenntnisse der deutschen Lehrer; Einstufung des Verhältnisseszum Lehrer sowie zu türkischen und deutschen Klassenkameraden; Strukturdes Freundeskreises; Ort des Kennenlernens von Freunden; Wunsch nachmehr Kontakt zu Deutschen; Gründe für eventuellen Kontaktmangel;detaillierte Einschätzung der Deutsch- und Türkischkenntnisse desBefragten sowie von Vater und Mutter; Teilnahme der Eltern an einemDeutschkurs; Sehen von türkischen oder deutschen Videofilmen; Radio- undFernsehgewohnheiten; Häufigkeit des Hörens des Radiosprachkurses\"Deutsch für junge Türken\" in der Familie; Bekanntheitsgrad desSprachkurses im eigenen Umfeld; Informationsquelle über den Sprachkurs;Einschätzung des Wahrheitsgehalts der von Medien verbreitetenInformationen; eigenes Interesse an deutschen Sitten und vermutetesInteresse der Deutschen an türkischen Traditionen; Autostereotyp derTürken und Heterostereotyp der Deutschen; tatsächliche sowie präferierteWohnsituation, gemessen am Ausländeranteil in einem Mietshaus;Ausländeranteil in der eigenen Wohngegend; Ort für Freizeitaktivitäten;Hauptverständigungsschwierigkeiten bei Behörden; Bezugsperson; Bedeutungder Nationalität des zukünftigen Ehepartners; Urteil der Eltern über daseigene Anpassungsverhalten; Lebenszufriedenheit; Interesse an deutscherStaatsangehörigkeit; Einreisejahr der Eltern in die BRD; Einladung derEltern zu einem Besuch bei Deutschen; allgemeine Beurteilung der Türkendurch die Deutschen; Beurteilung der Zukunft der Türken in derBundesrepublik Deutschland; eigene Entscheidung für das Verbleiben inder Bundesrepublik oder Rückkehr in die Türkei.\nDemographie: Alter (klassiert); Geschlecht; Familienstand;Familienzusammensetzung; Alter und Anzahl der Geschwister; Anzahl derGeschwister, die in Deutschland geboren sind; Stadtteil in Köln; Jahr,indem der Vater bzw. die Mutter nach Deutschland kamen; beruflicheStellung des Vaters, Alter der Mutter (klassifiziert); Berufstätigkeitder Mutter.\nInterviewerrating: Datum; Schulform; Schuljahrgang;Vorbereitungsklasse; Anzahl der Schüler in der Klasse; Anzahl dertürkischen Schüler in der Klasse; sonstige ausländische Schüler in derKlasse; Stadtteil von Köln, in der die Schule liegt.",
    "en" : "Autostereotype and heterostereotype of Turkish school children inCologne junior high schools.\nTopics: length of stay in the Federal Republic; attendance at apreparation class; length of daily homework; school and discipline;participation in class trip; personal attitude and assumed attitude ofGermans to common or separate school attendance of German children andchildren of guest workers; nationality of teachers; knowledge ofTurkish by German teachers; classification of the relationship to theteacher as well as to Turkish and German classmates; structure ofcircle of friends; place of getting to know friends; desire for morecontact with Germans; reasons for possible lack of contact; detailedassessment of knowledge of German and Turkish by respondent as well asfather and mother; participation of parents in a German course;watching Turkish or German videofilms; radio and television habits;frequency of listening to the radio language course ´German for youngTurks´ in one´s family; degree of familiarity of the language course inpersonal surroundings; source of information about the language course;assessment of the truth content of information spread by the media;personal interest in German customs and assumed interest of Germans inTurkish traditions; autostereotype of Turks and heterostereotype ofGermans; actual as well as preferred housing situation, measured onproportion of foreigners in an apartment house; proportion offoreigners in one´s residential area; place for leisure activities;primary communication difficulties with authorities; reference person;significance of nationality of future spouse; judgement of parents onpersonal adjustment conduct; contentment with life; interest in Germancitizenship; year of arrival of parents in the FRG; invitation ofparents to a visit with Germans; general judgement on Turks by Germans;judgement on the future of Turks in the Federal Republic Germany;personal decision to remain in the Federal Republic or return toTurkey.\nDemography: age (classified); sex; marital status; family composition;age and number of siblings; number of siblings born in Germany; part oftown in Cologne; year in which father or mother came to Germany;occupational position of father, age of mother (classified); employmentof mother.\nInterviewer rating: date; school form; year of school; preparationclass; number of schoolchildren in the class; number of Turkishschoolchildren in the class; other foreign schoolchildren in the class;part of town in Cologne where the school is."
  },
  "availability" : {
    "availabilityType" : "Delivery",
    "embargoDate" : "",
    "label" : [ {
      "pref" : "C - Daten und Dokumente sind für die akademische Forschung und Lehre nur nach schriftlicher Genehmigung des Datengebers zugänglich. Das Datenarchiv holt dazu schriftlich die Genehmigung unter Angabe des Benutzers und des Auswertungszweckes ein.",
      "de" : "C - Daten und Dokumente sind für die akademische Forschung und Lehre nur nach schriftlicher Genehmigung des Datengebers zugänglich. Das Datenarchiv holt dazu schriftlich die Genehmigung unter Angabe des Benutzers und des Auswertungszweckes ein.",
      "en" : "C - Data and documents are only released for academic research and teaching after the data depositor’s written authorization. For this purpose the Data Archive obtains a written permission with specification of the user and the analysis intention."
    } ]
  },
  "collectionModes" : [ {
    "type" : "SelfAdministeredQuestionnaire.Paper"
  }, {
    "label" : {
      "pref" : "Schriftliche Befragung in Gruppensituation",
      "de" : "Schriftliche Befragung in Gruppensituation",
      "en" : "Written survey in a group situation"
    }
  } ],
  "contributions" : [ {
    "type" : [ "Creator" ],
    "agent" : {
      "type" : [ "Person" ],
      "uri" : "info:searchapp/vocab/adhoc/RGVlbGV5LCBFbGVhbm9yIEMu",
      "label" : "Deeley, Eleanor C.",
      "affiliation" : {
        "uri" : "info:searchapp/vocab/adhoc/SW5zdGl0dXQgZsO8ciBhbmdld2FuZHRlIFNvemlhbGZvcnNjaHVuZywgVW5pdmVyc2l0w6R0IHp1IEvDtmxu",
        "label" : {
          "pref" : "Institut für angewandte Sozialforschung, Universität zu Köln",
          "de" : "Institut für angewandte Sozialforschung, Universität zu Köln",
          "en" : "Institut für angewandte Sozialforschung, Universität zu Köln"
        }
      }
    },
    "role" : [ ]
  } ],
  "describedBy" : {
    "uri" : "https://git.gesis.org/datorium/dbk-oai-dprex-set-data/oai.dbk.gesis.org.DBK.ZA1377",
    "type" : "ResearchData",
    "modifiedBy" : {
      "uri" : "https://searchapp-indexer",
      "label" : {
        "pref" : "Searchapp Indexer"
      },
      "dateCreated" : "2024-06-21T05:26:27.106+02:00",
      "dateModified" : "2024-06-21T05:26:27.106+02:00",
      "inDataset" : {
        "uri" : "https://dbkapps.gesis.org/dbkoai/?verb=ListIdentifiers&metadataPrefix=oai_dara&set=DPREX"
      },
      "resultOf" : {
        "type" : [ "CreateAction" ],
        "endTime" : "2024-06-21T05:26:27.106+02:00",
        "instrument" : {
          "uri" : "https://git.gesis.org/datorium/searchapp-indexer",
          "type" : [ "SoftwareApplication" ],
          "label" : "Searchapp Indexer"
        },
        "srcObject" : {
          "uri" : "https://dbkapps.gesis.org/dbkoai/?verb=GetRecord&metadataPrefix=oai_dara&identifier=oai:dbk.gesis.org:DBK/ZA1377",
          "type" : [ "DataFeedItem" ],
          "inDataset" : {
            "uri" : "https://dbkapps.gesis.org/dbkoai/?verb=ListIdentifiers&metadataPrefix=oai_dara&set=DPREX",
            "label" : "DBK_OAI"
          }
        }
      }
    }
  },
  "documentId" : "oai.dbk.gesis.org.DBK.ZA1377",
  "geographicCoverages" : [ {
    "geographicCoveragesFree" : {
      "pref" : "Köln",
      "de" : "Köln",
      "en" : "Cologne"
    },
    "geographicCoverageControlled" : "DE-NW"
  } ],
  "handles" : [ {
    "type" : "DOI",
    "notation" : "10.4232/1.1377",
    "url" : "https://doi.org/10.4232/1.1377",
    "source" : {
      "uri" : "https://www.da-ra.de/",
      "label" : "DARA"
    }
  } ],
  "natureOfContents" : [ {
    "uri" : "info:searchapp/vocab/Dataset",
    "label" : {
      "pref" : "Dataset",
      "de" : "Dataset",
      "en" : "Dataset"
    }
  } ],
  "publications" : [ {
    "type" : [ "PublicationEvent" ],
    "startDate" : "1986"
  } ],
  "resourceLanguage" : "deu",
  "rights" : {
    "licenseType" : "",
    "label" : {
      "pref" : "Alle im GESIS DBK veröffentlichten Metadaten sind frei verfügbar unter den Creative Commons CC0 1.0 Universal Public Domain Dedication. GESIS bittet jedoch darum, dass Sie alle Metadatenquellen anerkennen und sie nennen, etwa die Datengeber oder jeglichen Aggregator, inklusive GESIS selbst. Für weitere Informationen siehe https://dbk.gesis.org/dbksearch/guidelines.asp?db=d",
      "de" : "Alle im GESIS DBK veröffentlichten Metadaten sind frei verfügbar unter den Creative Commons CC0 1.0 Universal Public Domain Dedication. GESIS bittet jedoch darum, dass Sie alle Metadatenquellen anerkennen und sie nennen, etwa die Datengeber oder jeglichen Aggregator, inklusive GESIS selbst. Für weitere Informationen siehe https://dbk.gesis.org/dbksearch/guidelines.asp?db=d",
      "en" : "All metadata from GESIS DBK are available free of restriction under the Creative Commons CC0 1.0 Universal Public Domain Dedication. However, GESIS requests that you actively acknowledge and give attribution to all metadata sources, such as the data providers and any data aggregators, including GESIS. For further information see https://dbk.gesis.org/dbksearch/guidelines.asp"
    }
  },
  "sampling" : {
    "method" : {
      "pref" : "Wahrscheinlichkeitsauswahl: Mehrstufige Zufallsauswahl; Auswahlverfahren Kommentar: Mehrstufig proportional geschichtete (nach Türkenanteil in den Schulen) Auswahl",
      "de" : "Wahrscheinlichkeitsauswahl: Mehrstufige Zufallsauswahl; Auswahlverfahren Kommentar: Mehrstufig proportional geschichtete (nach Türkenanteil in den Schulen) Auswahl",
      "en" : "Probability: Multistage; Sampling Procedure Comment: Multi-stage proportional stratified (according to proportion of Turks in the schools) sample"
    }
  },
  "subjects" : [ {
    "type" : [ "SubjectHeading" ],
    "uri" : "info:searchapp/vocab/adhoc/TWlncmF0aW9u",
    "notation" : "",
    "source" : {
      "uri" : "info:searchapp/vocab/adhoc/Q0VTU0RBIFRvcGljIENsYXNzaWZpY2F0aW9u",
      "label" : "CESSDA Topic Classification"
    },
    "label" : {
      "pref" : "Migration",
      "de" : "Migration",
      "en" : "Migration"
    }
  }, {
    "type" : [ "SubjectHeading" ],
    "uri" : "info:searchapp/vocab/adhoc/S3VsdHVyZWxsZSB1bmQgbmF0aW9uYWxlIElkZW50aXTDpHQ=",
    "notation" : "",
    "source" : {
      "uri" : "info:searchapp/vocab/adhoc/Q0VTU0RBIFRvcGljIENsYXNzaWZpY2F0aW9u",
      "label" : "CESSDA Topic Classification"
    },
    "label" : {
      "pref" : "Kulturelle und nationale Identität",
      "de" : "Kulturelle und nationale Identität",
      "en" : "Cultural and national identity"
    }
  }, {
    "type" : [ "SubjectHeading" ],
    "uri" : "info:searchapp/vocab/adhoc/U3ByYWNoZSB1bmQgU3ByYWNod2lzc2Vuc2NoYWZ0",
    "notation" : "",
    "source" : {
      "uri" : "info:searchapp/vocab/adhoc/Q0VTU0RBIFRvcGljIENsYXNzaWZpY2F0aW9u",
      "label" : "CESSDA Topic Classification"
    },
    "label" : {
      "pref" : "Sprache und Sprachwissenschaft",
      "de" : "Sprache und Sprachwissenschaft",
      "en" : "Language and linguistics"
    }
  }, {
    "type" : [ "SubjectHeading" ],
    "uri" : "info:searchapp/vocab/adhoc/SnVnZW5k",
    "notation" : "",
    "source" : {
      "uri" : "info:searchapp/vocab/adhoc/Q0VTU0RBIFRvcGljIENsYXNzaWZpY2F0aW9u",
      "label" : "CESSDA Topic Classification"
    },
    "label" : {
      "pref" : "Jugend",
      "de" : "Jugend",
      "en" : "Youth"
    }
  }, {
    "type" : [ "SubjectHeading" ],
    "uri" : "info:searchapp/vocab/adhoc/R2xlaWNoaGVpdCwgVW5nbGVpY2hoZWl0IHVuZCBzb3ppYWxlIEF1c2dyZW56dW5n",
    "notation" : "",
    "source" : {
      "uri" : "info:searchapp/vocab/adhoc/Q0VTU0RBIFRvcGljIENsYXNzaWZpY2F0aW9u",
      "label" : "CESSDA Topic Classification"
    },
    "label" : {
      "pref" : "Gleichheit, Ungleichheit und soziale Ausgrenzung",
      "de" : "Gleichheit, Ungleichheit und soziale Ausgrenzung",
      "en" : "Equality, inequality and social exclusion"
    }
  } ],
  "temporalCoverages" : [ {
    "startDate" : "1984-06",
    "labels" : [ ]
  } ],
  "timeDimensions" : [ {
    "timeDimensionType" : "CrossSection"
  } ],
  "title" : {
    "pref" : "Deutsch für junge Türken",
    "de" : "Deutsch für junge Türken",
    "en" : "German for Young Turks"
  },
  "universe" : {
    "sampled" : {
      "pref" : "Türkische Schüler in Hauptschulen im Stadtgebiet von Köln. Das Alter der Schüler betrug ca. 14 bis 18 Jahre.",
      "de" : "Türkische Schüler in Hauptschulen im Stadtgebiet von Köln. Das Alter der Schüler betrug ca. 14 bis 18 Jahre.",
      "en" : "Turkish schoolchildren in junior high schools in the municipal area of Cologne. The age of the schoolchildren was about 14 to 18 years."
    }
  },
  "uri" : "https://doi.org/10.4232/1.1377",
  "searchappPublisher" : {
    "shortName" : "GESIS",
    "name" : {
      "de" : "GESIS - Leibniz Institut für Sozialwissenschaften",
      "en" : "GESIS - Leibniz Institute for the Social Sciences"
    },
    "url" : "https://www.gesis.org/"
  },
  "calculatedTemporalCoverage" : {
    "label" : "1984",
    "dates" : [ "1984" ]
  }
}
