{
  "abstract" : {
    "pref" : "Beurteilung von Parteien und Politikern in Baden-Württemberg.Einstellung zu aktuellen landespolitischen Fragen.\nThemen: Wahlberechtigung im Bundesland; wichtigste politischeProbleme in Baden-Württemberg; Wahlbeteiligungsabsicht an derLandtagswahl; Präferenz für Briefwahl; Zeitpunkt und Sicherheitder eigenen Wahlentscheidung; Wahlverhalten bei der letztenLandtagswahl 1988; Befürwortung einer Alleinregierung der CDU;Koalitionspräferenz; Sympathie-Skalometer für ausgewählteParteien auf Bundes- und Landesebene; Zufriedenheit mit denLeistungen der CDU-Landesregierung, der SPD-Opposition imLandtag und der Bundesregierung in Bonn; Sympathie-Skalometerfür ausgewählte (Landes-)Politiker; Parteipräferenz imBundesland; Ministerpräsidentenpräferenz; Einstellung zurPolitik von Teufel und Spöri; Bewertung der bisherigenLeistungen des Ministerpräsidenten; Bewertung derRegierungsmannschaften von Teufel und Spöri; Präferenz für einezukünftige Beteiligung der CDU an der Landesregierung;Einstellung zum Ausländeranteil im Bundesland; Kompetenz einerCDU- bzw. SPD-geführten Landesregierung bei der Bekämpfung derArbeitslosigkeit, der Verbesserung der wirtschaftlichen Lage imLande, einem wirksamen Umweltschutz, der Verbesserung derWohnungsmarktsituation, der Durchführung einer sinnvollenVerkehrspolitik und der Lösung der Asylproblematik; Beurteilungder aktuellen und zukünftigen wirtschaftlichen Lage inBaden-Württemberg; Vergleich der wirtschaftlichen LageBaden-Württembergs mit dem übrigen westlichen Bundesgebiet;Zufriedenheit mit der Situation auf dem Wohnungsmarkt und denVerkehrsverhältnissen; Wohnstatus; perzipierter Asylmißbrauch;Präferenz für eine Grundgesetzänderung zur Verhinderung einesAsylmißbrauchs; Zukunftsaussichten des Bundeslandes; Stolz aufBaden-Württemberg; Beurteilung des Anteils der bisherigenLandesregierung am wirtschaftlichen Erfolg Baden-Württembergs;Beurteilung der fehlenden Koalitionsaussage der FDP;Wahrscheinlichkeit einer Regierungsbildung der FDP mit der CDUoder mit der SPD.\nDemographie: Alter (klassiert); Geschlecht; Familienstand; Befragterlebt mit Lebensgefährten/-tin zusammen; Konfession;Kirchgangshäufigkeit; Schulbildung; Berufsausbildung; Staatsexamen,Diplom oder ähnlicher Schulabschluß; Beruf; Berufliche Position;Berufstätigkeit;  perzipierte Gefährdung des eigenen Arbeitsplatzes;Arbeitsplatzgefährdung im sozialen Umfeld; Haushaltsgröße;Haushaltszusammensetzung; Befragter ist Haushaltsvorstand;Charakteristika des Haushaltsvorstands; Parteineigung;Gewerkschaftsmitgliedschaft; Ortsgröße.",
    "de" : "Beurteilung von Parteien und Politikern in Baden-Württemberg.Einstellung zu aktuellen landespolitischen Fragen.\nThemen: Wahlberechtigung im Bundesland; wichtigste politischeProbleme in Baden-Württemberg; Wahlbeteiligungsabsicht an derLandtagswahl; Präferenz für Briefwahl; Zeitpunkt und Sicherheitder eigenen Wahlentscheidung; Wahlverhalten bei der letztenLandtagswahl 1988; Befürwortung einer Alleinregierung der CDU;Koalitionspräferenz; Sympathie-Skalometer für ausgewählteParteien auf Bundes- und Landesebene; Zufriedenheit mit denLeistungen der CDU-Landesregierung, der SPD-Opposition imLandtag und der Bundesregierung in Bonn; Sympathie-Skalometerfür ausgewählte (Landes-)Politiker; Parteipräferenz imBundesland; Ministerpräsidentenpräferenz; Einstellung zurPolitik von Teufel und Spöri; Bewertung der bisherigenLeistungen des Ministerpräsidenten; Bewertung derRegierungsmannschaften von Teufel und Spöri; Präferenz für einezukünftige Beteiligung der CDU an der Landesregierung;Einstellung zum Ausländeranteil im Bundesland; Kompetenz einerCDU- bzw. SPD-geführten Landesregierung bei der Bekämpfung derArbeitslosigkeit, der Verbesserung der wirtschaftlichen Lage imLande, einem wirksamen Umweltschutz, der Verbesserung derWohnungsmarktsituation, der Durchführung einer sinnvollenVerkehrspolitik und der Lösung der Asylproblematik; Beurteilungder aktuellen und zukünftigen wirtschaftlichen Lage inBaden-Württemberg; Vergleich der wirtschaftlichen LageBaden-Württembergs mit dem übrigen westlichen Bundesgebiet;Zufriedenheit mit der Situation auf dem Wohnungsmarkt und denVerkehrsverhältnissen; Wohnstatus; perzipierter Asylmißbrauch;Präferenz für eine Grundgesetzänderung zur Verhinderung einesAsylmißbrauchs; Zukunftsaussichten des Bundeslandes; Stolz aufBaden-Württemberg; Beurteilung des Anteils der bisherigenLandesregierung am wirtschaftlichen Erfolg Baden-Württembergs;Beurteilung der fehlenden Koalitionsaussage der FDP;Wahrscheinlichkeit einer Regierungsbildung der FDP mit der CDUoder mit der SPD.\nDemographie: Alter (klassiert); Geschlecht; Familienstand; Befragterlebt mit Lebensgefährten/-tin zusammen; Konfession;Kirchgangshäufigkeit; Schulbildung; Berufsausbildung; Staatsexamen,Diplom oder ähnlicher Schulabschluß; Beruf; Berufliche Position;Berufstätigkeit;  perzipierte Gefährdung des eigenen Arbeitsplatzes;Arbeitsplatzgefährdung im sozialen Umfeld; Haushaltsgröße;Haushaltszusammensetzung; Befragter ist Haushaltsvorstand;Charakteristika des Haushaltsvorstands; Parteineigung;Gewerkschaftsmitgliedschaft; Ortsgröße.",
    "en" : "Judgement on parties and politicians in Baden-Wuerttemberg. Attitude tocurrent political questions at state level. \nTopics: Eligibility to vote in the state; most important politicalproblems in Baden-Wuerttemberg; intent to participate in the stateelection; preference for absentee ballot; point in time and certaintyof one´s voting decision; behavior at the polls in the last stateparliament election 1988; approval of a one-party government of CDU;coalition preference; sympathy scale for selected parties at federaland state level; satisfaction with the achievements of the CDU stategovernment, SPD opposition in state parliament and Federal Governmentin Bonn; sympathy scale for selected (state) politicians; partypreference in the state; preference for prime minister; attitude to thepolicies of Teufel and Spoeri; evaluation of the achievements of theprime minister up to now; evaluation of the government teams of Teufeland Spoeri; preference for a future participation of the CDU in thestate government; attitude to the proportion of foreigners in thestate; ability of a CDU-led or SPD-led state government in the fightagainst unemployment, improvement in the economic situation in thestate, effective environmental protection, improvement in the situationin the housing market, conducting sensible traffic policy and solvingthe problem of asylum; judgement on the current and future economicsituation in Baden-Wuerttemberg; comparison of the economic situationof Baden-Wuerttemberg with the rest of the western federal territory;satisfaction with the situation in the housing market and trafficconditions; residential status; perceived abuse of asylum; preferencefor an ammendment to the constitution to prevent abuse of asylum;prospects for the future of the state; pride in Baden-Wuerttemberg;judgement on the share of the state government in the economic successof Baden-Wuerttemberg up to now; judgement on the absence of astatement of willingness to form a coalition by the FDP; probability offormation of a government of the FDP with the CDU or the SPD. \nMarital status; living together with a partner through life; perceivedjeopardy to personal job; threat of unemployment within one´s circle offriends; union membership of member of household; religiousness; partyinclination and party identification; city size."
  },
  "availability" : {
    "availabilityType" : "Download",
    "embargoDate" : "",
    "label" : [ {
      "pref" : "A - Daten und Dokumente sind für die akademische Forschung und Lehre freigegeben.",
      "de" : "A - Daten und Dokumente sind für die akademische Forschung und Lehre freigegeben.",
      "en" : "A - Data and documents are released for academic research and teaching."
    } ]
  },
  "collectionModes" : [ {
    "type" : "Interview.Telephone"
  }, {
    "label" : {
      "pref" : "Telefonische Befragung mit standardisiertem Fragebogen",
      "de" : "Telefonische Befragung mit standardisiertem Fragebogen",
      "en" : "Telephone interview with standardized questionnaire"
    }
  } ],
  "contributions" : [ {
    "type" : [ "Creator" ],
    "agent" : {
      "type" : [ "Institution" ],
      "uri" : "info:searchapp/vocab/adhoc/Rm9yc2NodW5nc2dydXBwZSBXYWhsZW4sIE1hbm5oZWlt",
      "label" : "Forschungsgruppe Wahlen, Mannheim"
    },
    "role" : [ ]
  } ],
  "describedBy" : {
    "uri" : "https://git.gesis.org/datorium/dbk-oai-dprex-set-data/oai.dbk.gesis.org.DBK.ZA2301",
    "type" : "ResearchData",
    "modifiedBy" : {
      "uri" : "https://searchapp-indexer",
      "label" : {
        "pref" : "Searchapp Indexer"
      },
      "dateCreated" : "2024-06-21T05:26:26.828+02:00",
      "dateModified" : "2024-06-21T05:26:26.828+02:00",
      "inDataset" : {
        "uri" : "https://dbkapps.gesis.org/dbkoai/?verb=ListIdentifiers&metadataPrefix=oai_dara&set=DPREX"
      },
      "resultOf" : {
        "type" : [ "CreateAction" ],
        "endTime" : "2024-06-21T05:26:26.828+02:00",
        "instrument" : {
          "uri" : "https://git.gesis.org/datorium/searchapp-indexer",
          "type" : [ "SoftwareApplication" ],
          "label" : "Searchapp Indexer"
        },
        "srcObject" : {
          "uri" : "https://dbkapps.gesis.org/dbkoai/?verb=GetRecord&metadataPrefix=oai_dara&identifier=oai:dbk.gesis.org:DBK/ZA2301",
          "type" : [ "DataFeedItem" ],
          "inDataset" : {
            "uri" : "https://dbkapps.gesis.org/dbkoai/?verb=ListIdentifiers&metadataPrefix=oai_dara&set=DPREX",
            "label" : "DBK_OAI"
          }
        }
      }
    }
  },
  "documentId" : "oai.dbk.gesis.org.DBK.ZA2301",
  "geographicCoverages" : [ {
    "geographicCoverageControlled" : "DE-BW"
  } ],
  "handles" : [ {
    "type" : "DOI",
    "notation" : "10.4232/1.11245",
    "url" : "https://doi.org/10.4232/1.11245",
    "source" : {
      "uri" : "https://www.da-ra.de/",
      "label" : "DARA"
    }
  } ],
  "natureOfContents" : [ {
    "uri" : "info:searchapp/vocab/Dataset",
    "label" : {
      "pref" : "Dataset",
      "de" : "Dataset",
      "en" : "Dataset"
    }
  } ],
  "publications" : [ {
    "type" : [ "PublicationEvent" ],
    "startDate" : "2012"
  } ],
  "resourceLanguage" : "deu",
  "rights" : {
    "licenseType" : "",
    "label" : {
      "pref" : "Alle im GESIS DBK veröffentlichten Metadaten sind frei verfügbar unter den Creative Commons CC0 1.0 Universal Public Domain Dedication. GESIS bittet jedoch darum, dass Sie alle Metadatenquellen anerkennen und sie nennen, etwa die Datengeber oder jeglichen Aggregator, inklusive GESIS selbst. Für weitere Informationen siehe https://dbk.gesis.org/dbksearch/guidelines.asp?db=d",
      "de" : "Alle im GESIS DBK veröffentlichten Metadaten sind frei verfügbar unter den Creative Commons CC0 1.0 Universal Public Domain Dedication. GESIS bittet jedoch darum, dass Sie alle Metadatenquellen anerkennen und sie nennen, etwa die Datengeber oder jeglichen Aggregator, inklusive GESIS selbst. Für weitere Informationen siehe https://dbk.gesis.org/dbksearch/guidelines.asp?db=d",
      "en" : "All metadata from GESIS DBK are available free of restriction under the Creative Commons CC0 1.0 Universal Public Domain Dedication. However, GESIS requests that you actively acknowledge and give attribution to all metadata sources, such as the data providers and any data aggregators, including GESIS. For further information see https://dbk.gesis.org/dbksearch/guidelines.asp"
    }
  },
  "sampling" : {
    "method" : {
      "pref" : "Wahrscheinlichkeitsauswahl: Einfache Zufallsauswahl; Auswahlverfahren Kommentar: RLD-Verfahren (Randomize last digit)",
      "de" : "Wahrscheinlichkeitsauswahl: Einfache Zufallsauswahl; Auswahlverfahren Kommentar: RLD-Verfahren (Randomize last digit)",
      "en" : "Probability: Simple random; Sampling Procedure Comment: RLD procedure (Randomize last digit)"
    }
  },
  "subjects" : [ {
    "type" : [ "SubjectHeading" ],
    "uri" : "info:searchapp/vocab/adhoc/TWlncmF0aW9u",
    "notation" : "",
    "source" : {
      "uri" : "info:searchapp/vocab/adhoc/Q0VTU0RBIFRvcGljIENsYXNzaWZpY2F0aW9u",
      "label" : "CESSDA Topic Classification"
    },
    "label" : {
      "pref" : "Migration",
      "de" : "Migration",
      "en" : "Migration"
    }
  }, {
    "type" : [ "SubjectHeading" ],
    "uri" : "info:searchapp/vocab/adhoc/UG9saXRpc2NoZXMgVmVyaGFsdGVuIHVuZCBwb2xpdGlzY2hlIEVpbnN0ZWxsdW5nZW4=",
    "notation" : "",
    "source" : {
      "uri" : "info:searchapp/vocab/adhoc/Q0VTU0RBIFRvcGljIENsYXNzaWZpY2F0aW9u",
      "label" : "CESSDA Topic Classification"
    },
    "label" : {
      "pref" : "Politisches Verhalten und politische Einstellungen",
      "de" : "Politisches Verhalten und politische Einstellungen",
      "en" : "Political behaviour and attitudes"
    }
  }, {
    "type" : [ "SubjectHeading" ],
    "uri" : "info:searchapp/vocab/adhoc/UmVnaWVydW5nLCBwb2xpdGlzY2hlIFN5c3RlbWUsIFBhcnRlaWVuIHVuZCBPcmdhbmlzYXRpb25lbg==",
    "notation" : "",
    "source" : {
      "uri" : "info:searchapp/vocab/adhoc/Q0VTU0RBIFRvcGljIENsYXNzaWZpY2F0aW9u",
      "label" : "CESSDA Topic Classification"
    },
    "label" : {
      "pref" : "Regierung, politische Systeme, Parteien und Organisationen",
      "de" : "Regierung, politische Systeme, Parteien und Organisationen",
      "en" : "Government, political systems and organisations"
    }
  }, {
    "type" : [ "SubjectHeading" ],
    "uri" : "info:searchapp/vocab/adhoc/V2FobGVu",
    "notation" : "",
    "source" : {
      "uri" : "info:searchapp/vocab/adhoc/Q0VTU0RBIFRvcGljIENsYXNzaWZpY2F0aW9u",
      "label" : "CESSDA Topic Classification"
    },
    "label" : {
      "pref" : "Wahlen",
      "de" : "Wahlen",
      "en" : "Elections"
    }
  }, {
    "type" : [ "SubjectHeading" ],
    "uri" : "info:searchapp/vocab/adhoc/V29obnJhdW0=",
    "notation" : "",
    "source" : {
      "uri" : "info:searchapp/vocab/adhoc/Q0VTU0RBIFRvcGljIENsYXNzaWZpY2F0aW9u",
      "label" : "CESSDA Topic Classification"
    },
    "label" : {
      "pref" : "Wohnraum",
      "de" : "Wohnraum",
      "en" : "Housing"
    }
  } ],
  "temporalCoverages" : [ {
    "startDate" : "1992-03",
    "endDate" : "1992-04",
    "labels" : [ ]
  } ],
  "timeDimensions" : [ {
    "timeDimensionType" : "CrossSection"
  } ],
  "title" : {
    "pref" : "Landtagswahl in Baden-Württemberg 1992",
    "de" : "Landtagswahl in Baden-Württemberg 1992",
    "en" : "State Election in Baden-Wuerttemberg 1992"
  },
  "universe" : {
    "sampled" : {
      "pref" : "Wahlberechtigte, die in Privathaushalten mit Telefonanschluss leben",
      "de" : "Wahlberechtigte, die in Privathaushalten mit Telefonanschluss leben",
      "en" : "Persons from the residential population eligible to vote"
    }
  },
  "uri" : "https://doi.org/10.4232/1.11245",
  "searchappPublisher" : {
    "shortName" : "GESIS",
    "name" : {
      "de" : "GESIS - Leibniz Institut für Sozialwissenschaften",
      "en" : "GESIS - Leibniz Institute for the Social Sciences"
    },
    "url" : "https://www.gesis.org/"
  },
  "calculatedTemporalCoverage" : {
    "label" : "1992",
    "dates" : [ "1992" ]
  }
}
