{
  "abstract" : {
    "pref" : "ALLBUScompact ist als alternative Einsteigerversion (Public Use File)für die komplexer strukturierte Vollversion im Angebot. Speziell fürALLBUScompact wurde dementsprechend ein vereinfachtes Demografiemodulselektiert, das die wichtigsten demografischen Indikatoren in einerübersichtlichen Gruppe vereint. Die sonstigen inhaltlichen Fragemodule,die keine sensitiven Daten enthalten, entsprechen weiterhin vollständigder ALLBUS Vollversion (Scientific Use File). ALLBUScompact eignet sichdaher vor allem für Einsteiger in die Datenanalyse. Eine vollständigeBeschreibung der inhaltlichen Fragemodule finden Sie unter  <a href=https://dbk.gesis.org/dbksearch/SDESC2.asp?no=4502&search=allbus&search2=&DB=D target=_self>Studiennummer 4502 (ALLBUS 2006)</a>.",
    "de" : "ALLBUScompact ist als alternative Einsteigerversion (Public Use File)für die komplexer strukturierte Vollversion im Angebot. Speziell fürALLBUScompact wurde dementsprechend ein vereinfachtes Demografiemodulselektiert, das die wichtigsten demografischen Indikatoren in einerübersichtlichen Gruppe vereint. Die sonstigen inhaltlichen Fragemodule,die keine sensitiven Daten enthalten, entsprechen weiterhin vollständigder ALLBUS Vollversion (Scientific Use File). ALLBUScompact eignet sichdaher vor allem für Einsteiger in die Datenanalyse. Eine vollständigeBeschreibung der inhaltlichen Fragemodule finden Sie unter  <a href=https://dbk.gesis.org/dbksearch/SDESC2.asp?no=4502&search=allbus&search2=&DB=D target=_self>Studiennummer 4502 (ALLBUS 2006)</a>.",
    "en" : "ALLBUScompact is offered as an alternative to the structurally morecomplex full version of ALLBUS. It addresses the needs of newcomers todata analysis by providing a simplified demography module containing aneasily manageable group of the most important demographic indicators.All topical question modules not containing sensitive data are retainedas in the ALLBUS full version (scientific use file). For acomprehensive description of study topics please compare <a href=https://dbk.gesis.org/dbksearch/SDesc2_eng.asp?no=4502&search=allbus&search2=&db=E target=_self>Study No. 4502 (ALLBUS 2006)</a>."
  },
  "availability" : {
    "availabilityType" : "Download",
    "embargoDate" : "",
    "label" : [ {
      "pref" : "A - Daten und Dokumente sind für die akademische Forschung und Lehre freigegeben.",
      "de" : "A - Daten und Dokumente sind für die akademische Forschung und Lehre freigegeben.",
      "en" : "A - Data and documents are released for academic research and teaching."
    } ]
  },
  "collectionModes" : [ {
    "type" : "Interview.FaceToFace.CAPICAMI"
  }, {
    "type" : "SelfAdministeredQuestionnaire.ComputerAssisted"
  } ],
  "contributions" : [ {
    "type" : [ "Creator" ],
    "agent" : {
      "type" : [ "Institution" ],
      "uri" : "info:searchapp/vocab/adhoc/R0VTSVMgLSBMZWlibml6LUluc3RpdHV0IGbDvHIgU296aWFsd2lzc2Vuc2NoYWZ0ZW4=",
      "label" : "GESIS - Leibniz-Institut für Sozialwissenschaften"
    },
    "role" : [ ]
  } ],
  "describedBy" : {
    "uri" : "https://git.gesis.org/datorium/dbk-oai-dprex-set-data/oai.dbk.gesis.org.DBK.ZA4503",
    "type" : "ResearchData",
    "modifiedBy" : {
      "uri" : "https://searchapp-indexer",
      "label" : {
        "pref" : "Searchapp Indexer"
      },
      "dateCreated" : "2024-06-21T05:26:26.611+02:00",
      "dateModified" : "2024-06-21T05:26:26.611+02:00",
      "inDataset" : {
        "uri" : "https://dbkapps.gesis.org/dbkoai/?verb=ListIdentifiers&metadataPrefix=oai_dara&set=DPREX"
      },
      "resultOf" : {
        "type" : [ "CreateAction" ],
        "endTime" : "2024-06-21T05:26:26.611+02:00",
        "instrument" : {
          "uri" : "https://git.gesis.org/datorium/searchapp-indexer",
          "type" : [ "SoftwareApplication" ],
          "label" : "Searchapp Indexer"
        },
        "srcObject" : {
          "uri" : "https://dbkapps.gesis.org/dbkoai/?verb=GetRecord&metadataPrefix=oai_dara&identifier=oai:dbk.gesis.org:DBK/ZA4503",
          "type" : [ "DataFeedItem" ],
          "inDataset" : {
            "uri" : "https://dbkapps.gesis.org/dbkoai/?verb=ListIdentifiers&metadataPrefix=oai_dara&set=DPREX",
            "label" : "DBK_OAI"
          }
        }
      }
    }
  },
  "documentId" : "oai.dbk.gesis.org.DBK.ZA4503",
  "geographicCoverages" : [ {
    "geographicCoverageControlled" : "DE"
  } ],
  "handles" : [ {
    "type" : "DOI",
    "notation" : "10.4232/1.10111",
    "url" : "https://doi.org/10.4232/1.10111",
    "source" : {
      "uri" : "https://www.da-ra.de/",
      "label" : "DARA"
    }
  } ],
  "natureOfContents" : [ {
    "uri" : "info:searchapp/vocab/Dataset",
    "label" : {
      "pref" : "Dataset",
      "de" : "Dataset",
      "en" : "Dataset"
    }
  } ],
  "publications" : [ {
    "type" : [ "PublicationEvent" ],
    "startDate" : "2008"
  } ],
  "resourceLanguage" : "eng",
  "rights" : {
    "licenseType" : "",
    "label" : {
      "pref" : "Alle im GESIS DBK veröffentlichten Metadaten sind frei verfügbar unter den Creative Commons CC0 1.0 Universal Public Domain Dedication. GESIS bittet jedoch darum, dass Sie alle Metadatenquellen anerkennen und sie nennen, etwa die Datengeber oder jeglichen Aggregator, inklusive GESIS selbst. Für weitere Informationen siehe https://dbk.gesis.org/dbksearch/guidelines.asp?db=d",
      "de" : "Alle im GESIS DBK veröffentlichten Metadaten sind frei verfügbar unter den Creative Commons CC0 1.0 Universal Public Domain Dedication. GESIS bittet jedoch darum, dass Sie alle Metadatenquellen anerkennen und sie nennen, etwa die Datengeber oder jeglichen Aggregator, inklusive GESIS selbst. Für weitere Informationen siehe https://dbk.gesis.org/dbksearch/guidelines.asp?db=d",
      "en" : "All metadata from GESIS DBK are available free of restriction under the Creative Commons CC0 1.0 Universal Public Domain Dedication. However, GESIS requests that you actively acknowledge and give attribution to all metadata sources, such as the data providers and any data aggregators, including GESIS. For further information see https://dbk.gesis.org/dbksearch/guidelines.asp"
    }
  },
  "sampling" : {
    "method" : {
      "pref" : "Wahrscheinlichkeitsauswahl: Disproportional geschichtete Zufallsauswahl; Wahrscheinlichkeitsauswahl: Mehrstufige Zufallsauswahl",
      "de" : "Wahrscheinlichkeitsauswahl: Disproportional geschichtete Zufallsauswahl; Wahrscheinlichkeitsauswahl: Mehrstufige Zufallsauswahl",
      "en" : "Probability: Stratified: Disproportional; Probability: Multistage"
    }
  },
  "subjects" : [ {
    "type" : [ "SubjectHeading" ],
    "uri" : "info:searchapp/vocab/adhoc/QXJiZWl0c2xvc2lna2VpdA==",
    "notation" : "",
    "source" : {
      "uri" : "info:searchapp/vocab/adhoc/Q0VTU0RBIFRvcGljIENsYXNzaWZpY2F0aW9u",
      "label" : "CESSDA Topic Classification"
    },
    "label" : {
      "pref" : "Arbeitslosigkeit",
      "de" : "Arbeitslosigkeit",
      "en" : "Unemployment"
    }
  }, {
    "type" : [ "SubjectHeading" ],
    "uri" : "info:searchapp/vocab/adhoc/QmVzY2jDpGZ0aWd1bmcgdW5kIEVyd2VyYnN0w6R0aWdrZWl0",
    "notation" : "",
    "source" : {
      "uri" : "info:searchapp/vocab/adhoc/Q0VTU0RBIFRvcGljIENsYXNzaWZpY2F0aW9u",
      "label" : "CESSDA Topic Classification"
    },
    "label" : {
      "pref" : "Beschäftigung und Erwerbstätigkeit",
      "de" : "Beschäftigung und Erwerbstätigkeit",
      "en" : "Employment"
    }
  }, {
    "type" : [ "SubjectHeading" ],
    "uri" : "info:searchapp/vocab/adhoc/TWlncmF0aW9u",
    "notation" : "",
    "source" : {
      "uri" : "info:searchapp/vocab/adhoc/Q0VTU0RBIFRvcGljIENsYXNzaWZpY2F0aW9u",
      "label" : "CESSDA Topic Classification"
    },
    "label" : {
      "pref" : "Migration",
      "de" : "Migration",
      "en" : "Migration"
    }
  }, {
    "type" : [ "SubjectHeading" ],
    "uri" : "info:searchapp/vocab/adhoc/U296aWFsZSBMYWdlIHVuZCBzb3ppYWxlIEluZGlrYXRvcmVu",
    "notation" : "",
    "source" : {
      "uri" : "info:searchapp/vocab/adhoc/Q0VTU0RBIFRvcGljIENsYXNzaWZpY2F0aW9u",
      "label" : "CESSDA Topic Classification"
    },
    "label" : {
      "pref" : "Soziale Lage und soziale Indikatoren",
      "de" : "Soziale Lage und soziale Indikatoren",
      "en" : "Social conditions and indicators"
    }
  }, {
    "type" : [ "SubjectHeading" ],
    "uri" : "info:searchapp/vocab/adhoc/U296aWFsZXMgVmVyaGFsdGVuIHVuZCBzb3ppYWxlIEVpbnN0ZWxsdW5nZW4=",
    "notation" : "",
    "source" : {
      "uri" : "info:searchapp/vocab/adhoc/Q0VTU0RBIFRvcGljIENsYXNzaWZpY2F0aW9u",
      "label" : "CESSDA Topic Classification"
    },
    "label" : {
      "pref" : "Soziales Verhalten und soziale Einstellungen",
      "de" : "Soziales Verhalten und soziale Einstellungen",
      "en" : "Social behaviour and attitudes"
    }
  }, {
    "type" : [ "SubjectHeading" ],
    "uri" : "info:searchapp/vocab/adhoc/UmVwcm9kdWt0aW9uc21lZGl6aW4=",
    "notation" : "",
    "source" : {
      "uri" : "info:searchapp/vocab/adhoc/Q0VTU0RBIFRvcGljIENsYXNzaWZpY2F0aW9u",
      "label" : "CESSDA Topic Classification"
    },
    "label" : {
      "pref" : "Reproduktionsmedizin",
      "de" : "Reproduktionsmedizin",
      "en" : "Reproductive health"
    }
  }, {
    "type" : [ "SubjectHeading" ],
    "uri" : "info:searchapp/vocab/adhoc/UG9saXRpc2NoZSBJZGVvbG9naWU=",
    "notation" : "",
    "source" : {
      "uri" : "info:searchapp/vocab/adhoc/Q0VTU0RBIFRvcGljIENsYXNzaWZpY2F0aW9u",
      "label" : "CESSDA Topic Classification"
    },
    "label" : {
      "pref" : "Politische Ideologie",
      "de" : "Politische Ideologie",
      "en" : "Political ideology"
    }
  }, {
    "type" : [ "SubjectHeading" ],
    "uri" : "info:searchapp/vocab/adhoc/UG9saXRpc2NoZXMgVmVyaGFsdGVuIHVuZCBwb2xpdGlzY2hlIEVpbnN0ZWxsdW5nZW4=",
    "notation" : "",
    "source" : {
      "uri" : "info:searchapp/vocab/adhoc/Q0VTU0RBIFRvcGljIENsYXNzaWZpY2F0aW9u",
      "label" : "CESSDA Topic Classification"
    },
    "label" : {
      "pref" : "Politisches Verhalten und politische Einstellungen",
      "de" : "Politisches Verhalten und politische Einstellungen",
      "en" : "Political behaviour and attitudes"
    }
  }, {
    "type" : [ "SubjectHeading" ],
    "uri" : "info:searchapp/vocab/adhoc/UmVnaWVydW5nLCBwb2xpdGlzY2hlIFN5c3RlbWUsIFBhcnRlaWVuIHVuZCBPcmdhbmlzYXRpb25lbg==",
    "notation" : "",
    "source" : {
      "uri" : "info:searchapp/vocab/adhoc/Q0VTU0RBIFRvcGljIENsYXNzaWZpY2F0aW9u",
      "label" : "CESSDA Topic Classification"
    },
    "label" : {
      "pref" : "Regierung, politische Systeme, Parteien und Organisationen",
      "de" : "Regierung, politische Systeme, Parteien und Organisationen",
      "en" : "Government, political systems and organisations"
    }
  }, {
    "type" : [ "SubjectHeading" ],
    "uri" : "info:searchapp/vocab/adhoc/U09aSUFMRSBTQ0hJQ0hUVU5HIFVORCBHUlVQUElFUlVOR0VO",
    "notation" : "",
    "source" : {
      "uri" : "info:searchapp/vocab/adhoc/Q0VTU0RBIFRvcGljIENsYXNzaWZpY2F0aW9u",
      "label" : "CESSDA Topic Classification"
    },
    "label" : {
      "pref" : "SOZIALE SCHICHTUNG UND GRUPPIERUNGEN",
      "de" : "SOZIALE SCHICHTUNG UND GRUPPIERUNGEN",
      "en" : "SOCIAL STRATIFICATION AND GROUPINGS"
    }
  }, {
    "type" : [ "SubjectHeading" ],
    "uri" : "info:searchapp/vocab/adhoc/RmFtaWxpZSB1bmQgRWhl",
    "notation" : "",
    "source" : {
      "uri" : "info:searchapp/vocab/adhoc/Q0VTU0RBIFRvcGljIENsYXNzaWZpY2F0aW9u",
      "label" : "CESSDA Topic Classification"
    },
    "label" : {
      "pref" : "Familie und Ehe",
      "de" : "Familie und Ehe",
      "en" : "Family life and marriage"
    }
  }, {
    "type" : [ "SubjectHeading" ],
    "uri" : "info:searchapp/vocab/adhoc/V2lydHNjaGFmdGxpY2hlIExhZ2UgdW5kIEluZGlrYXRvcmVu",
    "notation" : "",
    "source" : {
      "uri" : "info:searchapp/vocab/adhoc/Q0VTU0RBIFRvcGljIENsYXNzaWZpY2F0aW9u",
      "label" : "CESSDA Topic Classification"
    },
    "label" : {
      "pref" : "Wirtschaftliche Lage und Indikatoren",
      "de" : "Wirtschaftliche Lage und Indikatoren",
      "en" : "Economic conditions and indicators"
    }
  }, {
    "type" : [ "SubjectHeading" ],
    "uri" : "info:searchapp/vocab/adhoc/V2lydHNjaGFmdHNzeXN0ZW1lIHVuZCB3aXJ0c2NoYWZ0bGljaGUgRW50d2lja2x1bmc=",
    "notation" : "",
    "source" : {
      "uri" : "info:searchapp/vocab/adhoc/Q0VTU0RBIFRvcGljIENsYXNzaWZpY2F0aW9u",
      "label" : "CESSDA Topic Classification"
    },
    "label" : {
      "pref" : "Wirtschaftssysteme und wirtschaftliche Entwicklung",
      "de" : "Wirtschaftssysteme und wirtschaftliche Entwicklung",
      "en" : "Economic systems and development"
    }
  } ],
  "temporalCoverages" : [ {
    "startDate" : "2006-03",
    "endDate" : "2006-08",
    "labels" : [ ]
  } ],
  "timeDimensions" : [ {
    "timeDimensionType" : "CrossSection"
  } ],
  "title" : {
    "pref" : "German General Social Survey - ALLBUScompact 2006",
    "de" : "German General Social Survey - ALLBUScompact 2006",
    "en" : "German General Social Survey - ALLBUScompact 2006"
  },
  "universe" : {
    "sampled" : {
      "pref" : "Alle in der Bundesrepublik Deutschland lebende Personen (Deutsche und\nAusländer), die zum Befragungszeitpunkt in Privathaushalten lebten und\nvor dem 01.01.1988 geboren sind",
      "de" : "Alle in der Bundesrepublik Deutschland lebende Personen (Deutsche und\nAusländer), die zum Befragungszeitpunkt in Privathaushalten lebten und\nvor dem 01.01.1988 geboren sind",
      "en" : "All persons (German and non German) who resided in private households on the day of the interview and were born before 1 January 1988."
    }
  },
  "uri" : "https://doi.org/10.4232/1.10111",
  "searchappPublisher" : {
    "shortName" : "GESIS",
    "name" : {
      "de" : "GESIS - Leibniz Institut für Sozialwissenschaften",
      "en" : "GESIS - Leibniz Institute for the Social Sciences"
    },
    "url" : "https://www.gesis.org/"
  },
  "calculatedTemporalCoverage" : {
    "label" : "2006",
    "dates" : [ "2006" ]
  }
}
