{
  "abstract" : {
    "pref" : "ALLBUScompact ist als alternative Einsteigerversion (Public Use File)für die komplexer strukturierte Vollversion im Angebot. Speziell fürALLBUScompact wurde dementsprechend ein vereinfachtes Demografiemodulselektiert, das die wichtigsten demografischen Indikatoren in einerübersichtlichen Gruppe vereint. Die sonstigen inhaltlichen Fragemodule,die keine sensitiven Daten enthalten, entsprechen weiterhin vollständigder ALLBUS Vollversion (Scientific Use File). ALLBUScompact eignet sichdaher vor allem für Einsteiger in die Datenanalyse. Eine vollständigeBeschreibung der inhaltlichen Fragemodule finden Sie unter <a href=https://dbk.gesis.org/dbksearch/SDESC2.asp?no=1800&search=allbus&search2=&DB=D target=_self>Studiennummer 1800 (ALLBUS 1990)</a>.",
    "de" : "ALLBUScompact ist als alternative Einsteigerversion (Public Use File)für die komplexer strukturierte Vollversion im Angebot. Speziell fürALLBUScompact wurde dementsprechend ein vereinfachtes Demografiemodulselektiert, das die wichtigsten demografischen Indikatoren in einerübersichtlichen Gruppe vereint. Die sonstigen inhaltlichen Fragemodule,die keine sensitiven Daten enthalten, entsprechen weiterhin vollständigder ALLBUS Vollversion (Scientific Use File). ALLBUScompact eignet sichdaher vor allem für Einsteiger in die Datenanalyse. Eine vollständigeBeschreibung der inhaltlichen Fragemodule finden Sie unter <a href=https://dbk.gesis.org/dbksearch/SDESC2.asp?no=1800&search=allbus&search2=&DB=D target=_self>Studiennummer 1800 (ALLBUS 1990)</a>.",
    "en" : "ALLBUScompact is offered as an alternative to the structurally morecomplex full version of ALLBUS. It addresses the needs of newcomers todata analysis by providing a simplified demography module containing aneasily manageable group of the most important demographic indicators.All topical question modules not containing sensitive data are retainedas in the ALLBUS full version (scientific use file). For acomprehensive description of study topics please compare <a href=https://dbk.gesis.org/dbksearch/SDesc2_eng.asp?no=1800&search=allbus&search2=&db=E target=_self>Study No. 1800 (ALLBUS 1990)</a>."
  },
  "availability" : {
    "availabilityType" : "Download",
    "embargoDate" : "",
    "label" : [ {
      "pref" : "A - Daten und Dokumente sind für die akademische Forschung und Lehre freigegeben.",
      "de" : "A - Daten und Dokumente sind für die akademische Forschung und Lehre freigegeben.",
      "en" : "A - Data and documents are released for academic research and teaching."
    } ]
  },
  "collectionModes" : [ {
    "type" : "Interview.FaceToFace.PAPI"
  }, {
    "type" : "SelfAdministeredQuestionnaire.Paper"
  } ],
  "contributions" : [ {
    "type" : [ "Creator" ],
    "agent" : {
      "type" : [ "Institution" ],
      "uri" : "info:searchapp/vocab/adhoc/R0VTSVMgLSBMZWlibml6LUluc3RpdHV0IGbDvHIgU296aWFsd2lzc2Vuc2NoYWZ0ZW4=",
      "label" : "GESIS - Leibniz-Institut für Sozialwissenschaften"
    },
    "role" : [ ]
  } ],
  "describedBy" : {
    "uri" : "https://git.gesis.org/datorium/dbk-oai-dprex-set-data/oai.dbk.gesis.org.DBK.ZA3714",
    "type" : "ResearchData",
    "modifiedBy" : {
      "uri" : "https://searchapp-indexer",
      "label" : {
        "pref" : "Searchapp Indexer"
      },
      "dateCreated" : "2024-06-21T05:26:25.812+02:00",
      "dateModified" : "2024-06-21T05:26:25.812+02:00",
      "inDataset" : {
        "uri" : "https://dbkapps.gesis.org/dbkoai/?verb=ListIdentifiers&metadataPrefix=oai_dara&set=DPREX"
      },
      "resultOf" : {
        "type" : [ "CreateAction" ],
        "endTime" : "2024-06-21T05:26:25.812+02:00",
        "instrument" : {
          "uri" : "https://git.gesis.org/datorium/searchapp-indexer",
          "type" : [ "SoftwareApplication" ],
          "label" : "Searchapp Indexer"
        },
        "srcObject" : {
          "uri" : "https://dbkapps.gesis.org/dbkoai/?verb=GetRecord&metadataPrefix=oai_dara&identifier=oai:dbk.gesis.org:DBK/ZA3714",
          "type" : [ "DataFeedItem" ],
          "inDataset" : {
            "uri" : "https://dbkapps.gesis.org/dbkoai/?verb=ListIdentifiers&metadataPrefix=oai_dara&set=DPREX",
            "label" : "DBK_OAI"
          }
        }
      }
    }
  },
  "documentId" : "oai.dbk.gesis.org.DBK.ZA3714",
  "geographicCoverages" : [ {
    "geographicCoveragesFree" : {
      "pref" : "BRD einschl. West-Berlin ",
      "de" : "BRD einschl. West-Berlin ",
      "en" : "FRG incl. West Berlin"
    },
    "geographicCoverageControlled" : "DE"
  } ],
  "handles" : [ {
    "type" : "DOI",
    "notation" : "10.4232/1.3714",
    "url" : "https://doi.org/10.4232/1.3714",
    "source" : {
      "uri" : "https://www.da-ra.de/",
      "label" : "DARA"
    }
  } ],
  "natureOfContents" : [ {
    "uri" : "info:searchapp/vocab/Dataset",
    "label" : {
      "pref" : "Dataset",
      "de" : "Dataset",
      "en" : "Dataset"
    }
  } ],
  "publications" : [ {
    "type" : [ "PublicationEvent" ],
    "startDate" : "2002"
  } ],
  "resourceLanguage" : "deu",
  "rights" : {
    "licenseType" : "",
    "label" : {
      "pref" : "Alle im GESIS DBK veröffentlichten Metadaten sind frei verfügbar unter den Creative Commons CC0 1.0 Universal Public Domain Dedication. GESIS bittet jedoch darum, dass Sie alle Metadatenquellen anerkennen und sie nennen, etwa die Datengeber oder jeglichen Aggregator, inklusive GESIS selbst. Für weitere Informationen siehe https://dbk.gesis.org/dbksearch/guidelines.asp?db=d",
      "de" : "Alle im GESIS DBK veröffentlichten Metadaten sind frei verfügbar unter den Creative Commons CC0 1.0 Universal Public Domain Dedication. GESIS bittet jedoch darum, dass Sie alle Metadatenquellen anerkennen und sie nennen, etwa die Datengeber oder jeglichen Aggregator, inklusive GESIS selbst. Für weitere Informationen siehe https://dbk.gesis.org/dbksearch/guidelines.asp?db=d",
      "en" : "All metadata from GESIS DBK are available free of restriction under the Creative Commons CC0 1.0 Universal Public Domain Dedication. However, GESIS requests that you actively acknowledge and give attribution to all metadata sources, such as the data providers and any data aggregators, including GESIS. For further information see https://dbk.gesis.org/dbksearch/guidelines.asp"
    }
  },
  "sampling" : {
    "method" : {
      "pref" : "Wahrscheinlichkeitsauswahl: Mehrstufige Zufallsauswahl",
      "de" : "Wahrscheinlichkeitsauswahl: Mehrstufige Zufallsauswahl",
      "en" : "Probability: Multistage"
    }
  },
  "subjects" : [ {
    "type" : [ "SubjectHeading" ],
    "uri" : "info:searchapp/vocab/adhoc/TWlncmF0aW9u",
    "notation" : "",
    "source" : {
      "uri" : "info:searchapp/vocab/adhoc/Q0VTU0RBIFRvcGljIENsYXNzaWZpY2F0aW9u",
      "label" : "CESSDA Topic Classification"
    },
    "label" : {
      "pref" : "Migration",
      "de" : "Migration",
      "en" : "Migration"
    }
  }, {
    "type" : [ "SubjectHeading" ],
    "uri" : "info:searchapp/vocab/adhoc/U296aWFsZXMgVmVyaGFsdGVuIHVuZCBzb3ppYWxlIEVpbnN0ZWxsdW5nZW4=",
    "notation" : "",
    "source" : {
      "uri" : "info:searchapp/vocab/adhoc/Q0VTU0RBIFRvcGljIENsYXNzaWZpY2F0aW9u",
      "label" : "CESSDA Topic Classification"
    },
    "label" : {
      "pref" : "Soziales Verhalten und soziale Einstellungen",
      "de" : "Soziales Verhalten und soziale Einstellungen",
      "en" : "Social behaviour and attitudes"
    }
  }, {
    "type" : [ "SubjectHeading" ],
    "uri" : "info:searchapp/vocab/adhoc/R0VTRVRaLCBLUklNSU5BTElUw4RUIFVORCBSRUNIVFNTWVNURU1F",
    "notation" : "",
    "source" : {
      "uri" : "info:searchapp/vocab/adhoc/Q0VTU0RBIFRvcGljIENsYXNzaWZpY2F0aW9u",
      "label" : "CESSDA Topic Classification"
    },
    "label" : {
      "pref" : "GESETZ, KRIMINALITÄT UND RECHTSSYSTEME",
      "de" : "GESETZ, KRIMINALITÄT UND RECHTSSYSTEME",
      "en" : "LAW, CRIME AND LEGAL SYSTEMS"
    }
  }, {
    "type" : [ "SubjectHeading" ],
    "uri" : "info:searchapp/vocab/adhoc/S3JpbWluYWxpdMOkdCB1bmQgR2VzZXR6ZXN2b2xsenVn",
    "notation" : "",
    "source" : {
      "uri" : "info:searchapp/vocab/adhoc/Q0VTU0RBIFRvcGljIENsYXNzaWZpY2F0aW9u",
      "label" : "CESSDA Topic Classification"
    },
    "label" : {
      "pref" : "Kriminalität und Gesetzesvollzug",
      "de" : "Kriminalität und Gesetzesvollzug",
      "en" : "Crime and law enforcement"
    }
  }, {
    "type" : [ "SubjectHeading" ],
    "uri" : "info:searchapp/vocab/adhoc/U3BlemlmaXNjaGUgS3JhbmtoZWl0ZW4sIFN0w7ZydW5nZW4gdW5kIEdlc3VuZGhlaXRzcHJvYmxlbWU=",
    "notation" : "",
    "source" : {
      "uri" : "info:searchapp/vocab/adhoc/Q0VTU0RBIFRvcGljIENsYXNzaWZpY2F0aW9u",
      "label" : "CESSDA Topic Classification"
    },
    "label" : {
      "pref" : "Spezifische Krankheiten, Störungen und Gesundheitsprobleme",
      "de" : "Spezifische Krankheiten, Störungen und Gesundheitsprobleme",
      "en" : "Specific diseases, disorders and medical conditions"
    }
  }, {
    "type" : [ "SubjectHeading" ],
    "uri" : "info:searchapp/vocab/adhoc/UG9saXRpc2NoZXMgVmVyaGFsdGVuIHVuZCBwb2xpdGlzY2hlIEVpbnN0ZWxsdW5nZW4=",
    "notation" : "",
    "source" : {
      "uri" : "info:searchapp/vocab/adhoc/Q0VTU0RBIFRvcGljIENsYXNzaWZpY2F0aW9u",
      "label" : "CESSDA Topic Classification"
    },
    "label" : {
      "pref" : "Politisches Verhalten und politische Einstellungen",
      "de" : "Politisches Verhalten und politische Einstellungen",
      "en" : "Political behaviour and attitudes"
    }
  }, {
    "type" : [ "SubjectHeading" ],
    "uri" : "info:searchapp/vocab/adhoc/UmVnaWVydW5nLCBwb2xpdGlzY2hlIFN5c3RlbWUsIFBhcnRlaWVuIHVuZCBPcmdhbmlzYXRpb25lbg==",
    "notation" : "",
    "source" : {
      "uri" : "info:searchapp/vocab/adhoc/Q0VTU0RBIFRvcGljIENsYXNzaWZpY2F0aW9u",
      "label" : "CESSDA Topic Classification"
    },
    "label" : {
      "pref" : "Regierung, politische Systeme, Parteien und Organisationen",
      "de" : "Regierung, politische Systeme, Parteien und Organisationen",
      "en" : "Government, political systems and organisations"
    }
  }, {
    "type" : [ "SubjectHeading" ],
    "uri" : "info:searchapp/vocab/adhoc/U09aSUFMRSBTQ0hJQ0hUVU5HIFVORCBHUlVQUElFUlVOR0VO",
    "notation" : "",
    "source" : {
      "uri" : "info:searchapp/vocab/adhoc/Q0VTU0RBIFRvcGljIENsYXNzaWZpY2F0aW9u",
      "label" : "CESSDA Topic Classification"
    },
    "label" : {
      "pref" : "SOZIALE SCHICHTUNG UND GRUPPIERUNGEN",
      "de" : "SOZIALE SCHICHTUNG UND GRUPPIERUNGEN",
      "en" : "SOCIAL STRATIFICATION AND GROUPINGS"
    }
  } ],
  "temporalCoverages" : [ {
    "startDate" : "1990-03",
    "endDate" : "1990-05",
    "labels" : [ ]
  } ],
  "timeDimensions" : [ {
    "timeDimensionType" : "CrossSection"
  } ],
  "title" : {
    "pref" : "Allgemeine Bevölkerungsumfrage der Sozialwissenschaften ALLBUScompact 1990",
    "de" : "Allgemeine Bevölkerungsumfrage der Sozialwissenschaften ALLBUScompact 1990",
    "en" : "ALLBUScompact/GGSScompact 1990 (Allgemeine Bevölkerungsumfrage der \\nSozialwissenschaften/German General Social \\nSurvey 1990)"
  },
  "universe" : {
    "sampled" : {
      "pref" : "In Privathaushalten lebende deutsche Staatsangehörige ab 18 Jahren",
      "de" : "In Privathaushalten lebende deutsche Staatsangehörige ab 18 Jahren",
      "en" : "Private households addressing all individuals with German citizenship who were at least 18 years of age by the day of the interview."
    }
  },
  "uri" : "https://doi.org/10.4232/1.3714",
  "searchappPublisher" : {
    "shortName" : "GESIS",
    "name" : {
      "de" : "GESIS - Leibniz Institut für Sozialwissenschaften",
      "en" : "GESIS - Leibniz Institute for the Social Sciences"
    },
    "url" : "https://www.gesis.org/"
  },
  "calculatedTemporalCoverage" : {
    "label" : "1990",
    "dates" : [ "1990" ]
  }
}
