{
  "abstract" : {
    "pref" : "Merkmale der Ausländerberichterstattung.\nThemen: 1. Formale Präsentation von Ausländerthemen: Nummer desArtikels, Datumsangabe, Monatsangabe, Jahresangabe, Wochentag,Zeitungsname; Seitennummer des Artikels; Platzierung und Hervorhebung:Ort der Platzierung (im Hauptteil oder im Lokalteil); farbliche odersonstige Hervorhebung; Abbildung; Fläche des Artikels in cm² (mit Foto),Fläche der Überschrift in cm².\n2. Inhalte, Themen, Nationalitäten: inhaltliche Übereinstimmung derÜberschrift mit dem Artikel; Übereinstimmung in der Werbung;journalistische Form (Agenturmeldung, eigener Bericht, Mischform daraus,Korrespondentenbericht, Reportage, Interview, Kommentar, Glosse,Leitartikel oder Leserbrief); allgemeiner Themenbereich (Politik, Recht,Wirtschaft, Kultur); Ort des Geschehens (innerhalb bzw. außerhalbThüringens); Bezugsgruppenrelevanz (Einzelpersonen,Bevölkerungsminorität, ein Teil bzw. die Mehrheit der Bevölkerung);inhaltliche Relevanz (existentielle Berührung der betroffenen Personendurch das Ereignis); Themenbezug eher zentral oder eher marginal für dieAusländerproblematik; Kategorisierungen von Inhalten,Ausländerschwerpunkt (Integration und Assimilation; Aufenthaltserlaubnisbzw. Asylverfahren, Staatsbürgerschaft bzw. Doppelpass, Migration bzw.Remigration, Leben in Deutschland bzw. Identität, Status bzw.Partizipation, Kriminalität und Verbrechen, Rechtsextremismus undAusländerfeindlichkeit, Aktivität von Ausländern, Aktivität gegen bzw.für Ausländer, Abschiebung bzw. Ausweisung, Ausländerfeindlichkeit bzw.Rassismus, illegale Beschäftigung von Ausländern); Nationalität derbeschriebenen Person.\n3. Stil des Artikels: Charakterisierung des Stils (semantischesDifferential); Akteure; Rolle der Ausländer in dem Artikel (aktiv oderpassiv); Bewertung der genannten Ausländer; Akteur, der die Bewertungder Ausländer vornimmt; positive, ausgeglichene oder negative Bewertung;Formulierung einer Handlungsanweisung; Initiator der Handlungsanweisung;Form der Handlungsanweisung (Empfehlung, Ratschlag, Mahnung, Forderung,Gesetz oder Bestimmung); Aufgeforderter für die Handlungsanweisung;Argumentation mit Gefahren für deutsche Interessen (Schule bzw.Kindergartenplätze, Geldzahlungen (Arbeitslosengeld, Sozialhilfe,Rente), deutsche Kultur bzw. Tradition, kollektive Sicherheit bzw.Ordnung, Konkurrenz um Arbeitsplätze, Überbevölkerung, Rassismus undÜberfremdung); Argumentation mit Vorteilen für deutsche Interessen(Arbeitskräfte, Ressourcen, kulturelle Bereicherung, Toleranz fördernd,sozialer Frieden); Wortwahl bzw. benutzte Formulierungen (Asylanten,Asylbewerber, Ausländer, Fremde, Ausländische Mitbürger, Flüchtlinge,Rückkehrer, Einwanderer, Migranten, Illegale, Mafia, Kriminelle,Anschlag, Angriff, Verfolgung, Jagd, Fremdenhass,Ausländerfeindlichkeit, Fremdenfeindlichkeit, Rassismus, Abschiebung,Ausweisung, Rückführung, Straftaten, Razzia, Prozess, Kritik).\n4. Liste der Akteure: Regierung (Exekutive); Legislative,Judikative, Parteien auf Bundesebene bzw. Landesebene Thüringen;Interessenverbände, sonstige Akteure.\n5. Zusätzlich verkodet wurde: Coderidentifikation.",
    "de" : "Merkmale der Ausländerberichterstattung.\nThemen: 1. Formale Präsentation von Ausländerthemen: Nummer desArtikels, Datumsangabe, Monatsangabe, Jahresangabe, Wochentag,Zeitungsname; Seitennummer des Artikels; Platzierung und Hervorhebung:Ort der Platzierung (im Hauptteil oder im Lokalteil); farbliche odersonstige Hervorhebung; Abbildung; Fläche des Artikels in cm² (mit Foto),Fläche der Überschrift in cm².\n2. Inhalte, Themen, Nationalitäten: inhaltliche Übereinstimmung derÜberschrift mit dem Artikel; Übereinstimmung in der Werbung;journalistische Form (Agenturmeldung, eigener Bericht, Mischform daraus,Korrespondentenbericht, Reportage, Interview, Kommentar, Glosse,Leitartikel oder Leserbrief); allgemeiner Themenbereich (Politik, Recht,Wirtschaft, Kultur); Ort des Geschehens (innerhalb bzw. außerhalbThüringens); Bezugsgruppenrelevanz (Einzelpersonen,Bevölkerungsminorität, ein Teil bzw. die Mehrheit der Bevölkerung);inhaltliche Relevanz (existentielle Berührung der betroffenen Personendurch das Ereignis); Themenbezug eher zentral oder eher marginal für dieAusländerproblematik; Kategorisierungen von Inhalten,Ausländerschwerpunkt (Integration und Assimilation; Aufenthaltserlaubnisbzw. Asylverfahren, Staatsbürgerschaft bzw. Doppelpass, Migration bzw.Remigration, Leben in Deutschland bzw. Identität, Status bzw.Partizipation, Kriminalität und Verbrechen, Rechtsextremismus undAusländerfeindlichkeit, Aktivität von Ausländern, Aktivität gegen bzw.für Ausländer, Abschiebung bzw. Ausweisung, Ausländerfeindlichkeit bzw.Rassismus, illegale Beschäftigung von Ausländern); Nationalität derbeschriebenen Person.\n3. Stil des Artikels: Charakterisierung des Stils (semantischesDifferential); Akteure; Rolle der Ausländer in dem Artikel (aktiv oderpassiv); Bewertung der genannten Ausländer; Akteur, der die Bewertungder Ausländer vornimmt; positive, ausgeglichene oder negative Bewertung;Formulierung einer Handlungsanweisung; Initiator der Handlungsanweisung;Form der Handlungsanweisung (Empfehlung, Ratschlag, Mahnung, Forderung,Gesetz oder Bestimmung); Aufgeforderter für die Handlungsanweisung;Argumentation mit Gefahren für deutsche Interessen (Schule bzw.Kindergartenplätze, Geldzahlungen (Arbeitslosengeld, Sozialhilfe,Rente), deutsche Kultur bzw. Tradition, kollektive Sicherheit bzw.Ordnung, Konkurrenz um Arbeitsplätze, Überbevölkerung, Rassismus undÜberfremdung); Argumentation mit Vorteilen für deutsche Interessen(Arbeitskräfte, Ressourcen, kulturelle Bereicherung, Toleranz fördernd,sozialer Frieden); Wortwahl bzw. benutzte Formulierungen (Asylanten,Asylbewerber, Ausländer, Fremde, Ausländische Mitbürger, Flüchtlinge,Rückkehrer, Einwanderer, Migranten, Illegale, Mafia, Kriminelle,Anschlag, Angriff, Verfolgung, Jagd, Fremdenhass,Ausländerfeindlichkeit, Fremdenfeindlichkeit, Rassismus, Abschiebung,Ausweisung, Rückführung, Straftaten, Razzia, Prozess, Kritik).\n4. Liste der Akteure: Regierung (Exekutive); Legislative,Judikative, Parteien auf Bundesebene bzw. Landesebene Thüringen;Interessenverbände, sonstige Akteure.\n5. Zusätzlich verkodet wurde: Coderidentifikation.",
    "en" : ""
  },
  "availability" : {
    "availabilityType" : "Delivery",
    "embargoDate" : "",
    "label" : [ {
      "pref" : "C - Daten und Dokumente sind für die akademische Forschung und Lehre nur nach schriftlicher Genehmigung des Datengebers zugänglich. Das Datenarchiv holt dazu schriftlich die Genehmigung unter Angabe des Benutzers und des Auswertungszweckes ein.",
      "de" : "C - Daten und Dokumente sind für die akademische Forschung und Lehre nur nach schriftlicher Genehmigung des Datengebers zugänglich. Das Datenarchiv holt dazu schriftlich die Genehmigung unter Angabe des Benutzers und des Auswertungszweckes ein.",
      "en" : "C - Data and documents are only released for academic research and teaching after the data depositor’s written authorization. For this purpose the Data Archive obtains a written permission with specification of the user and the analysis intention."
    } ]
  },
  "contributions" : [ {
    "type" : [ "Creator" ],
    "agent" : {
      "type" : [ "Person" ],
      "uri" : "info:searchapp/vocab/adhoc/UnVocm1hbm4sIEdlb3Jn",
      "label" : "Ruhrmann, Georg",
      "affiliation" : {
        "uri" : "info:searchapp/vocab/adhoc/RmFrdWx0w6R0IGbDvHIgU296aWFsLSB1bmQgVmVyaGFsdGVuc3dpc3NlbnNjaGFmdGVuIEJlcmVpY2gKTWVkaWVud2lzc2Vuc2NoYWZ0LCBMZWhyc3R1aGwgR3J1bmRsYWdlbiBkZXIgbWVkaWFsZW4gS29tbXVuaWthdGlvbiB1bmQKZGVyIE1lZGllbndpcmt1bmcsIEZyaWVkcmljaC1TY2hpbGxlci1Vbml2ZXJzaXTDpHQgSmVuYQ==",
        "label" : {
          "pref" : "Fakultät für Sozial- und Verhaltenswissenschaften Bereich\nMedienwissenschaft, Lehrstuhl Grundlagen der medialen Kommunikation und\nder Medienwirkung, Friedrich-Schiller-Universität Jena",
          "de" : "Fakultät für Sozial- und Verhaltenswissenschaften Bereich\nMedienwissenschaft, Lehrstuhl Grundlagen der medialen Kommunikation und\nder Medienwirkung, Friedrich-Schiller-Universität Jena",
          "en" : "Fakultät für Sozial- und Verhaltenswissenschaften Bereich\nMedienwissenschaft, Lehrstuhl Grundlagen der medialen Kommunikation und\nder Medienwirkung, Friedrich-Schiller-Universität Jena"
        }
      }
    },
    "role" : [ ]
  }, {
    "type" : [ "Creator" ],
    "agent" : {
      "type" : [ "Institution" ],
      "uri" : "info:searchapp/vocab/adhoc/RGVyIEF1c2zDpG5kZXJiZWF1ZnRyYWd0ZSBkZXIgTGFuZGVzcmVnaWVydW5nIFRow7xyaW5nZW4=",
      "label" : "Der Ausländerbeauftragte der Landesregierung Thüringen"
    },
    "role" : [ ]
  } ],
  "describedBy" : {
    "uri" : "https://git.gesis.org/datorium/dbk-oai-dprex-set-data/oai.dbk.gesis.org.DBK.ZA3472",
    "type" : "ResearchData",
    "modifiedBy" : {
      "uri" : "https://searchapp-indexer",
      "label" : {
        "pref" : "Searchapp Indexer"
      },
      "dateCreated" : "2024-06-21T05:26:26.324+02:00",
      "dateModified" : "2024-06-21T05:26:26.324+02:00",
      "inDataset" : {
        "uri" : "https://dbkapps.gesis.org/dbkoai/?verb=ListIdentifiers&metadataPrefix=oai_dara&set=DPREX"
      },
      "resultOf" : {
        "type" : [ "CreateAction" ],
        "endTime" : "2024-06-21T05:26:26.324+02:00",
        "instrument" : {
          "uri" : "https://git.gesis.org/datorium/searchapp-indexer",
          "type" : [ "SoftwareApplication" ],
          "label" : "Searchapp Indexer"
        },
        "srcObject" : {
          "uri" : "https://dbkapps.gesis.org/dbkoai/?verb=GetRecord&metadataPrefix=oai_dara&identifier=oai:dbk.gesis.org:DBK/ZA3472",
          "type" : [ "DataFeedItem" ],
          "inDataset" : {
            "uri" : "https://dbkapps.gesis.org/dbkoai/?verb=ListIdentifiers&metadataPrefix=oai_dara&set=DPREX",
            "label" : "DBK_OAI"
          }
        }
      }
    }
  },
  "documentId" : "oai.dbk.gesis.org.DBK.ZA3472",
  "geographicCoverages" : [ {
    "geographicCoverageControlled" : "DE-TH"
  } ],
  "handles" : [ {
    "type" : "DOI",
    "notation" : "10.4232/1.3472",
    "url" : "https://doi.org/10.4232/1.3472",
    "source" : {
      "uri" : "https://www.da-ra.de/",
      "label" : "DARA"
    }
  } ],
  "natureOfContents" : [ {
    "uri" : "info:searchapp/vocab/Dataset",
    "label" : {
      "pref" : "Dataset",
      "de" : "Dataset",
      "en" : "Dataset"
    }
  } ],
  "publications" : [ {
    "type" : [ "PublicationEvent" ],
    "startDate" : "2001"
  } ],
  "resourceLanguage" : "deu",
  "rights" : {
    "licenseType" : "",
    "label" : {
      "pref" : "Alle im GESIS DBK veröffentlichten Metadaten sind frei verfügbar unter den Creative Commons CC0 1.0 Universal Public Domain Dedication. GESIS bittet jedoch darum, dass Sie alle Metadatenquellen anerkennen und sie nennen, etwa die Datengeber oder jeglichen Aggregator, inklusive GESIS selbst. Für weitere Informationen siehe https://dbk.gesis.org/dbksearch/guidelines.asp?db=d",
      "de" : "Alle im GESIS DBK veröffentlichten Metadaten sind frei verfügbar unter den Creative Commons CC0 1.0 Universal Public Domain Dedication. GESIS bittet jedoch darum, dass Sie alle Metadatenquellen anerkennen und sie nennen, etwa die Datengeber oder jeglichen Aggregator, inklusive GESIS selbst. Für weitere Informationen siehe https://dbk.gesis.org/dbksearch/guidelines.asp?db=d",
      "en" : "All metadata from GESIS DBK are available free of restriction under the Creative Commons CC0 1.0 Universal Public Domain Dedication. However, GESIS requests that you actively acknowledge and give attribution to all metadata sources, such as the data providers and any data aggregators, including GESIS. For further information see https://dbk.gesis.org/dbksearch/guidelines.asp"
    }
  },
  "sampling" : {
    "method" : {
      "pref" : "Auswahlverfahren Kommentar: Repräsentative Stichprobe der Ausländerberichterstattung in den\nThüringer Regionalzeitungen Einfache Zufallsauswahl von 1.150 Artikeln,\ndie an den ausgewählten Tagen (Verfahren der sog. ´künstlichen Woche´)\nin Zeitungen erschienen sind.",
      "de" : "Auswahlverfahren Kommentar: Repräsentative Stichprobe der Ausländerberichterstattung in den\nThüringer Regionalzeitungen Einfache Zufallsauswahl von 1.150 Artikeln,\ndie an den ausgewählten Tagen (Verfahren der sog. ´künstlichen Woche´)\nin Zeitungen erschienen sind.",
      "en" : ""
    }
  },
  "subjects" : [ {
    "type" : [ "SubjectHeading" ],
    "uri" : "info:searchapp/vocab/adhoc/TWVkaWVu",
    "notation" : "",
    "source" : {
      "uri" : "info:searchapp/vocab/adhoc/Q0VTU0RBIFRvcGljIENsYXNzaWZpY2F0aW9u",
      "label" : "CESSDA Topic Classification"
    },
    "label" : {
      "pref" : "Medien",
      "de" : "Medien",
      "en" : "Media"
    }
  } ],
  "temporalCoverages" : [ {
    "startDate" : "1995",
    "endDate" : "1999",
    "labels" : [ ]
  } ],
  "timeDimensions" : [ {
    "timeDimensionType" : ""
  } ],
  "title" : {
    "pref" : "Das Ausländerbild in den Thüringer Tageszeitungen 1995 - 1999",
    "de" : "Das Ausländerbild in den Thüringer Tageszeitungen 1995 - 1999",
    "en" : "The Image of Foreigner in the Newspapers of Thuringia 1995 - 1999"
  },
  "universe" : {
    "sampled" : {
      "pref" : "Ausländerberichterstattung in den Thüringer Regionalzeitungen Thüringer\nAllgemeine Zeitung (TA), Thüringische Landeszeitung (TLZ), Ostthüringer\nZeitung (OTZ) und Freies Wort (FW). Aus den zahlreichen Lokalausgaben\nwurden die Lokalteile der vier Thüringer Universitätsstädte Erfurt\n(TA), Jena (TLZ), Weimar (OTZ) und Ilmenau (FW) ausgewählt.",
      "de" : "Ausländerberichterstattung in den Thüringer Regionalzeitungen Thüringer\nAllgemeine Zeitung (TA), Thüringische Landeszeitung (TLZ), Ostthüringer\nZeitung (OTZ) und Freies Wort (FW). Aus den zahlreichen Lokalausgaben\nwurden die Lokalteile der vier Thüringer Universitätsstädte Erfurt\n(TA), Jena (TLZ), Weimar (OTZ) und Ilmenau (FW) ausgewählt.",
      "en" : ""
    }
  },
  "uri" : "https://doi.org/10.4232/1.3472",
  "searchappPublisher" : {
    "shortName" : "GESIS",
    "name" : {
      "de" : "GESIS - Leibniz Institut für Sozialwissenschaften",
      "en" : "GESIS - Leibniz Institute for the Social Sciences"
    },
    "url" : "https://www.gesis.org/"
  },
  "calculatedTemporalCoverage" : {
    "label" : "1995 - 1999",
    "dates" : [ "1995", "1996", "1997", "1998", "1999" ]
  }
}
