{
  "abstract" : {
    "pref" : "Vorurteile, Rassismus, Fremdenfeindlichkeit, Antisemitismus, Islamophobie,Etabliertenvorrechte, Sexismus, Homophobie.\nThemen: Einschätzung der wirtschaftlichen Lage in der BundesrepublikDeutschland sowie der eigenen wirtschaftlichen Lage und des eigenenLebensstandards; Einschätzung der eigenen Absicherung für die Zukunft;Einschätzung der wirtschaftlichen Lage in der Wohngegend im Vergleichzur Bundesrepublik insgesamt sowie der Deutschen im Vergleich zu denAusländern in Deutschland; gerechter Anteil am Sozialprodukt;Beurteilung der eigenen finanziellen Leistungsfähigkeit; Einschätzungder eigenen wirtschaftlichen Situation in fünf Jahren; deutsche bzw.andere Staatsangehörigkeit des Befragten sowie seiner Eltern undGroßeltern; Nationalstolz (nur Deutsche); Stolz Europäer zu sein;Wichtigkeit der Einflussnahme zur Lösung gesellschaftlicher Probleme;politische Selbsteinschätzung auf einem Links-Rechts-Kontinuum;Parteipräferenz (Sonntagsfrage); Konfession (Religionszugehörigkeit);Selbsteinstufung: Religiosität; Einstellung zum Absolutheitsanspruchder eigenen Religion; Teilnahmehäufigkeit an Vereins-Veranstaltungen;Größe des Bekanntenkreises; Unterschiedlichkeit der Ansichten imBekanntenkreis; Ausländeranteil im Freundes- und Bekanntenkreis;Ausländer am Arbeitsplatz und Kontakthäufigkeit; Sympathie für Deutscheund in Deutschland lebende Ausländer; Häufigkeit erfahrener Hilfe bzw.Belästigung durch Ausländer; Häufigkeit interessanter Gespräche mitAusländern; Gefühlslage im letzten Monat (wütend, verärgert, zufrieden,hilflos, ängstlich); Soziale Fairness: Solidarität mit Hilfsbedürftigenin Deutschland, fairer Umgang miteinander; Gleichwertigkeit allerBevölkerungsgruppen; Chancengleichheit für alle Bevölkerungsgruppen;Bewertung von sozialer Gleichheit; Unterstützungsanspruch nach demLeistungsprinzip; Unterstützungsverweigerung bei eigener Mitschuld ander Notlage; Autoritarismus (Bestrafung, Ordnung, Gehorsam und Respekt,führende Köpfe); Sexismus: Einstellung zur Rolle der Frau in derGesellschaft (Diskriminierung als Problem, Benachteiligung durchBeschäftigungspolitik, Mutterrolle, Karriere); Orientierungslosigkeit; Islamophobie: Einstellung zum Islam und zuMuslimen; Homophobie; Abwertung von Behinderten undObdachlosen; Einstellung zu Fremdenfeindlichkeit, (bei den befragtenAusländern wurden alternative Frageformulierungen bei dieser Skalaappliziert, die sich auf Aussiedler bzw. Türken beziehen); Einstellungzu Dominanz, Etabliertenvorrechten und Rassismus (Split:unterschiedliche Items); Gewaltbilligung und Gewaltbereitschaft;Antisemitismus (klassischer, sekundärer und IsraelbezogenerAntisemitismus, antisemitische Separation, NS-vergleichendeIsraelkritik, israelkritische Einstellung); Diskriminierungsverhaltenim Alltag (Distanz zu Behinderten, Obdachlosen und Ausländern, Umzug ineine Wohngegend mit vielen Moslems, Frau als Vorgesetzte, keineWohnungsvermietung an Homosexuelle, Einheirat in jüdische Familie);Irrelevanz politischer Partizipation und Gefühl politischerWirksamkeit; soziale Ungleichheit; persönliche soziale Integration,soziale und emotionale Anerkennung und Unterstützung, gesellschaftlicheDistanz; Erwartungsdruck von Seiten Dritter; Selbstbewusstsein;bindungslose Flexibilität (Abschätzen von Kontakten nach Nutzen,Verbergen tatsächlicher Absichten, wichtigere Dinge als Beziehungen zuanderen); Identifikation als Deutscher, Westdeutscher bzw. alsOstdeutscher; Identifikation als Europäer; Nationalstolz: Stolz aufdeutsche Geschichte, Demokratie und soziale Sicherheit in Deutschland(nur Deutsche); Heterophobie (Homosexualität ist unmoralisch, zu vielAufwand für Behinderte, überzogene Forderungen von Behinderten,Obdachlose sind arbeitsscheu); Angst vor sozialem Abstieg seit HartzIV; Ortsverbundenheit; Beurteilung der Demokratie in Deutschland(Skalen: Demokratieermäßigung, Demokratieaushöhlung,Demokratiemissachtung durch Eliten, Demokratievernachlässigung,Demokratiezweifel, Demokratiezuwachs). \nDemographie: Höchster Bildungsabschluss; abgeschlosseneBerufsausbildung; Erwerbstätigkeit; Charakteristika desHaushaltsvorstands (Erwerbstätigkeit, Arbeitslosigkeit undArbeitslosigkeitsdauer, Angst vor Arbeitslosigkeit desHaushaltsvorstands; Wahrscheinlichkeit von Arbeitslosigkeit in dennächsten fünf Jahren; nicht erwerbstätige HH-Vorstände: derzeitigeTätigkeit; schwierige Arbeitssuche; Alter (Geburtsjahr); Geschlecht;Familienstand; fester Lebenspartner; Staatsangehörigkeit desLebenspartners; Haushaltsgröße; Haushaltsnettoeinkommen; Möglichkeitzur finanziellen Rücklagenbildung. \nErwerbstätige wurden gefragt: Berufliche Anerkennung undZufriedenheit; Arbeitslosigkeit und Arbeitslosigkeitsdauer in denletzten fünf Jahren; Angst vor Arbeitslosigkeit; Wahrscheinlichkeit vonArbeitslosigkeit in den nächsten fünf Jahren; Person im Haushalt mithöherem Einkommen.\nNichterwerbstätige wurden gefragt: Erwerbstätigkeit in derVergangenheit; Arbeitslosigkeit und Arbeitslosigkeitsdauer in denletzten fünf Jahren vor Beendigung der Erwerbstätigkeit; Angst vorArbeitslosigkeit; schwierige Arbeitssuche; derzeitige Tätigkeit;Anerkennung der Tätigkeit im Alltag; Zufriedenheit mit der Tätigkeit;Person im Haushalt mit höherem Einkommen.\nZusätzlich verkodet wurde: Migrationshintergrund; Bundesland;Neue/Alte Länder; Gewichtung Ost-West; Gewichtungsfaktoren.",
    "de" : "Vorurteile, Rassismus, Fremdenfeindlichkeit, Antisemitismus, Islamophobie,Etabliertenvorrechte, Sexismus, Homophobie.\nThemen: Einschätzung der wirtschaftlichen Lage in der BundesrepublikDeutschland sowie der eigenen wirtschaftlichen Lage und des eigenenLebensstandards; Einschätzung der eigenen Absicherung für die Zukunft;Einschätzung der wirtschaftlichen Lage in der Wohngegend im Vergleichzur Bundesrepublik insgesamt sowie der Deutschen im Vergleich zu denAusländern in Deutschland; gerechter Anteil am Sozialprodukt;Beurteilung der eigenen finanziellen Leistungsfähigkeit; Einschätzungder eigenen wirtschaftlichen Situation in fünf Jahren; deutsche bzw.andere Staatsangehörigkeit des Befragten sowie seiner Eltern undGroßeltern; Nationalstolz (nur Deutsche); Stolz Europäer zu sein;Wichtigkeit der Einflussnahme zur Lösung gesellschaftlicher Probleme;politische Selbsteinschätzung auf einem Links-Rechts-Kontinuum;Parteipräferenz (Sonntagsfrage); Konfession (Religionszugehörigkeit);Selbsteinstufung: Religiosität; Einstellung zum Absolutheitsanspruchder eigenen Religion; Teilnahmehäufigkeit an Vereins-Veranstaltungen;Größe des Bekanntenkreises; Unterschiedlichkeit der Ansichten imBekanntenkreis; Ausländeranteil im Freundes- und Bekanntenkreis;Ausländer am Arbeitsplatz und Kontakthäufigkeit; Sympathie für Deutscheund in Deutschland lebende Ausländer; Häufigkeit erfahrener Hilfe bzw.Belästigung durch Ausländer; Häufigkeit interessanter Gespräche mitAusländern; Gefühlslage im letzten Monat (wütend, verärgert, zufrieden,hilflos, ängstlich); Soziale Fairness: Solidarität mit Hilfsbedürftigenin Deutschland, fairer Umgang miteinander; Gleichwertigkeit allerBevölkerungsgruppen; Chancengleichheit für alle Bevölkerungsgruppen;Bewertung von sozialer Gleichheit; Unterstützungsanspruch nach demLeistungsprinzip; Unterstützungsverweigerung bei eigener Mitschuld ander Notlage; Autoritarismus (Bestrafung, Ordnung, Gehorsam und Respekt,führende Köpfe); Sexismus: Einstellung zur Rolle der Frau in derGesellschaft (Diskriminierung als Problem, Benachteiligung durchBeschäftigungspolitik, Mutterrolle, Karriere); Orientierungslosigkeit; Islamophobie: Einstellung zum Islam und zuMuslimen; Homophobie; Abwertung von Behinderten undObdachlosen; Einstellung zu Fremdenfeindlichkeit, (bei den befragtenAusländern wurden alternative Frageformulierungen bei dieser Skalaappliziert, die sich auf Aussiedler bzw. Türken beziehen); Einstellungzu Dominanz, Etabliertenvorrechten und Rassismus (Split:unterschiedliche Items); Gewaltbilligung und Gewaltbereitschaft;Antisemitismus (klassischer, sekundärer und IsraelbezogenerAntisemitismus, antisemitische Separation, NS-vergleichendeIsraelkritik, israelkritische Einstellung); Diskriminierungsverhaltenim Alltag (Distanz zu Behinderten, Obdachlosen und Ausländern, Umzug ineine Wohngegend mit vielen Moslems, Frau als Vorgesetzte, keineWohnungsvermietung an Homosexuelle, Einheirat in jüdische Familie);Irrelevanz politischer Partizipation und Gefühl politischerWirksamkeit; soziale Ungleichheit; persönliche soziale Integration,soziale und emotionale Anerkennung und Unterstützung, gesellschaftlicheDistanz; Erwartungsdruck von Seiten Dritter; Selbstbewusstsein;bindungslose Flexibilität (Abschätzen von Kontakten nach Nutzen,Verbergen tatsächlicher Absichten, wichtigere Dinge als Beziehungen zuanderen); Identifikation als Deutscher, Westdeutscher bzw. alsOstdeutscher; Identifikation als Europäer; Nationalstolz: Stolz aufdeutsche Geschichte, Demokratie und soziale Sicherheit in Deutschland(nur Deutsche); Heterophobie (Homosexualität ist unmoralisch, zu vielAufwand für Behinderte, überzogene Forderungen von Behinderten,Obdachlose sind arbeitsscheu); Angst vor sozialem Abstieg seit HartzIV; Ortsverbundenheit; Beurteilung der Demokratie in Deutschland(Skalen: Demokratieermäßigung, Demokratieaushöhlung,Demokratiemissachtung durch Eliten, Demokratievernachlässigung,Demokratiezweifel, Demokratiezuwachs). \nDemographie: Höchster Bildungsabschluss; abgeschlosseneBerufsausbildung; Erwerbstätigkeit; Charakteristika desHaushaltsvorstands (Erwerbstätigkeit, Arbeitslosigkeit undArbeitslosigkeitsdauer, Angst vor Arbeitslosigkeit desHaushaltsvorstands; Wahrscheinlichkeit von Arbeitslosigkeit in dennächsten fünf Jahren; nicht erwerbstätige HH-Vorstände: derzeitigeTätigkeit; schwierige Arbeitssuche; Alter (Geburtsjahr); Geschlecht;Familienstand; fester Lebenspartner; Staatsangehörigkeit desLebenspartners; Haushaltsgröße; Haushaltsnettoeinkommen; Möglichkeitzur finanziellen Rücklagenbildung. \nErwerbstätige wurden gefragt: Berufliche Anerkennung undZufriedenheit; Arbeitslosigkeit und Arbeitslosigkeitsdauer in denletzten fünf Jahren; Angst vor Arbeitslosigkeit; Wahrscheinlichkeit vonArbeitslosigkeit in den nächsten fünf Jahren; Person im Haushalt mithöherem Einkommen.\nNichterwerbstätige wurden gefragt: Erwerbstätigkeit in derVergangenheit; Arbeitslosigkeit und Arbeitslosigkeitsdauer in denletzten fünf Jahren vor Beendigung der Erwerbstätigkeit; Angst vorArbeitslosigkeit; schwierige Arbeitssuche; derzeitige Tätigkeit;Anerkennung der Tätigkeit im Alltag; Zufriedenheit mit der Tätigkeit;Person im Haushalt mit höherem Einkommen.\nZusätzlich verkodet wurde: Migrationshintergrund; Bundesland;Neue/Alte Länder; Gewichtung Ost-West; Gewichtungsfaktoren.",
    "en" : ""
  },
  "availability" : {
    "availabilityType" : "Delivery",
    "embargoDate" : "",
    "label" : [ {
      "pref" : "C - Daten und Dokumente sind für die akademische Forschung und Lehre nur nach schriftlicher Genehmigung des Datengebers zugänglich. Das Datenarchiv holt dazu schriftlich die Genehmigung unter Angabe des Benutzers und des Auswertungszweckes ein.",
      "de" : "C - Daten und Dokumente sind für die akademische Forschung und Lehre nur nach schriftlicher Genehmigung des Datengebers zugänglich. Das Datenarchiv holt dazu schriftlich die Genehmigung unter Angabe des Benutzers und des Auswertungszweckes ein.",
      "en" : "C - Data and documents are only released for academic research and teaching after the data depositor’s written authorization. For this purpose the Data Archive obtains a written permission with specification of the user and the analysis intention."
    } ]
  },
  "collectionModes" : [ {
    "label" : {
      "pref" : "Telefonische Befragung mit standardisiertem Fragebogen (CATI)",
      "de" : "Telefonische Befragung mit standardisiertem Fragebogen (CATI)",
      "en" : ""
    }
  } ],
  "contributions" : [ {
    "type" : [ "Creator" ],
    "agent" : {
      "type" : [ "Person" ],
      "uri" : "info:searchapp/vocab/adhoc/SGVpdG1leWVyLCBXaWxoZWxt",
      "label" : "Heitmeyer, Wilhelm",
      "affiliation" : {
        "uri" : "info:searchapp/vocab/adhoc/SW5zdGl0dXQgZsO8ciBpbnRlcmRpc3ppcGxpbsOkcmUgS29uZmxpa3QtIHVuZCBHZXdhbHRmb3JzY2h1bmcsIFVuaXZlcnNpdMOkdCBCaWVsZWZlbGQ=",
        "label" : {
          "pref" : "Institut für interdisziplinäre Konflikt- und Gewaltforschung, Universität Bielefeld",
          "de" : "Institut für interdisziplinäre Konflikt- und Gewaltforschung, Universität Bielefeld",
          "en" : "Institut für interdisziplinäre Konflikt- und Gewaltforschung, Universität Bielefeld"
        }
      }
    },
    "role" : [ ]
  }, {
    "type" : [ "Creator" ],
    "agent" : {
      "type" : [ "Person" ],
      "uri" : "info:searchapp/vocab/adhoc/WmljaywgQW5kcmVhcw==",
      "label" : "Zick, Andreas",
      "affiliation" : {
        "uri" : "info:searchapp/vocab/adhoc/SW5zdGl0dXQgZsO8ciBpbnRlcmRpc3ppcGxpbsOkcmUgS29uZmxpa3QtIHVuZCBHZXdhbHRmb3JzY2h1bmcsIFVuaXZlcnNpdMOkdCBCaWVsZWZlbGQ=",
        "label" : {
          "pref" : "Institut für interdisziplinäre Konflikt- und Gewaltforschung, Universität Bielefeld",
          "de" : "Institut für interdisziplinäre Konflikt- und Gewaltforschung, Universität Bielefeld",
          "en" : "Institut für interdisziplinäre Konflikt- und Gewaltforschung, Universität Bielefeld"
        }
      }
    },
    "role" : [ ]
  }, {
    "type" : [ "Creator" ],
    "agent" : {
      "type" : [ "Person" ],
      "uri" : "info:searchapp/vocab/adhoc/S8O8aG5lbCwgU3RlZmZlbg==",
      "label" : "Kühnel, Steffen",
      "affiliation" : {
        "uri" : "info:searchapp/vocab/adhoc/VW5pdmVyc2l0w6R0IEfDtnR0aW5nZW4=",
        "label" : {
          "pref" : "Universität Göttingen",
          "de" : "Universität Göttingen",
          "en" : "Universität Göttingen"
        }
      }
    },
    "role" : [ ]
  }, {
    "type" : [ "Creator" ],
    "agent" : {
      "type" : [ "Person" ],
      "uri" : "info:searchapp/vocab/adhoc/U2NobWlkdCwgUGV0ZXI=",
      "label" : "Schmidt, Peter",
      "affiliation" : {
        "uri" : "info:searchapp/vocab/adhoc/VW5pdmVyc2l0w6R0IEdpZcOfZW4=",
        "label" : {
          "pref" : "Universität Gießen",
          "de" : "Universität Gießen",
          "en" : "Universität Gießen"
        }
      }
    },
    "role" : [ ]
  }, {
    "type" : [ "Creator" ],
    "agent" : {
      "type" : [ "Person" ],
      "uri" : "info:searchapp/vocab/adhoc/V2FnbmVyLCBVbHJpY2g=",
      "label" : "Wagner, Ulrich",
      "affiliation" : {
        "uri" : "info:searchapp/vocab/adhoc/VW5pdmVyc2l0w6R0IE1hcmJ1cmc=",
        "label" : {
          "pref" : "Universität Marburg",
          "de" : "Universität Marburg",
          "en" : "Universität Marburg"
        }
      }
    },
    "role" : [ ]
  }, {
    "type" : [ "Creator" ],
    "agent" : {
      "type" : [ "Person" ],
      "uri" : "info:searchapp/vocab/adhoc/TWFuc2VsLCBKw7xyZ2Vu",
      "label" : "Mansel, Jürgen",
      "affiliation" : {
        "uri" : "info:searchapp/vocab/adhoc/VW5pdmVyc2l0w6R0IEJpZWxlZmVsZA==",
        "label" : {
          "pref" : "Universität Bielefeld",
          "de" : "Universität Bielefeld",
          "en" : "Universität Bielefeld"
        }
      }
    },
    "role" : [ ]
  }, {
    "type" : [ "Creator" ],
    "agent" : {
      "type" : [ "Person" ],
      "uri" : "info:searchapp/vocab/adhoc/UmVpbmVja2UsIEpvc3Q=",
      "label" : "Reinecke, Jost",
      "affiliation" : {
        "uri" : "info:searchapp/vocab/adhoc/VW5pdmVyc2l0w6R0IEJpZWxlZmVsZA==",
        "label" : {
          "pref" : "Universität Bielefeld",
          "de" : "Universität Bielefeld",
          "en" : "Universität Bielefeld"
        }
      }
    },
    "role" : [ ]
  } ],
  "describedBy" : {
    "uri" : "https://git.gesis.org/datorium/dbk-oai-dprex-set-data/oai.dbk.gesis.org.DBK.ZA5571",
    "type" : "ResearchData",
    "modifiedBy" : {
      "uri" : "https://searchapp-indexer",
      "label" : {
        "pref" : "Searchapp Indexer"
      },
      "dateCreated" : "2024-06-21T05:26:25.898+02:00",
      "dateModified" : "2024-06-21T05:26:25.898+02:00",
      "inDataset" : {
        "uri" : "https://dbkapps.gesis.org/dbkoai/?verb=ListIdentifiers&metadataPrefix=oai_dara&set=DPREX"
      },
      "resultOf" : {
        "type" : [ "CreateAction" ],
        "endTime" : "2024-06-21T05:26:25.898+02:00",
        "instrument" : {
          "uri" : "https://git.gesis.org/datorium/searchapp-indexer",
          "type" : [ "SoftwareApplication" ],
          "label" : "Searchapp Indexer"
        },
        "srcObject" : {
          "uri" : "https://dbkapps.gesis.org/dbkoai/?verb=GetRecord&metadataPrefix=oai_dara&identifier=oai:dbk.gesis.org:DBK/ZA5571",
          "type" : [ "DataFeedItem" ],
          "inDataset" : {
            "uri" : "https://dbkapps.gesis.org/dbkoai/?verb=ListIdentifiers&metadataPrefix=oai_dara&set=DPREX",
            "label" : "DBK_OAI"
          }
        }
      }
    }
  },
  "documentId" : "oai.dbk.gesis.org.DBK.ZA5571",
  "geographicCoverages" : [ {
    "geographicCoverageControlled" : "DE"
  } ],
  "handles" : [ {
    "type" : "DOI",
    "notation" : "10.4232/1.11812",
    "url" : "https://doi.org/10.4232/1.11812",
    "source" : {
      "uri" : "https://www.da-ra.de/",
      "label" : "DARA"
    }
  } ],
  "natureOfContents" : [ {
    "uri" : "info:searchapp/vocab/Dataset",
    "label" : {
      "pref" : "Dataset",
      "de" : "Dataset",
      "en" : "Dataset"
    }
  } ],
  "publications" : [ {
    "type" : [ "PublicationEvent" ],
    "startDate" : "2013"
  } ],
  "resourceLanguage" : "deu",
  "rights" : {
    "licenseType" : "",
    "label" : {
      "pref" : "Alle im GESIS DBK veröffentlichten Metadaten sind frei verfügbar unter den Creative Commons CC0 1.0 Universal Public Domain Dedication. GESIS bittet jedoch darum, dass Sie alle Metadatenquellen anerkennen und sie nennen, etwa die Datengeber oder jeglichen Aggregator, inklusive GESIS selbst. Für weitere Informationen siehe https://dbk.gesis.org/dbksearch/guidelines.asp?db=d",
      "de" : "Alle im GESIS DBK veröffentlichten Metadaten sind frei verfügbar unter den Creative Commons CC0 1.0 Universal Public Domain Dedication. GESIS bittet jedoch darum, dass Sie alle Metadatenquellen anerkennen und sie nennen, etwa die Datengeber oder jeglichen Aggregator, inklusive GESIS selbst. Für weitere Informationen siehe https://dbk.gesis.org/dbksearch/guidelines.asp?db=d",
      "en" : "All metadata from GESIS DBK are available free of restriction under the Creative Commons CC0 1.0 Universal Public Domain Dedication. However, GESIS requests that you actively acknowledge and give attribution to all metadata sources, such as the data providers and any data aggregators, including GESIS. For further information see https://dbk.gesis.org/dbksearch/guidelines.asp"
    }
  },
  "sampling" : {
    "method" : {
      "pref" : "Auswahlverfahren Kommentar: Repräsentative Zufallsauswahl nach dem RL2D-Verfahren und Auswahl der\nZielperson nach dem Schwedenschlüssel\n\nDisproportionale Stichprobe in den alten Bundesländern (einschließlich\nBerlin) und in den neuen Bundesländern",
      "de" : "Auswahlverfahren Kommentar: Repräsentative Zufallsauswahl nach dem RL2D-Verfahren und Auswahl der\nZielperson nach dem Schwedenschlüssel\n\nDisproportionale Stichprobe in den alten Bundesländern (einschließlich\nBerlin) und in den neuen Bundesländern",
      "en" : ""
    }
  },
  "subjects" : [ {
    "type" : [ "SubjectHeading" ],
    "uri" : "info:searchapp/vocab/adhoc/UG9saXRpc2NoZXMgVmVyaGFsdGVuIHVuZCBwb2xpdGlzY2hlIEVpbnN0ZWxsdW5nZW4=",
    "notation" : "",
    "source" : {
      "uri" : "info:searchapp/vocab/adhoc/Q0VTU0RBIFRvcGljIENsYXNzaWZpY2F0aW9u",
      "label" : "CESSDA Topic Classification"
    },
    "label" : {
      "pref" : "Politisches Verhalten und politische Einstellungen",
      "de" : "Politisches Verhalten und politische Einstellungen",
      "en" : "Political behaviour and attitudes"
    }
  }, {
    "type" : [ "SubjectHeading" ],
    "uri" : "info:searchapp/vocab/adhoc/U09aSUFMRSBTQ0hJQ0hUVU5HIFVORCBHUlVQUElFUlVOR0VO",
    "notation" : "",
    "source" : {
      "uri" : "info:searchapp/vocab/adhoc/Q0VTU0RBIFRvcGljIENsYXNzaWZpY2F0aW9u",
      "label" : "CESSDA Topic Classification"
    },
    "label" : {
      "pref" : "SOZIALE SCHICHTUNG UND GRUPPIERUNGEN",
      "de" : "SOZIALE SCHICHTUNG UND GRUPPIERUNGEN",
      "en" : "SOCIAL STRATIFICATION AND GROUPINGS"
    }
  }, {
    "type" : [ "SubjectHeading" ],
    "uri" : "info:searchapp/vocab/adhoc/TWluZGVyaGVpdGVu",
    "notation" : "",
    "source" : {
      "uri" : "info:searchapp/vocab/adhoc/Q0VTU0RBIFRvcGljIENsYXNzaWZpY2F0aW9u",
      "label" : "CESSDA Topic Classification"
    },
    "label" : {
      "pref" : "Minderheiten",
      "de" : "Minderheiten",
      "en" : "Minorities"
    }
  }, {
    "type" : [ "SubjectHeading" ],
    "uri" : "info:searchapp/vocab/adhoc/R2xlaWNoaGVpdCwgVW5nbGVpY2hoZWl0IHVuZCBzb3ppYWxlIEF1c2dyZW56dW5n",
    "notation" : "",
    "source" : {
      "uri" : "info:searchapp/vocab/adhoc/Q0VTU0RBIFRvcGljIENsYXNzaWZpY2F0aW9u",
      "label" : "CESSDA Topic Classification"
    },
    "label" : {
      "pref" : "Gleichheit, Ungleichheit und soziale Ausgrenzung",
      "de" : "Gleichheit, Ungleichheit und soziale Ausgrenzung",
      "en" : "Equality, inequality and social exclusion"
    }
  } ],
  "temporalCoverages" : [ {
    "startDate" : "2006-05-10",
    "endDate" : "2006-06-18",
    "labels" : [ ]
  } ],
  "timeDimensions" : [ {
    "timeDimensionType" : ""
  } ],
  "title" : {
    "pref" : "Gruppenbezogene Menschenfeindlichkeit (GMF-Survey 2006)",
    "de" : "Gruppenbezogene Menschenfeindlichkeit (GMF-Survey 2006)",
    "en" : "Group-oriented animosity against people (GMF-Survey 2006)"
  },
  "universe" : {
    "sampled" : {
      "pref" : "Deutschsprechende Personen ab 16 Jahren in Telefonhaushalten",
      "de" : "Deutschsprechende Personen ab 16 Jahren in Telefonhaushalten",
      "en" : ""
    }
  },
  "uri" : "https://doi.org/10.4232/1.11812",
  "searchappPublisher" : {
    "shortName" : "GESIS",
    "name" : {
      "de" : "GESIS - Leibniz Institut für Sozialwissenschaften",
      "en" : "GESIS - Leibniz Institute for the Social Sciences"
    },
    "url" : "https://www.gesis.org/"
  },
  "calculatedTemporalCoverage" : {
    "label" : "2006",
    "dates" : [ "2006" ]
  }
}
