{
  "abstract" : {
    "pref" : "Die soziale und wirtschaftliche Situation von Ausländern in derBundesrepublik.\nThemen: Bisherige Aufenthaltsdauer in Deutschland; geschätzterZeitraum, der noch in Deutschland verbracht wird; Heimataufenthalte seitdem Umzug nach Deutschland; Heimataufenthalt im Vorjahr; größte Sorgenund Probleme in Deutschland; Interesse an deutscher Staatsangehörigkeit;perzipierte Einstellung der Deutschen zu Gastarbeitern am Arbeitsplatz;Zufriedenheit mit dem derzeitigen Arbeitsplatz; sympathischste Partei inDeutschland; Parteipräferenz (Sonntagsfrage); durchschnittlichemonatliche Ausgaben für Lebensmittel und Dinge des täglichen Bedarfs;präferierte Kaufstätten für Lebensmittel und Dinge des täglichen Bedarfssowie für Gebrauchsgüter.\nDemographie: Nationalität; Geburtsort in Deutschland oder im Ausland;Haushaltsvorstand; Familienstand; Haushaltsgröße; Anzahl derberufstätigen Haushaltsmitglieder; Anzahl der Kinder im Haushalt; Alterder Kinder; weitere Familienmitglieder in Deutschland außerhalb deseigenen Haushalts; Familienmitglieder im Heimatland; Art derErwerbstätigkeit; Berufsbezeichnung; Einkommen; Alter; Geschlecht;Wohnstatus; Mieterhöhung im Vorjahr; Mieterhöhung für Grundmiete oderNebenkosten; Zufriedenheit mit Wohnung bzw. Unterkunft; Miethöhe undHeizungs- und Warmwasserkosten; Anzahl der absolvierten Schuljahre;Schulabschluss in Deutschland oder Heimat; Art des Schulabschlusses;Selbsteinschätzung der Deutschkenntnisse (Lesen); abgeschlosseneBerufsausbildung sowie Dauer der Berufsausbildung; PKW-Besitz;PKW-Marke; Neu- oder Gebrauchtwagen; jährliche Kilometerleistung;Haushaltsnettoeinkommen.\nInterviewerrating: Anwesenheit Dritter beim Interview sowieBeeinflussung durch Dritte; Bewertung der Verständigung;Kooperationsbereitschaft des Befragten; Kenntnisse der deutschen und dereigenen Sprache.\nZusätzlich verkodet wurde: Bundesland; Ortsgröße.",
    "de" : "Die soziale und wirtschaftliche Situation von Ausländern in derBundesrepublik.\nThemen: Bisherige Aufenthaltsdauer in Deutschland; geschätzterZeitraum, der noch in Deutschland verbracht wird; Heimataufenthalte seitdem Umzug nach Deutschland; Heimataufenthalt im Vorjahr; größte Sorgenund Probleme in Deutschland; Interesse an deutscher Staatsangehörigkeit;perzipierte Einstellung der Deutschen zu Gastarbeitern am Arbeitsplatz;Zufriedenheit mit dem derzeitigen Arbeitsplatz; sympathischste Partei inDeutschland; Parteipräferenz (Sonntagsfrage); durchschnittlichemonatliche Ausgaben für Lebensmittel und Dinge des täglichen Bedarfs;präferierte Kaufstätten für Lebensmittel und Dinge des täglichen Bedarfssowie für Gebrauchsgüter.\nDemographie: Nationalität; Geburtsort in Deutschland oder im Ausland;Haushaltsvorstand; Familienstand; Haushaltsgröße; Anzahl derberufstätigen Haushaltsmitglieder; Anzahl der Kinder im Haushalt; Alterder Kinder; weitere Familienmitglieder in Deutschland außerhalb deseigenen Haushalts; Familienmitglieder im Heimatland; Art derErwerbstätigkeit; Berufsbezeichnung; Einkommen; Alter; Geschlecht;Wohnstatus; Mieterhöhung im Vorjahr; Mieterhöhung für Grundmiete oderNebenkosten; Zufriedenheit mit Wohnung bzw. Unterkunft; Miethöhe undHeizungs- und Warmwasserkosten; Anzahl der absolvierten Schuljahre;Schulabschluss in Deutschland oder Heimat; Art des Schulabschlusses;Selbsteinschätzung der Deutschkenntnisse (Lesen); abgeschlosseneBerufsausbildung sowie Dauer der Berufsausbildung; PKW-Besitz;PKW-Marke; Neu- oder Gebrauchtwagen; jährliche Kilometerleistung;Haushaltsnettoeinkommen.\nInterviewerrating: Anwesenheit Dritter beim Interview sowieBeeinflussung durch Dritte; Bewertung der Verständigung;Kooperationsbereitschaft des Befragten; Kenntnisse der deutschen und dereigenen Sprache.\nZusätzlich verkodet wurde: Bundesland; Ortsgröße.",
    "en" : ""
  },
  "availability" : {
    "availabilityType" : "Download",
    "embargoDate" : "",
    "label" : [ {
      "pref" : "A - Daten und Dokumente sind für die akademische Forschung und Lehre freigegeben.",
      "de" : "A - Daten und Dokumente sind für die akademische Forschung und Lehre freigegeben.",
      "en" : "A - Data and documents are released for academic research and teaching."
    } ]
  },
  "collectionModes" : [ {
    "label" : {
      "pref" : "Mündliche Befragung mit standardisiertem Fragebogen",
      "de" : "Mündliche Befragung mit standardisiertem Fragebogen",
      "en" : ""
    }
  } ],
  "contributions" : [ {
    "type" : [ "Creator" ],
    "agent" : {
      "type" : [ "Institution" ],
      "uri" : "info:searchapp/vocab/adhoc/TUFSUExBTiwgT2ZmZW5iYWNo",
      "label" : "MARPLAN, Offenbach"
    },
    "role" : [ ]
  } ],
  "describedBy" : {
    "uri" : "https://git.gesis.org/datorium/dbk-oai-dprex-set-data/oai.dbk.gesis.org.DBK.ZA3650",
    "type" : "ResearchData",
    "modifiedBy" : {
      "uri" : "https://searchapp-indexer",
      "label" : {
        "pref" : "Searchapp Indexer"
      },
      "dateCreated" : "2024-06-21T05:26:25.587+02:00",
      "dateModified" : "2024-06-21T05:26:25.587+02:00",
      "inDataset" : {
        "uri" : "https://dbkapps.gesis.org/dbkoai/?verb=ListIdentifiers&metadataPrefix=oai_dara&set=DPREX"
      },
      "resultOf" : {
        "type" : [ "CreateAction" ],
        "endTime" : "2024-06-21T05:26:25.587+02:00",
        "instrument" : {
          "uri" : "https://git.gesis.org/datorium/searchapp-indexer",
          "type" : [ "SoftwareApplication" ],
          "label" : "Searchapp Indexer"
        },
        "srcObject" : {
          "uri" : "https://dbkapps.gesis.org/dbkoai/?verb=GetRecord&metadataPrefix=oai_dara&identifier=oai:dbk.gesis.org:DBK/ZA3650",
          "type" : [ "DataFeedItem" ],
          "inDataset" : {
            "uri" : "https://dbkapps.gesis.org/dbkoai/?verb=ListIdentifiers&metadataPrefix=oai_dara&set=DPREX",
            "label" : "DBK_OAI"
          }
        }
      }
    }
  },
  "documentId" : "oai.dbk.gesis.org.DBK.ZA3650",
  "geographicCoverages" : [ {
    "geographicCoveragesFree" : {
      "pref" : "BRD (alte Bundesländer, einschl. den ehemaligen Berlin-West) ",
      "de" : "BRD (alte Bundesländer, einschl. den ehemaligen Berlin-West) ",
      "en" : "FRG (old states, incl. the former west Berlin)"
    },
    "geographicCoverageControlled" : "DE"
  } ],
  "handles" : [ {
    "type" : "DOI",
    "notation" : "10.4232/1.11085",
    "url" : "https://doi.org/10.4232/1.11085",
    "source" : {
      "uri" : "https://www.da-ra.de/",
      "label" : "DARA"
    }
  } ],
  "natureOfContents" : [ {
    "uri" : "info:searchapp/vocab/Dataset",
    "label" : {
      "pref" : "Dataset",
      "de" : "Dataset",
      "en" : "Dataset"
    }
  } ],
  "publications" : [ {
    "type" : [ "PublicationEvent" ],
    "startDate" : "2012"
  } ],
  "resourceLanguage" : "deu",
  "rights" : {
    "licenseType" : "",
    "label" : {
      "pref" : "Alle im GESIS DBK veröffentlichten Metadaten sind frei verfügbar unter den Creative Commons CC0 1.0 Universal Public Domain Dedication. GESIS bittet jedoch darum, dass Sie alle Metadatenquellen anerkennen und sie nennen, etwa die Datengeber oder jeglichen Aggregator, inklusive GESIS selbst. Für weitere Informationen siehe https://dbk.gesis.org/dbksearch/guidelines.asp?db=d",
      "de" : "Alle im GESIS DBK veröffentlichten Metadaten sind frei verfügbar unter den Creative Commons CC0 1.0 Universal Public Domain Dedication. GESIS bittet jedoch darum, dass Sie alle Metadatenquellen anerkennen und sie nennen, etwa die Datengeber oder jeglichen Aggregator, inklusive GESIS selbst. Für weitere Informationen siehe https://dbk.gesis.org/dbksearch/guidelines.asp?db=d",
      "en" : "All metadata from GESIS DBK are available free of restriction under the Creative Commons CC0 1.0 Universal Public Domain Dedication. However, GESIS requests that you actively acknowledge and give attribution to all metadata sources, such as the data providers and any data aggregators, including GESIS. For further information see https://dbk.gesis.org/dbksearch/guidelines.asp"
    }
  },
  "sampling" : {
    "method" : {
      "pref" : "Auswahlverfahren Kommentar: Quotenauswahl (disproportional nach Nationalitäten) nach Geschlecht,\nAlter, Erwerbsstatus und Haushaltsgröße, je etwa 400 Personen pro\nNationalität",
      "de" : "Auswahlverfahren Kommentar: Quotenauswahl (disproportional nach Nationalitäten) nach Geschlecht,\nAlter, Erwerbsstatus und Haushaltsgröße, je etwa 400 Personen pro\nNationalität",
      "en" : ""
    }
  },
  "subjects" : [ {
    "type" : [ "SubjectHeading" ],
    "uri" : "info:searchapp/vocab/adhoc/TWlncmF0aW9u",
    "notation" : "",
    "source" : {
      "uri" : "info:searchapp/vocab/adhoc/Q0VTU0RBIFRvcGljIENsYXNzaWZpY2F0aW9u",
      "label" : "CESSDA Topic Classification"
    },
    "label" : {
      "pref" : "Migration",
      "de" : "Migration",
      "en" : "Migration"
    }
  }, {
    "type" : [ "SubjectHeading" ],
    "uri" : "info:searchapp/vocab/adhoc/S29uc3VtIHVuZCBLb25zdW12ZXJoYWx0ZW4=",
    "notation" : "",
    "source" : {
      "uri" : "info:searchapp/vocab/adhoc/Q0VTU0RBIFRvcGljIENsYXNzaWZpY2F0aW9u",
      "label" : "CESSDA Topic Classification"
    },
    "label" : {
      "pref" : "Konsum und Konsumverhalten",
      "de" : "Konsum und Konsumverhalten",
      "en" : "Consumption and consumer behaviour"
    }
  } ],
  "temporalCoverages" : [ {
    "startDate" : "2000-08",
    "endDate" : "2000-09",
    "labels" : [ ]
  } ],
  "timeDimensions" : [ {
    "timeDimensionType" : ""
  } ],
  "title" : {
    "pref" : "Ausländer in Deutschland 2000 - 2. Welle",
    "de" : "Ausländer in Deutschland 2000 - 2. Welle",
    "en" : "Foreigners in Germany 2000 - 2nd Wave"
  },
  "universe" : {
    "sampled" : {
      "pref" : "Ausländische Wohnbevölkerung ab 15 Jahren (Türken, Italiener,\nJugoslawen, Griechen und Spanier)",
      "de" : "Ausländische Wohnbevölkerung ab 15 Jahren (Türken, Italiener,\nJugoslawen, Griechen und Spanier)",
      "en" : ""
    }
  },
  "uri" : "https://doi.org/10.4232/1.11085",
  "searchappPublisher" : {
    "shortName" : "GESIS",
    "name" : {
      "de" : "GESIS - Leibniz Institut für Sozialwissenschaften",
      "en" : "GESIS - Leibniz Institute for the Social Sciences"
    },
    "url" : "https://www.gesis.org/"
  },
  "calculatedTemporalCoverage" : {
    "label" : "2000",
    "dates" : [ "2000" ]
  }
}
